\relax 
\@writefile{lot}{\contentsline {table}{\numberline {1}{\ignorespaces  Analysis done on Sat Oct 22 04:13:14 PM CEST 2022, par2107}}{1}{}\protected@file@percent }
\@writefile{lot}{\contentsline {table}{\numberline {2}{\ignorespaces  Analysis done on Sat Oct 22 04:13:14 PM CEST 2022, par2107}}{2}{}\protected@file@percent }
\@writefile{lot}{\contentsline {table}{\numberline {3}{\ignorespaces  Analysis done on Sat Oct 22 04:13:14 PM CEST 2022, par2107}}{2}{}\protected@file@percent }
\gdef \@abspage@last{2}
