%!PS-Adobe-3.0
%%Pages: (atend)
%%Creator: jgraph
%%EndComments

%%BeginProlog
%%EndProlog
%%BeginSetup
%%EndSetup

%%Page: 1 1
%%BeginPageSetup
%%EndPageSetup

210.000000 334.500000 translate
1 setlinecap 1 setlinejoin
0.700 setlinewidth
0.00 setgray

/Jrnd { exch cvi exch cvi dup 3 1 roll idiv mul } def
/JDEdict 8 dict def
JDEdict /mtrx matrix put
/JDE {
  JDEdict begin
  /yrad exch def
  /xrad exch def
  /savematrix mtrx currentmatrix def
  xrad yrad scale
  0 0 1 0 360 arc
  savematrix setmatrix
  end
} def
/JSTR {
  gsave 1 eq { gsave 1 setgray fill grestore } if
    exch neg exch neg translate 
    clip                        
    rotate                      
    4 dict begin
      pathbbox  /&top exch def
                /&right exch def
                /&bottom exch def
                &right sub /&width exch def
      newpath
      currentlinewidth mul round dup               
      &bottom exch Jrnd exch &top             
      4 -1 roll currentlinewidth mul setlinewidth  
      { &right exch moveto &width 0 rlineto stroke } for    
    end
  grestore
  newpath
} bind def
 gsave /Times-Roman findfont 9.000000 scalefont setfont
0.000000 0.000000 translate
0.700000 setlinewidth  gsave newpath 0.000000 0.000000 moveto 216.000000 0.000000 lineto stroke
newpath 10.285714 0.000000 moveto 10.285714 -2.000000 lineto stroke
newpath 24.000000 0.000000 moveto 24.000000 -2.000000 lineto stroke
newpath 37.714287 0.000000 moveto 37.714287 -2.000000 lineto stroke
newpath 51.428574 0.000000 moveto 51.428574 -2.000000 lineto stroke
newpath 65.142860 0.000000 moveto 65.142860 -5.000000 lineto stroke
newpath 78.857147 0.000000 moveto 78.857147 -2.000000 lineto stroke
newpath 92.571426 0.000000 moveto 92.571426 -2.000000 lineto stroke
newpath 106.285713 0.000000 moveto 106.285713 -2.000000 lineto stroke
newpath 120.000000 0.000000 moveto 120.000000 -2.000000 lineto stroke
newpath 133.714294 0.000000 moveto 133.714294 -5.000000 lineto stroke
newpath 147.428574 0.000000 moveto 147.428574 -2.000000 lineto stroke
newpath 161.142853 0.000000 moveto 161.142853 -2.000000 lineto stroke
newpath 174.857147 0.000000 moveto 174.857147 -2.000000 lineto stroke
newpath 188.571426 0.000000 moveto 188.571426 -2.000000 lineto stroke
newpath 202.285721 0.000000 moveto 202.285721 -5.000000 lineto stroke
newpath 216.000000 0.000000 moveto 216.000000 -2.000000 lineto stroke
gsave 10.285714 -8.000000 translate 90.000000 rotate
0 -2.700000 translate ( 1) dup stringwidth pop neg 0 moveto
show
grestore
gsave 24.000000 -8.000000 translate 90.000000 rotate
0 -2.700000 translate ( 2) dup stringwidth pop neg 0 moveto
show
grestore
gsave 37.714287 -8.000000 translate 90.000000 rotate
0 -2.700000 translate ( 4) dup stringwidth pop neg 0 moveto
show
grestore
gsave 51.428574 -8.000000 translate 90.000000 rotate
0 -2.700000 translate ( 8) dup stringwidth pop neg 0 moveto
show
grestore
gsave 65.142860 -8.000000 translate 90.000000 rotate
0 -2.700000 translate ( 16) dup stringwidth pop neg 0 moveto
show
grestore
gsave 78.857147 -8.000000 translate 90.000000 rotate
0 -2.700000 translate ( 32) dup stringwidth pop neg 0 moveto
show
grestore
gsave 92.571426 -8.000000 translate 90.000000 rotate
0 -2.700000 translate ( 64) dup stringwidth pop neg 0 moveto
show
grestore
gsave 106.285713 -8.000000 translate 90.000000 rotate
0 -2.700000 translate ( 128) dup stringwidth pop neg 0 moveto
show
grestore
gsave 120.000000 -8.000000 translate 90.000000 rotate
0 -2.700000 translate ( 256) dup stringwidth pop neg 0 moveto
show
grestore
gsave 133.714294 -8.000000 translate 90.000000 rotate
0 -2.700000 translate ( 512) dup stringwidth pop neg 0 moveto
show
grestore
gsave 147.428574 -8.000000 translate 90.000000 rotate
0 -2.700000 translate ( 1024) dup stringwidth pop neg 0 moveto
show
grestore
gsave 161.142853 -8.000000 translate 90.000000 rotate
0 -2.700000 translate ( 2048) dup stringwidth pop neg 0 moveto
show
grestore
gsave 174.857147 -8.000000 translate 90.000000 rotate
0 -2.700000 translate ( 4096) dup stringwidth pop neg 0 moveto
show
grestore
gsave 188.571426 -8.000000 translate 90.000000 rotate
0 -2.700000 translate ( 8192) dup stringwidth pop neg 0 moveto
show
grestore
gsave 202.285721 -8.000000 translate 90.000000 rotate
0 -2.700000 translate ( 16384) dup stringwidth pop neg 0 moveto
show
grestore
gsave 216.000000 -8.000000 translate 90.000000 rotate
0 -2.700000 translate ( 32768) dup stringwidth pop neg 0 moveto
show
grestore
/Times-Bold findfont 10.000000 scalefont setfont
gsave 108.000000 -41.919998 translate 0.000000 rotate
0 -6.000000 translate (Number of tasks in taskloop) dup stringwidth pop 2 div neg 0 moveto
show
grestore
 grestore 
0.700000 setlinewidth  gsave newpath 0.000000 0.000000 moveto 0.000000 216.000000 lineto stroke
newpath 0.000000 0.000000 moveto -5.000000 0.000000 lineto stroke
newpath 0.000000 7.504140 moveto -2.000000 7.504140 lineto stroke
newpath 0.000000 15.008281 moveto -2.000000 15.008281 lineto stroke
newpath 0.000000 22.512423 moveto -2.000000 22.512423 lineto stroke
newpath 0.000000 30.016562 moveto -2.000000 30.016562 lineto stroke
newpath 0.000000 37.520702 moveto -2.000000 37.520702 lineto stroke
newpath 0.000000 45.024845 moveto -2.000000 45.024845 lineto stroke
newpath 0.000000 52.528988 moveto -2.000000 52.528988 lineto stroke
newpath 0.000000 60.033131 moveto -2.000000 60.033131 lineto stroke
newpath 0.000000 67.537270 moveto -2.000000 67.537270 lineto stroke
newpath 0.000000 75.041405 moveto -5.000000 75.041405 lineto stroke
newpath 0.000000 82.545547 moveto -2.000000 82.545547 lineto stroke
newpath 0.000000 90.049690 moveto -2.000000 90.049690 lineto stroke
newpath 0.000000 97.553833 moveto -2.000000 97.553833 lineto stroke
newpath 0.000000 105.057976 moveto -2.000000 105.057976 lineto stroke
newpath 0.000000 112.562119 moveto -2.000000 112.562119 lineto stroke
newpath 0.000000 120.066261 moveto -2.000000 120.066261 lineto stroke
newpath 0.000000 127.570404 moveto -2.000000 127.570404 lineto stroke
newpath 0.000000 135.074539 moveto -2.000000 135.074539 lineto stroke
newpath 0.000000 142.578690 moveto -2.000000 142.578690 lineto stroke
newpath 0.000000 150.082809 moveto -5.000000 150.082809 lineto stroke
newpath 0.000000 157.586945 moveto -2.000000 157.586945 lineto stroke
newpath 0.000000 165.091080 moveto -2.000000 165.091080 lineto stroke
newpath 0.000000 172.595215 moveto -2.000000 172.595215 lineto stroke
newpath 0.000000 180.099350 moveto -2.000000 180.099350 lineto stroke
newpath 0.000000 187.603470 moveto -2.000000 187.603470 lineto stroke
newpath 0.000000 195.107605 moveto -2.000000 195.107605 lineto stroke
newpath 0.000000 202.611740 moveto -2.000000 202.611740 lineto stroke
newpath 0.000000 210.115875 moveto -2.000000 210.115875 lineto stroke
/Times-Roman findfont 9.000000 scalefont setfont
gsave -8.000000 0.000000 translate 0.000000 rotate
0 -2.700000 translate (0) dup stringwidth pop neg 0 moveto
show
grestore
gsave -8.000000 75.041405 translate 0.000000 rotate
0 -2.700000 translate (1) dup stringwidth pop neg 0 moveto
show
grestore
gsave -8.000000 150.082809 translate 0.000000 rotate
0 -2.700000 translate (2) dup stringwidth pop neg 0 moveto
show
grestore
/Times-Bold findfont 10.000000 scalefont setfont
gsave -20.320000 108.000000 translate 90.000000 rotate
0 0.000000 translate (Execution time ) dup stringwidth pop 2 div neg 0 moveto
show
grestore
 grestore 
/Times-Roman findfont 12.000000 scalefont setfont
gsave 108.000000 -57.919998 translate 0.000000 rotate
0 -7.200000 translate (par2107) dup stringwidth pop 2 div neg 0 moveto
show 0 -14.400000 translate
(Average elapsed execution time ) dup stringwidth pop 2 div neg 0 moveto
show 0 -14.400000 translate
(Sat Oct 22 05:24:37 PM CEST 2022) dup stringwidth pop 2 div neg 0 moveto
show
grestore
 gsave 
 gsave  gsave  37.714287 108.308838 translate 0.000000 rotate
 newpath 3.428571 0.000000 moveto  -3.428571 0.000000 lineto
  -3.428571 -108.308838 lineto
  3.428571 -108.308838 lineto
closepath gsave 0.500000 setgray  fill grestore
stroke
 grestore  gsave  51.428574 89.953186 translate 0.000000 rotate
 newpath 3.428571 0.000000 moveto  -3.428571 0.000000 lineto
  -3.428571 -89.953186 lineto
  3.428571 -89.953186 lineto
closepath gsave 0.500000 setgray  fill grestore
stroke
 grestore  gsave  10.285714 216.000015 translate 0.000000 rotate
 newpath 3.428571 0.000000 moveto  -3.428571 0.000000 lineto
  -3.428571 -216.000015 lineto
  3.428571 -216.000015 lineto
closepath gsave 0.500000 setgray  fill grestore
stroke
 grestore  gsave  65.142860 54.855190 translate 0.000000 rotate
 newpath 3.428571 0.000000 moveto  -3.428571 0.000000 lineto
  -3.428571 -54.855190 lineto
  3.428571 -54.855190 lineto
closepath gsave 0.500000 setgray  fill grestore
stroke
 grestore  gsave  78.857147 30.854250 translate 0.000000 rotate
 newpath 3.428571 0.000000 moveto  -3.428571 0.000000 lineto
  -3.428571 -30.854250 lineto
  3.428571 -30.854250 lineto
closepath gsave 0.500000 setgray  fill grestore
stroke
 grestore  gsave  92.571426 16.825483 translate 0.000000 rotate
 newpath 3.428571 0.000000 moveto  -3.428571 0.000000 lineto
  -3.428571 -16.825483 lineto
  3.428571 -16.825483 lineto
closepath gsave 0.500000 setgray  fill grestore
stroke
 grestore  gsave  106.285713 8.119030 translate 0.000000 rotate
 newpath 3.428571 0.000000 moveto  -3.428571 0.000000 lineto
  -3.428571 -8.119030 lineto
  3.428571 -8.119030 lineto
closepath gsave 0.500000 setgray  fill grestore
stroke
 grestore  gsave  120.000000 6.721459 translate 0.000000 rotate
 newpath 3.428571 0.000000 moveto  -3.428571 0.000000 lineto
  -3.428571 -6.721459 lineto
  3.428571 -6.721459 lineto
closepath gsave 0.500000 setgray  fill grestore
stroke
 grestore  gsave  24.000000 108.217216 translate 0.000000 rotate
 newpath 3.428571 0.000000 moveto  -3.428571 0.000000 lineto
  -3.428571 -108.217216 lineto
  3.428571 -108.217216 lineto
closepath gsave 0.500000 setgray  fill grestore
stroke
 grestore  gsave  133.714294 6.341374 translate 0.000000 rotate
 newpath 3.428571 0.000000 moveto  -3.428571 0.000000 lineto
  -3.428571 -6.341374 lineto
  3.428571 -6.341374 lineto
closepath gsave 0.500000 setgray  fill grestore
stroke
 grestore  gsave  147.428574 6.493333 translate 0.000000 rotate
 newpath 3.428571 0.000000 moveto  -3.428571 0.000000 lineto
  -3.428571 -6.493333 lineto
  3.428571 -6.493333 lineto
closepath gsave 0.500000 setgray  fill grestore
stroke
 grestore  gsave  161.142853 6.549539 translate 0.000000 rotate
 newpath 3.428571 0.000000 moveto  -3.428571 0.000000 lineto
  -3.428571 -6.549539 lineto
  3.428571 -6.549539 lineto
closepath gsave 0.500000 setgray  fill grestore
stroke
 grestore  gsave  174.857147 6.133584 translate 0.000000 rotate
 newpath 3.428571 0.000000 moveto  -3.428571 0.000000 lineto
  -3.428571 -6.133584 lineto
  3.428571 -6.133584 lineto
closepath gsave 0.500000 setgray  fill grestore
stroke
 grestore  gsave  188.571426 5.964666 translate 0.000000 rotate
 newpath 3.428571 0.000000 moveto  -3.428571 0.000000 lineto
  -3.428571 -5.964666 lineto
  3.428571 -5.964666 lineto
closepath gsave 0.500000 setgray  fill grestore
stroke
 grestore  gsave  202.285721 6.112648 translate 0.000000 rotate
 newpath 3.428571 0.000000 moveto  -3.428571 0.000000 lineto
  -3.428571 -6.112648 lineto
  3.428571 -6.112648 lineto
closepath gsave 0.500000 setgray  fill grestore
stroke
 grestore  gsave  216.000000 6.325615 translate 0.000000 rotate
 newpath 3.428571 0.000000 moveto  -3.428571 0.000000 lineto
  -3.428571 -6.325615 lineto
  3.428571 -6.325615 lineto
closepath gsave 0.500000 setgray  fill grestore
stroke
 grestore  gsave  37.714287 109.210007 translate 0.000000 rotate
 newpath 3.428571 0.000000 moveto  -3.428571 0.000000 lineto
  -3.428571 -109.210007 lineto
  3.428571 -109.210007 lineto
closepath gsave 0.500000 setgray  fill grestore
stroke
 grestore  grestore 
 grestore 
-0.000000 -0.000000 translate
 grestore showpage
%%PageTrailer

%%Trailer
%%Pages: 1
%%EOF
