1   .99273499040855475286
2   .97155981625723986419
3   .95450442790429971091
4   .95856705594892476649
5   .92668461557999542810
6   .91507505549215585457
7   .91544242180933144312
8   .90393191615876319310
9   .88980074628685705923
10   .88884693156625331936
11   .88658979624072026536
12   .89112647159396219041
13   .88089575662461519888
14   .88312395613971389151
15   .87845663034972611810
16   .86919594997022036926
17   .82744426552967591227
18   .83007985803016858917
19   .82527313442964102332
20   .82138997703633662028
