1   0.073503
2   0.075105
3   0.076447
4   0.076123
5   0.078742
6   0.079741
7   0.079709
8   0.080724
9   0.082006
10   0.082094
11   0.082303
12   0.081884
13   0.082835
14   0.082626
15   0.083065
16   0.083950
17   0.088186
18   0.087906
19   0.088418
20   0.088836
