%!PS-Adobe-3.0
%%Pages: (atend)
%%Creator: jgraph
%%EndComments

%%BeginProlog
%%EndProlog
%%BeginSetup
%%EndSetup

%%Page: 1 1
%%BeginPageSetup
%%EndPageSetup

213.000000 162.500000 translate
1 setlinecap 1 setlinejoin
0.700 setlinewidth
0.00 setgray

/Jrnd { exch cvi exch cvi dup 3 1 roll idiv mul } def
/JDEdict 8 dict def
JDEdict /mtrx matrix put
/JDE {
  JDEdict begin
  /yrad exch def
  /xrad exch def
  /savematrix mtrx currentmatrix def
  xrad yrad scale
  0 0 1 0 360 arc
  savematrix setmatrix
  end
} def
/JSTR {
  gsave 1 eq { gsave 1 setgray fill grestore } if
    exch neg exch neg translate 
    clip                        
    rotate                      
    4 dict begin
      pathbbox  /&top exch def
                /&right exch def
                /&bottom exch def
                &right sub /&width exch def
      newpath
      currentlinewidth mul round dup               
      &bottom exch Jrnd exch &top             
      4 -1 roll currentlinewidth mul setlinewidth  
      { &right exch moveto &width 0 rlineto stroke } for    
    end
  grestore
  newpath
} bind def
 gsave /Times-Roman findfont 9.000000 scalefont setfont
0.000000 324.000000 translate
0.700000 setlinewidth  gsave newpath 0.000000 0.000000 moveto 216.000000 0.000000 lineto stroke
newpath 0.000000 0.000000 moveto 0.000000 -2.000000 lineto stroke
newpath 11.368421 0.000000 moveto 11.368421 -2.000000 lineto stroke
newpath 22.736841 0.000000 moveto 22.736841 -2.000000 lineto stroke
newpath 34.105263 0.000000 moveto 34.105263 -2.000000 lineto stroke
newpath 45.473682 0.000000 moveto 45.473682 -5.000000 lineto stroke
newpath 56.842102 0.000000 moveto 56.842102 -2.000000 lineto stroke
newpath 68.210526 0.000000 moveto 68.210526 -2.000000 lineto stroke
newpath 79.578941 0.000000 moveto 79.578941 -2.000000 lineto stroke
newpath 90.947365 0.000000 moveto 90.947365 -2.000000 lineto stroke
newpath 102.315788 0.000000 moveto 102.315788 -5.000000 lineto stroke
newpath 113.684204 0.000000 moveto 113.684204 -2.000000 lineto stroke
newpath 125.052628 0.000000 moveto 125.052628 -2.000000 lineto stroke
newpath 136.421051 0.000000 moveto 136.421051 -2.000000 lineto stroke
newpath 147.789474 0.000000 moveto 147.789474 -2.000000 lineto stroke
newpath 159.157883 0.000000 moveto 159.157883 -5.000000 lineto stroke
newpath 170.526306 0.000000 moveto 170.526306 -2.000000 lineto stroke
newpath 181.894730 0.000000 moveto 181.894730 -2.000000 lineto stroke
newpath 193.263153 0.000000 moveto 193.263153 -2.000000 lineto stroke
newpath 204.631577 0.000000 moveto 204.631577 -2.000000 lineto stroke
newpath 215.999985 0.000000 moveto 215.999985 -5.000000 lineto stroke
gsave 45.473682 -8.000000 translate 0.000000 rotate
0 -5.400000 translate (5) dup stringwidth pop 2 div neg 0 moveto
show
grestore
gsave 102.315788 -8.000000 translate 0.000000 rotate
0 -5.400000 translate (10) dup stringwidth pop 2 div neg 0 moveto
show
grestore
gsave 159.157883 -8.000000 translate 0.000000 rotate
0 -5.400000 translate (15) dup stringwidth pop 2 div neg 0 moveto
show
grestore
gsave 215.999985 -8.000000 translate 0.000000 rotate
0 -5.400000 translate (20) dup stringwidth pop 2 div neg 0 moveto
show
grestore
/Times-Bold findfont 10.000000 scalefont setfont
gsave 108.000000 -21.400000 translate 0.000000 rotate
0 -6.000000 translate (OMP #threads) dup stringwidth pop 2 div neg 0 moveto
show
grestore
 grestore 
0.700000 setlinewidth  gsave newpath 0.000000 0.000000 moveto 0.000000 216.000000 lineto stroke
newpath 0.000000 0.000000 moveto -5.000000 0.000000 lineto stroke
newpath 0.000000 31.302763 moveto -2.000000 31.302763 lineto stroke
newpath 0.000000 62.605526 moveto -5.000000 62.605526 lineto stroke
newpath 0.000000 93.908287 moveto -2.000000 93.908287 lineto stroke
newpath 0.000000 125.211052 moveto -5.000000 125.211052 lineto stroke
newpath 0.000000 156.513809 moveto -2.000000 156.513809 lineto stroke
newpath 0.000000 187.816574 moveto -5.000000 187.816574 lineto stroke
/Times-Roman findfont 9.000000 scalefont setfont
gsave -8.000000 0.000000 translate 0.000000 rotate
0 -2.700000 translate (0.0) dup stringwidth pop neg 0 moveto
show
grestore
gsave -8.000000 62.605526 translate 0.000000 rotate
0 -2.700000 translate (0.2) dup stringwidth pop neg 0 moveto
show
grestore
gsave -8.000000 125.211052 translate 0.000000 rotate
0 -2.700000 translate (0.4) dup stringwidth pop neg 0 moveto
show
grestore
gsave -8.000000 187.816574 translate 0.000000 rotate
0 -2.700000 translate (0.6) dup stringwidth pop neg 0 moveto
show
grestore
/Times-Bold findfont 10.000000 scalefont setfont
gsave -28.959999 108.000000 translate 90.000000 rotate
0 0.000000 translate (Time) dup stringwidth pop 2 div neg 0 moveto
show
grestore
 grestore 
/Times-Roman findfont 12.000000 scalefont setfont
gsave 108.000000 -37.400002 translate 0.000000 rotate
0 -7.200000 translate (par2107) dup stringwidth pop 2 div neg 0 moveto
show 0 -14.400000 translate
(Min elapsed execution time) dup stringwidth pop 2 div neg 0 moveto
show 0 -14.400000 translate
(Wed Sep  7 11:56:42 AM CEST 2022) dup stringwidth pop 2 div neg 0 moveto
show
grestore
 gsave 
 gsave 0.700000 setlinewidth  [] 0 setdash
0.000000 216.000015 moveto   11.368421 109.225349 lineto
  22.736841 74.270813 lineto
  34.105263 56.111763 lineto
  45.473682 48.124554 lineto
  56.842102 40.370232 lineto
  68.210526 35.101040 lineto
  79.578941 30.985039 lineto
  90.947365 28.349659 lineto
  102.315788 25.836046 lineto
  113.684204 23.668644 lineto
  125.052628 21.895029 lineto
  136.421051 20.323006 lineto
  147.789474 19.203617 lineto
  159.157883 18.096127 lineto
  170.526306 17.118227 lineto
  181.894730 16.998339 lineto
  193.263153 16.165998 lineto
  204.631577 15.372787 lineto
  215.999985 14.750800 lineto
stroke
0.700000 setlinewidth  [] 0 setdash
 grestore 
 grestore 
-0.000000 -324.000000 translate
0.000000 0.000000 translate
0.700000 setlinewidth  gsave newpath 0.000000 0.000000 moveto 216.000000 0.000000 lineto stroke
newpath 0.000000 0.000000 moveto 0.000000 -2.000000 lineto stroke
newpath 11.368421 0.000000 moveto 11.368421 -2.000000 lineto stroke
newpath 22.736841 0.000000 moveto 22.736841 -2.000000 lineto stroke
newpath 34.105263 0.000000 moveto 34.105263 -2.000000 lineto stroke
newpath 45.473682 0.000000 moveto 45.473682 -5.000000 lineto stroke
newpath 56.842102 0.000000 moveto 56.842102 -2.000000 lineto stroke
newpath 68.210526 0.000000 moveto 68.210526 -2.000000 lineto stroke
newpath 79.578941 0.000000 moveto 79.578941 -2.000000 lineto stroke
newpath 90.947365 0.000000 moveto 90.947365 -2.000000 lineto stroke
newpath 102.315788 0.000000 moveto 102.315788 -5.000000 lineto stroke
newpath 113.684204 0.000000 moveto 113.684204 -2.000000 lineto stroke
newpath 125.052628 0.000000 moveto 125.052628 -2.000000 lineto stroke
newpath 136.421051 0.000000 moveto 136.421051 -2.000000 lineto stroke
newpath 147.789474 0.000000 moveto 147.789474 -2.000000 lineto stroke
newpath 159.157883 0.000000 moveto 159.157883 -5.000000 lineto stroke
newpath 170.526306 0.000000 moveto 170.526306 -2.000000 lineto stroke
newpath 181.894730 0.000000 moveto 181.894730 -2.000000 lineto stroke
newpath 193.263153 0.000000 moveto 193.263153 -2.000000 lineto stroke
newpath 204.631577 0.000000 moveto 204.631577 -2.000000 lineto stroke
newpath 215.999985 0.000000 moveto 215.999985 -5.000000 lineto stroke
/Times-Roman findfont 9.000000 scalefont setfont
gsave 45.473682 -8.000000 translate 0.000000 rotate
0 -5.400000 translate (5) dup stringwidth pop 2 div neg 0 moveto
show
grestore
gsave 102.315788 -8.000000 translate 0.000000 rotate
0 -5.400000 translate (10) dup stringwidth pop 2 div neg 0 moveto
show
grestore
gsave 159.157883 -8.000000 translate 0.000000 rotate
0 -5.400000 translate (15) dup stringwidth pop 2 div neg 0 moveto
show
grestore
gsave 215.999985 -8.000000 translate 0.000000 rotate
0 -5.400000 translate (20) dup stringwidth pop 2 div neg 0 moveto
show
grestore
/Times-Bold findfont 10.000000 scalefont setfont
gsave 108.000000 -21.400000 translate 0.000000 rotate
0 -6.000000 translate (OMP #threads) dup stringwidth pop 2 div neg 0 moveto
show
grestore
 grestore 
0.700000 setlinewidth  gsave newpath 0.000000 0.000000 moveto 0.000000 216.000000 lineto stroke
newpath 0.000000 0.039319 moveto -2.000000 0.039319 lineto stroke
newpath 0.000000 11.405670 moveto -2.000000 11.405670 lineto stroke
newpath 0.000000 22.772020 moveto -2.000000 22.772020 lineto stroke
newpath 0.000000 34.138371 moveto -2.000000 34.138371 lineto stroke
newpath 0.000000 45.504719 moveto -5.000000 45.504719 lineto stroke
newpath 0.000000 56.871071 moveto -2.000000 56.871071 lineto stroke
newpath 0.000000 68.237419 moveto -2.000000 68.237419 lineto stroke
newpath 0.000000 79.603775 moveto -2.000000 79.603775 lineto stroke
newpath 0.000000 90.970123 moveto -2.000000 90.970123 lineto stroke
newpath 0.000000 102.336479 moveto -5.000000 102.336479 lineto stroke
newpath 0.000000 113.702827 moveto -2.000000 113.702827 lineto stroke
newpath 0.000000 125.069176 moveto -2.000000 125.069176 lineto stroke
newpath 0.000000 136.435532 moveto -2.000000 136.435532 lineto stroke
newpath 0.000000 147.801880 moveto -2.000000 147.801880 lineto stroke
newpath 0.000000 159.168228 moveto -5.000000 159.168228 lineto stroke
newpath 0.000000 170.534576 moveto -2.000000 170.534576 lineto stroke
newpath 0.000000 181.900940 moveto -2.000000 181.900940 lineto stroke
newpath 0.000000 193.267303 moveto -2.000000 193.267303 lineto stroke
newpath 0.000000 204.633652 moveto -2.000000 204.633652 lineto stroke
newpath 0.000000 216.000000 moveto -5.000000 216.000000 lineto stroke
/Times-Roman findfont 9.000000 scalefont setfont
gsave -8.000000 45.504719 translate 0.000000 rotate
0 -2.700000 translate (5) dup stringwidth pop neg 0 moveto
show
grestore
gsave -8.000000 102.336479 translate 0.000000 rotate
0 -2.700000 translate (10) dup stringwidth pop neg 0 moveto
show
grestore
gsave -8.000000 159.168228 translate 0.000000 rotate
0 -2.700000 translate (15) dup stringwidth pop neg 0 moveto
show
grestore
gsave -8.000000 216.000000 translate 0.000000 rotate
0 -2.700000 translate (20) dup stringwidth pop neg 0 moveto
show
grestore
/Times-Bold findfont 10.000000 scalefont setfont
gsave -24.639999 108.000000 translate 90.000000 rotate
0 0.000000 translate (Speed-up) dup stringwidth pop 2 div neg 0 moveto
show
grestore
 grestore 
/Times-Roman findfont 12.000000 scalefont setfont
gsave 108.000000 -37.400002 translate 0.000000 rotate
0 -7.200000 translate (par2107) dup stringwidth pop 2 div neg 0 moveto
show 0 -14.400000 translate
(Speed-up wrt sequential time) dup stringwidth pop 2 div neg 0 moveto
show 0 -14.400000 translate
(Wed Sep  7 11:56:42 AM CEST 2022) dup stringwidth pop 2 div neg 0 moveto
show
grestore
 gsave 
 gsave 0.700000 setlinewidth  [4.00000] 0 setdash
0.000000 0.039319 moveto   11.368421 11.405670 lineto
  22.736841 22.772020 lineto
  34.105263 34.138371 lineto
  45.473682 45.504719 lineto
  56.842102 56.871071 lineto
  68.210526 68.237419 lineto
  79.578941 79.603775 lineto
  90.947365 90.970123 lineto
  102.315788 102.336479 lineto
  113.684204 113.702827 lineto
  125.052628 125.069176 lineto
  136.421051 136.435532 lineto
  147.789474 147.801880 lineto
  159.157883 159.168228 lineto
  170.526306 170.534576 lineto
  181.894730 181.900940 lineto
  193.263153 193.267303 lineto
  204.631577 204.633652 lineto
  215.999985 216.000000 lineto
stroke
0.700000 setlinewidth  [] 0 setdash
 grestore 
 gsave 0.700000 setlinewidth  [] 0 setdash
0.000000 0.000000 moveto   11.368421 11.072886 lineto
  22.736841 21.615103 lineto
  34.105263 32.275928 lineto
  45.473682 39.512695 lineto
  56.842102 49.278000 lineto
  68.210526 58.375721 lineto
  79.578941 67.634911 lineto
  90.947365 74.975204 lineto
  102.315788 83.371620 lineto
  113.684204 92.043442 lineto
  125.052628 100.417007 lineto
  136.421051 109.060631 lineto
  147.789474 116.078079 lineto
  159.157883 123.875328 lineto
  170.526306 131.598923 lineto
  181.894730 132.606979 lineto
  193.263153 140.017731 lineto
  204.631577 147.826874 lineto
  215.999985 154.537796 lineto
stroke
0.700000 setlinewidth  [] 0 setdash
 grestore 
 grestore 
-0.000000 -0.000000 translate
 grestore showpage
%%PageTrailer

%%Trailer
%%Pages: 1
%%EOF
