%!PS-Adobe-3.0
%%Pages: (atend)
%%Creator: jgraph
%%EndComments

%%BeginProlog
%%EndProlog
%%BeginSetup
%%EndSetup

%%Page: 1 1
%%BeginPageSetup
%%EndPageSetup

213.000000 162.500000 translate
1 setlinecap 1 setlinejoin
0.700 setlinewidth
0.00 setgray

/Jrnd { exch cvi exch cvi dup 3 1 roll idiv mul } def
/JDEdict 8 dict def
JDEdict /mtrx matrix put
/JDE {
  JDEdict begin
  /yrad exch def
  /xrad exch def
  /savematrix mtrx currentmatrix def
  xrad yrad scale
  0 0 1 0 360 arc
  savematrix setmatrix
  end
} def
/JSTR {
  gsave 1 eq { gsave 1 setgray fill grestore } if
    exch neg exch neg translate 
    clip                        
    rotate                      
    4 dict begin
      pathbbox  /&top exch def
                /&right exch def
                /&bottom exch def
                &right sub /&width exch def
      newpath
      currentlinewidth mul round dup               
      &bottom exch Jrnd exch &top             
      4 -1 roll currentlinewidth mul setlinewidth  
      { &right exch moveto &width 0 rlineto stroke } for    
    end
  grestore
  newpath
} bind def
 gsave /Times-Roman findfont 9.000000 scalefont setfont
0.000000 324.000000 translate
0.700000 setlinewidth  gsave newpath 0.000000 0.000000 moveto 216.000000 0.000000 lineto stroke
newpath 0.000000 0.000000 moveto 0.000000 -2.000000 lineto stroke
newpath 5.538462 0.000000 moveto 5.538462 -2.000000 lineto stroke
newpath 11.076923 0.000000 moveto 11.076923 -2.000000 lineto stroke
newpath 16.615385 0.000000 moveto 16.615385 -2.000000 lineto stroke
newpath 22.153847 0.000000 moveto 22.153847 -2.000000 lineto stroke
newpath 27.692308 0.000000 moveto 27.692308 -2.000000 lineto stroke
newpath 33.230770 0.000000 moveto 33.230770 -2.000000 lineto stroke
newpath 38.769234 0.000000 moveto 38.769234 -2.000000 lineto stroke
newpath 44.307693 0.000000 moveto 44.307693 -2.000000 lineto stroke
newpath 49.846153 0.000000 moveto 49.846153 -5.000000 lineto stroke
newpath 55.384617 0.000000 moveto 55.384617 -2.000000 lineto stroke
newpath 60.923080 0.000000 moveto 60.923080 -2.000000 lineto stroke
newpath 66.461540 0.000000 moveto 66.461540 -2.000000 lineto stroke
newpath 72.000000 0.000000 moveto 72.000000 -2.000000 lineto stroke
newpath 77.538467 0.000000 moveto 77.538467 -2.000000 lineto stroke
newpath 83.076927 0.000000 moveto 83.076927 -2.000000 lineto stroke
newpath 88.615387 0.000000 moveto 88.615387 -2.000000 lineto stroke
newpath 94.153847 0.000000 moveto 94.153847 -2.000000 lineto stroke
newpath 99.692307 0.000000 moveto 99.692307 -2.000000 lineto stroke
newpath 105.230774 0.000000 moveto 105.230774 -5.000000 lineto stroke
newpath 110.769234 0.000000 moveto 110.769234 -2.000000 lineto stroke
newpath 116.307693 0.000000 moveto 116.307693 -2.000000 lineto stroke
newpath 121.846161 0.000000 moveto 121.846161 -2.000000 lineto stroke
newpath 127.384621 0.000000 moveto 127.384621 -2.000000 lineto stroke
newpath 132.923080 0.000000 moveto 132.923080 -2.000000 lineto stroke
newpath 138.461548 0.000000 moveto 138.461548 -2.000000 lineto stroke
newpath 144.000000 0.000000 moveto 144.000000 -2.000000 lineto stroke
newpath 149.538467 0.000000 moveto 149.538467 -2.000000 lineto stroke
newpath 155.076935 0.000000 moveto 155.076935 -2.000000 lineto stroke
newpath 160.615387 0.000000 moveto 160.615387 -5.000000 lineto stroke
newpath 166.153854 0.000000 moveto 166.153854 -2.000000 lineto stroke
newpath 171.692307 0.000000 moveto 171.692307 -2.000000 lineto stroke
newpath 177.230774 0.000000 moveto 177.230774 -2.000000 lineto stroke
newpath 182.769241 0.000000 moveto 182.769241 -2.000000 lineto stroke
newpath 188.307693 0.000000 moveto 188.307693 -2.000000 lineto stroke
newpath 193.846161 0.000000 moveto 193.846161 -2.000000 lineto stroke
newpath 199.384613 0.000000 moveto 199.384613 -2.000000 lineto stroke
newpath 204.923080 0.000000 moveto 204.923080 -2.000000 lineto stroke
newpath 210.461548 0.000000 moveto 210.461548 -2.000000 lineto stroke
newpath 216.000000 0.000000 moveto 216.000000 -5.000000 lineto stroke
gsave 49.846153 -8.000000 translate 0.000000 rotate
0 -5.400000 translate (10) dup stringwidth pop 2 div neg 0 moveto
show
grestore
gsave 105.230774 -8.000000 translate 0.000000 rotate
0 -5.400000 translate (20) dup stringwidth pop 2 div neg 0 moveto
show
grestore
gsave 160.615387 -8.000000 translate 0.000000 rotate
0 -5.400000 translate (30) dup stringwidth pop 2 div neg 0 moveto
show
grestore
gsave 216.000000 -8.000000 translate 0.000000 rotate
0 -5.400000 translate (40) dup stringwidth pop 2 div neg 0 moveto
show
grestore
/Times-Bold findfont 10.000000 scalefont setfont
gsave 108.000000 -21.400000 translate 0.000000 rotate
0 -6.000000 translate (OMP #threads) dup stringwidth pop 2 div neg 0 moveto
show
grestore
 grestore 
0.700000 setlinewidth  gsave newpath 0.000000 0.000000 moveto 0.000000 216.000000 lineto stroke
newpath 0.000000 0.000000 moveto -5.000000 0.000000 lineto stroke
newpath 0.000000 31.300085 moveto -2.000000 31.300085 lineto stroke
newpath 0.000000 62.600170 moveto -5.000000 62.600170 lineto stroke
newpath 0.000000 93.900261 moveto -2.000000 93.900261 lineto stroke
newpath 0.000000 125.200340 moveto -5.000000 125.200340 lineto stroke
newpath 0.000000 156.500427 moveto -2.000000 156.500427 lineto stroke
newpath 0.000000 187.800522 moveto -5.000000 187.800522 lineto stroke
/Times-Roman findfont 9.000000 scalefont setfont
gsave -8.000000 0.000000 translate 0.000000 rotate
0 -2.700000 translate (0.0) dup stringwidth pop neg 0 moveto
show
grestore
gsave -8.000000 62.600170 translate 0.000000 rotate
0 -2.700000 translate (0.2) dup stringwidth pop neg 0 moveto
show
grestore
gsave -8.000000 125.200340 translate 0.000000 rotate
0 -2.700000 translate (0.4) dup stringwidth pop neg 0 moveto
show
grestore
gsave -8.000000 187.800522 translate 0.000000 rotate
0 -2.700000 translate (0.6) dup stringwidth pop neg 0 moveto
show
grestore
/Times-Bold findfont 10.000000 scalefont setfont
gsave -28.959999 108.000000 translate 90.000000 rotate
0 0.000000 translate (Time) dup stringwidth pop 2 div neg 0 moveto
show
grestore
 grestore 
/Times-Roman findfont 12.000000 scalefont setfont
gsave 108.000000 -37.400002 translate 0.000000 rotate
0 -7.200000 translate (par2107) dup stringwidth pop 2 div neg 0 moveto
show 0 -14.400000 translate
(Min elapsed execution time) dup stringwidth pop 2 div neg 0 moveto
show 0 -14.400000 translate
(Wed Sep  7 12:03:16 PM CEST 2022) dup stringwidth pop 2 div neg 0 moveto
show
grestore
 gsave 
 gsave 0.700000 setlinewidth  [] 0 setdash
0.000000 216.000015 moveto   5.538462 109.283623 lineto
  11.076923 73.984634 lineto
  16.615385 56.362690 lineto
  22.153847 47.688183 lineto
  27.692308 40.445343 lineto
  33.230770 34.908985 lineto
  38.769234 30.988337 lineto
  44.307693 28.202003 lineto
  49.846153 25.664190 lineto
  55.384617 23.590874 lineto
  60.923080 21.945116 lineto
  66.461540 20.609856 lineto
  72.000000 19.101503 lineto
  77.538467 18.151234 lineto
  83.076927 17.104872 lineto
  88.615387 16.966837 lineto
  94.153847 16.177135 lineto
  99.692307 15.425308 lineto
  105.230774 14.749227 lineto
  110.769234 25.833838 lineto
  116.307693 24.727381 lineto
  121.846161 23.749567 lineto
  127.384621 23.039053 lineto
  132.923080 22.242779 lineto
  138.461548 21.253384 lineto
  144.000000 20.536299 lineto
  149.538467 20.022352 lineto
  155.076935 19.441109 lineto
  160.615387 18.806969 lineto
  166.153854 18.204130 lineto
  171.692307 17.896450 lineto
  177.230774 17.272638 lineto
  182.769241 16.869181 lineto
  188.307693 16.622223 lineto
  193.846161 15.935812 lineto
  199.384613 15.681969 lineto
  204.923080 15.532354 lineto
  210.461548 15.155501 lineto
  216.000000 14.855647 lineto
stroke
0.700000 setlinewidth  [] 0 setdash
 grestore 
 grestore 
-0.000000 -324.000000 translate
0.000000 0.000000 translate
0.700000 setlinewidth  gsave newpath 0.000000 0.000000 moveto 216.000000 0.000000 lineto stroke
newpath 0.000000 0.000000 moveto 0.000000 -2.000000 lineto stroke
newpath 5.538462 0.000000 moveto 5.538462 -2.000000 lineto stroke
newpath 11.076923 0.000000 moveto 11.076923 -2.000000 lineto stroke
newpath 16.615385 0.000000 moveto 16.615385 -2.000000 lineto stroke
newpath 22.153847 0.000000 moveto 22.153847 -2.000000 lineto stroke
newpath 27.692308 0.000000 moveto 27.692308 -2.000000 lineto stroke
newpath 33.230770 0.000000 moveto 33.230770 -2.000000 lineto stroke
newpath 38.769234 0.000000 moveto 38.769234 -2.000000 lineto stroke
newpath 44.307693 0.000000 moveto 44.307693 -2.000000 lineto stroke
newpath 49.846153 0.000000 moveto 49.846153 -5.000000 lineto stroke
newpath 55.384617 0.000000 moveto 55.384617 -2.000000 lineto stroke
newpath 60.923080 0.000000 moveto 60.923080 -2.000000 lineto stroke
newpath 66.461540 0.000000 moveto 66.461540 -2.000000 lineto stroke
newpath 72.000000 0.000000 moveto 72.000000 -2.000000 lineto stroke
newpath 77.538467 0.000000 moveto 77.538467 -2.000000 lineto stroke
newpath 83.076927 0.000000 moveto 83.076927 -2.000000 lineto stroke
newpath 88.615387 0.000000 moveto 88.615387 -2.000000 lineto stroke
newpath 94.153847 0.000000 moveto 94.153847 -2.000000 lineto stroke
newpath 99.692307 0.000000 moveto 99.692307 -2.000000 lineto stroke
newpath 105.230774 0.000000 moveto 105.230774 -5.000000 lineto stroke
newpath 110.769234 0.000000 moveto 110.769234 -2.000000 lineto stroke
newpath 116.307693 0.000000 moveto 116.307693 -2.000000 lineto stroke
newpath 121.846161 0.000000 moveto 121.846161 -2.000000 lineto stroke
newpath 127.384621 0.000000 moveto 127.384621 -2.000000 lineto stroke
newpath 132.923080 0.000000 moveto 132.923080 -2.000000 lineto stroke
newpath 138.461548 0.000000 moveto 138.461548 -2.000000 lineto stroke
newpath 144.000000 0.000000 moveto 144.000000 -2.000000 lineto stroke
newpath 149.538467 0.000000 moveto 149.538467 -2.000000 lineto stroke
newpath 155.076935 0.000000 moveto 155.076935 -2.000000 lineto stroke
newpath 160.615387 0.000000 moveto 160.615387 -5.000000 lineto stroke
newpath 166.153854 0.000000 moveto 166.153854 -2.000000 lineto stroke
newpath 171.692307 0.000000 moveto 171.692307 -2.000000 lineto stroke
newpath 177.230774 0.000000 moveto 177.230774 -2.000000 lineto stroke
newpath 182.769241 0.000000 moveto 182.769241 -2.000000 lineto stroke
newpath 188.307693 0.000000 moveto 188.307693 -2.000000 lineto stroke
newpath 193.846161 0.000000 moveto 193.846161 -2.000000 lineto stroke
newpath 199.384613 0.000000 moveto 199.384613 -2.000000 lineto stroke
newpath 204.923080 0.000000 moveto 204.923080 -2.000000 lineto stroke
newpath 210.461548 0.000000 moveto 210.461548 -2.000000 lineto stroke
newpath 216.000000 0.000000 moveto 216.000000 -5.000000 lineto stroke
/Times-Roman findfont 9.000000 scalefont setfont
gsave 49.846153 -8.000000 translate 0.000000 rotate
0 -5.400000 translate (10) dup stringwidth pop 2 div neg 0 moveto
show
grestore
gsave 105.230774 -8.000000 translate 0.000000 rotate
0 -5.400000 translate (20) dup stringwidth pop 2 div neg 0 moveto
show
grestore
gsave 160.615387 -8.000000 translate 0.000000 rotate
0 -5.400000 translate (30) dup stringwidth pop 2 div neg 0 moveto
show
grestore
gsave 216.000000 -8.000000 translate 0.000000 rotate
0 -5.400000 translate (40) dup stringwidth pop 2 div neg 0 moveto
show
grestore
/Times-Bold findfont 10.000000 scalefont setfont
gsave 108.000000 -21.400000 translate 0.000000 rotate
0 -6.000000 translate (OMP #threads) dup stringwidth pop 2 div neg 0 moveto
show
grestore
 grestore 
0.700000 setlinewidth  gsave newpath 0.000000 0.000000 moveto 0.000000 216.000000 lineto stroke
newpath 0.000000 0.055387 moveto -2.000000 0.055387 lineto stroke
newpath 0.000000 11.420894 moveto -2.000000 11.420894 lineto stroke
newpath 0.000000 22.786400 moveto -2.000000 22.786400 lineto stroke
newpath 0.000000 34.151905 moveto -2.000000 34.151905 lineto stroke
newpath 0.000000 45.517410 moveto -5.000000 45.517410 lineto stroke
newpath 0.000000 56.882919 moveto -2.000000 56.882919 lineto stroke
newpath 0.000000 68.248421 moveto -2.000000 68.248421 lineto stroke
newpath 0.000000 79.613930 moveto -2.000000 79.613930 lineto stroke
newpath 0.000000 90.979439 moveto -2.000000 90.979439 lineto stroke
newpath 0.000000 102.344940 moveto -5.000000 102.344940 lineto stroke
newpath 0.000000 113.710449 moveto -2.000000 113.710449 lineto stroke
newpath 0.000000 125.075958 moveto -2.000000 125.075958 lineto stroke
newpath 0.000000 136.441467 moveto -2.000000 136.441467 lineto stroke
newpath 0.000000 147.806961 moveto -2.000000 147.806961 lineto stroke
newpath 0.000000 159.172470 moveto -5.000000 159.172470 lineto stroke
newpath 0.000000 170.537979 moveto -2.000000 170.537979 lineto stroke
newpath 0.000000 181.903488 moveto -2.000000 181.903488 lineto stroke
newpath 0.000000 193.268997 moveto -2.000000 193.268997 lineto stroke
newpath 0.000000 204.634491 moveto -2.000000 204.634491 lineto stroke
newpath 0.000000 216.000000 moveto -5.000000 216.000000 lineto stroke
/Times-Roman findfont 9.000000 scalefont setfont
gsave -8.000000 45.517410 translate 0.000000 rotate
0 -2.700000 translate (5) dup stringwidth pop neg 0 moveto
show
grestore
gsave -8.000000 102.344940 translate 0.000000 rotate
0 -2.700000 translate (10) dup stringwidth pop neg 0 moveto
show
grestore
gsave -8.000000 159.172470 translate 0.000000 rotate
0 -2.700000 translate (15) dup stringwidth pop neg 0 moveto
show
grestore
gsave -8.000000 216.000000 translate 0.000000 rotate
0 -2.700000 translate (20) dup stringwidth pop neg 0 moveto
show
grestore
/Times-Bold findfont 10.000000 scalefont setfont
gsave -24.639999 108.000000 translate 90.000000 rotate
0 0.000000 translate (Speed-up) dup stringwidth pop 2 div neg 0 moveto
show
grestore
 grestore 
/Times-Roman findfont 12.000000 scalefont setfont
gsave 108.000000 -37.400002 translate 0.000000 rotate
0 -7.200000 translate (par2107) dup stringwidth pop 2 div neg 0 moveto
show 0 -14.400000 translate
(Speed-up wrt sequential time) dup stringwidth pop 2 div neg 0 moveto
show 0 -14.400000 translate
(Wed Sep  7 12:03:16 PM CEST 2022) dup stringwidth pop 2 div neg 0 moveto
show
grestore
 gsave 
 gsave 0.700000 setlinewidth  [4.00000] 0 setdash
0.000000 0.055387 moveto   5.538462 11.420894 lineto
  11.076923 22.786400 lineto
  16.615385 34.151905 lineto
  22.153847 45.517410 lineto
  27.692308 56.882919 lineto
  33.230770 68.248421 lineto
  38.769234 79.613930 lineto
  44.307693 90.979439 lineto
  49.846153 102.344940 lineto
  55.384617 113.710449 lineto
  60.923080 125.075958 lineto
  66.461540 136.441467 lineto
  72.000000 147.806961 lineto
  77.538467 159.172470 lineto
  83.076927 170.537979 lineto
  88.615387 181.903488 lineto
  94.153847 193.268997 lineto
  99.692307 204.634491 lineto
  105.230774 216.000000 lineto
stroke
0.700000 setlinewidth  [] 0 setdash
 grestore 
 gsave 0.700000 setlinewidth  [] 0 setdash
0.000000 0.000000 moveto   5.538462 11.044428 lineto
  11.076923 21.710058 lineto
  16.615385 32.033909 lineto
  22.153847 39.918205 lineto
  27.692308 49.092037 lineto
  33.230770 58.671459 lineto
  38.769234 67.525543 lineto
  44.307693 75.314430 lineto
  49.846153 83.880333 lineto
  55.384617 92.246277 lineto
  60.923080 100.012413 lineto
  66.461540 107.224724 lineto
  72.000000 116.584839 lineto
  77.538467 123.280518 lineto
  83.076927 131.513870 lineto
  88.615387 132.675812 lineto
  94.153847 139.704620 lineto
  99.692307 147.065063 lineto
  105.230774 154.324738 lineto
  110.769234 83.255226 lineto
  116.307693 87.486671 lineto
  121.846161 91.554329 lineto
  127.384621 94.726608 lineto
  132.923080 98.522636 lineto
  138.461548 103.635620 lineto
  144.000000 107.649284 lineto
  149.538467 110.702812 lineto
  155.076935 114.350708 lineto
  160.615387 118.587791 lineto
  166.153854 122.889427 lineto
  171.692307 125.196617 lineto
  177.230774 130.126633 lineto
  182.769241 133.509354 lineto
  188.307693 135.660950 lineto
  193.846161 141.991501 lineto
  199.384613 144.472992 lineto
  204.923080 145.973557 lineto
  210.461548 149.884537 lineto
  216.000000 153.138184 lineto
stroke
0.700000 setlinewidth  [] 0 setdash
 grestore 
 grestore 
-0.000000 -0.000000 translate
 grestore showpage
%%PageTrailer

%%Trailer
%%Pages: 1
%%EOF
