1   .99512675084843514071
2   1.96687651082062621008
3   2.90529758177787555209
4   3.81364676351681549602
5   4.50735110726053111749
6   5.31451500564936773514
7   6.15736573119340087868
8   6.93639650923195022423
9   7.62170651039932520920
10   8.37538112544820352708
11   9.11146344699482552739
12   9.79477122318575992697
13   10.42935030222033229049
14   11.25290445212774673505
15   11.84202721111896673621
16   12.56644341970428926950
17   12.66867747707860608408
18   13.28711013079483012150
19   13.93472261677691652124
20   14.57346886804465005729
21   8.32038140932441601240
22   8.69268743433627422437
23   9.05058186275155844327
24   9.32969690382708166342
25   9.66369277964622940207
26   10.11356071986097611263
27   10.46670527807837100486
28   10.73537182072566399349
29   11.05633371973209685729
30   11.42913490663382485104
31   11.80761691884456671251
32   12.01061615684628434510
33   12.44438605392867497825
34   12.74201688468318025790
35   12.93132602719090121643
36   13.48832321803861489207
37   13.70665841682966747834
38   13.83868692568112203772
39   14.18279636513837257331
40   14.46906999283637436264
