#FIG 3.2  Produced by hwloc's lstopo
Landscape
Center
Inches
letter
100.00
Single
-2
1200 2
0 32 #d2e7a4
0 33 #e7ffb5
0 34 #e7ffb5
0 35 #bebebe
0 36 #efdfde
0 37 #f2e8e8
0 38 #bed295
0 39 #dedede
0 40 #00ff00
0 41 #ff0000
0 42 #ffff00
2 2 0 1 0 7 100 -1 20 0.0 0 0 -1 0 0 5
	 0 0 13720 0 13720 14480 0 14480 0 0
4 0 0 99 -1 0 11 0.0 4 220 2200 180 330 Machine (94GB total)\001
2 2 0 1 0 32 98 -1 20 0.0 0 0 -1 0 0 5
	 140 480 13580 480 13580 8340 140 8340 140 480
4 0 0 97 -1 0 11 0.0 4 220 1200 320 810 Package L#0\001
2 2 0 1 0 7 96 -1 20 0.0 0 0 -1 0 0 5
	 280 1580 6120 1580 6120 2060 280 2060 280 1580
4 0 0 95 -1 0 11 0.0 4 220 980 460 1910 L3 (14MB)\001
2 2 0 1 0 7 94 -1 20 0.0 0 0 -1 0 0 5
	 280 2200 1760 2200 1760 2680 280 2680 280 2200
4 0 0 93 -1 0 11 0.0 4 220 1200 460 2530 L2 (1024KB)\001
2 2 0 1 0 7 92 -1 20 0.0 0 0 -1 0 0 5
	 280 2820 1660 2820 1660 3300 280 3300 280 2820
4 0 0 91 -1 0 11 0.0 4 220 1100 460 3150 L1d (32KB)\001
2 2 0 1 0 7 90 -1 20 0.0 0 0 -1 0 0 5
	 280 3440 1660 3440 1660 3920 280 3920 280 3440
4 0 0 89 -1 0 11 0.0 4 220 1100 460 3770 L1i (32KB)\001
2 2 0 1 0 35 88 -1 20 0.0 0 0 -1 0 0 5
	 280 4060 1600 4060 1600 6200 280 6200 280 4060
4 0 0 87 -1 0 11 0.0 4 220 880 460 4390 Core L#0\001
2 2 0 1 0 7 86 -1 20 0.0 0 0 -1 0 0 5
	 420 4540 1460 4540 1460 5300 420 5300 420 4540
4 0 0 85 -1 0 11 0.0 4 220 660 640 4870 PU L#0\001
4 0 0 85 -1 0 11 0.0 4 220 320 820 5150 P#0\001
2 2 0 1 0 7 86 -1 20 0.0 0 0 -1 0 0 5
	 420 5300 1460 5300 1460 6060 420 6060 420 5300
4 0 0 85 -1 0 11 0.0 4 220 660 640 5630 PU L#1\001
4 0 0 85 -1 0 11 0.0 4 220 440 760 5910 P#20\001
2 2 0 1 0 7 94 -1 20 0.0 0 0 -1 0 0 5
	 1900 2200 3380 2200 3380 2680 1900 2680 1900 2200
4 0 0 93 -1 0 11 0.0 4 220 1200 2080 2530 L2 (1024KB)\001
2 2 0 1 0 7 92 -1 20 0.0 0 0 -1 0 0 5
	 1900 2820 3280 2820 3280 3300 1900 3300 1900 2820
4 0 0 91 -1 0 11 0.0 4 220 1100 2080 3150 L1d (32KB)\001
2 2 0 1 0 7 90 -1 20 0.0 0 0 -1 0 0 5
	 1900 3440 3280 3440 3280 3920 1900 3920 1900 3440
4 0 0 89 -1 0 11 0.0 4 220 1100 2080 3770 L1i (32KB)\001
2 2 0 1 0 35 88 -1 20 0.0 0 0 -1 0 0 5
	 1900 4060 3220 4060 3220 6200 1900 6200 1900 4060
4 0 0 87 -1 0 11 0.0 4 220 880 2080 4390 Core L#1\001
2 2 0 1 0 7 86 -1 20 0.0 0 0 -1 0 0 5
	 2040 4540 3080 4540 3080 5300 2040 5300 2040 4540
4 0 0 85 -1 0 11 0.0 4 220 660 2260 4870 PU L#2\001
4 0 0 85 -1 0 11 0.0 4 220 320 2440 5150 P#2\001
2 2 0 1 0 7 86 -1 20 0.0 0 0 -1 0 0 5
	 2040 5300 3080 5300 3080 6060 2040 6060 2040 5300
4 0 0 85 -1 0 11 0.0 4 220 660 2260 5630 PU L#3\001
4 0 0 85 -1 0 11 0.0 4 220 440 2380 5910 P#22\001
2 2 0 1 0 7 94 -1 20 0.0 0 0 -1 0 0 5
	 3520 2340 3660 2340 3660 2480 3520 2480 3520 2340
2 2 0 1 0 7 94 -1 20 0.0 0 0 -1 0 0 5
	 3800 2340 3940 2340 3940 2480 3800 2480 3800 2340
2 2 0 1 0 7 94 -1 20 0.0 0 0 -1 0 0 5
	 4080 2340 4220 2340 4220 2480 4080 2480 4080 2340
4 0 0 94 -1 0 11 0.0 4 220 980 3560 2750 10x total\001
2 2 0 1 0 7 94 -1 20 0.0 0 0 -1 0 0 5
	 4640 2200 6120 2200 6120 2680 4640 2680 4640 2200
4 0 0 93 -1 0 11 0.0 4 220 1200 4820 2530 L2 (1024KB)\001
2 2 0 1 0 7 92 -1 20 0.0 0 0 -1 0 0 5
	 4640 2820 6020 2820 6020 3300 4640 3300 4640 2820
4 0 0 91 -1 0 11 0.0 4 220 1100 4820 3150 L1d (32KB)\001
2 2 0 1 0 7 90 -1 20 0.0 0 0 -1 0 0 5
	 4640 3440 6020 3440 6020 3920 4640 3920 4640 3440
4 0 0 89 -1 0 11 0.0 4 220 1100 4820 3770 L1i (32KB)\001
2 2 0 1 0 35 88 -1 20 0.0 0 0 -1 0 0 5
	 4640 4060 5960 4060 5960 6200 4640 6200 4640 4060
4 0 0 87 -1 0 11 0.0 4 220 880 4820 4390 Core L#9\001
2 2 0 1 0 7 86 -1 20 0.0 0 0 -1 0 0 5
	 4780 4540 5820 4540 5820 5300 4780 5300 4780 4540
4 0 0 85 -1 0 11 0.0 4 220 760 4960 4870 PU L#18\001
4 0 0 85 -1 0 11 0.0 4 220 440 5120 5150 P#18\001
2 2 0 1 0 7 86 -1 20 0.0 0 0 -1 0 0 5
	 4780 5300 5820 5300 5820 6060 4780 6060 4780 5300
4 0 0 85 -1 0 11 0.0 4 220 760 4960 5630 PU L#19\001
4 0 0 85 -1 0 11 0.0 4 220 440 5120 5910 P#38\001
2 2 0 1 0 36 96 -1 20 0.0 0 0 -1 0 0 5
	 280 960 13440 960 13440 1440 280 1440 280 960
4 0 0 95 -1 0 11 0.0 4 220 2520 460 1290 NUMANode L#0 P#0 (47GB)\001
2 2 0 1 0 7 96 -1 20 0.0 0 0 -1 0 0 5
	 6260 1580 6400 1580 6400 1720 6260 1720 6260 1580
2 1 0 1 0 0 96 -1 -1 0.0 0 0 -1 0 0 2
	 6400 1640 6540 1640
2 1 0 1 0 0 95 -1 -1 0.0 0 0 -1 0 0 2
	 6540 1640 7020 1640
2 1 0 1 0 0 95 -1 -1 0.0 0 0 -1 0 0 2
	 6540 2260 7020 2260
2 1 0 1 0 0 95 -1 -1 0.0 0 0 -1 0 0 2
	 6540 2880 7020 2880
4 0 0 95 -1 0 11 0.0 4 220 320 6640 3130 1.2\001
2 1 0 1 0 0 95 -1 -1 0.0 0 0 -1 0 0 2
	 6540 5360 7020 5360
4 0 0 95 -1 0 11 0.0 4 220 320 6640 5610 0.6\001
2 1 0 1 0 0 95 -1 -1 0.0 0 0 -1 0 0 2
	 6540 1640 6540 5360
2 2 0 1 0 38 94 -1 20 0.0 0 0 -1 0 0 5
	 7020 1580 8500 1580 8500 2060 7020 2060 7020 1580
4 0 0 93 -1 0 11 0.0 4 220 1200 7200 1910 PCI 00:11.5\001
2 2 0 1 0 38 94 -1 20 0.0 0 0 -1 0 0 5
	 7020 2200 8500 2200 8500 2680 7020 2680 7020 2200
4 0 0 93 -1 0 11 0.0 4 220 1200 7200 2530 PCI 00:17.0\001
2 2 0 1 0 7 94 -1 20 0.0 0 0 -1 0 0 5
	 7020 2820 7160 2820 7160 2960 7020 2960 7020 2820
2 1 0 1 0 0 94 -1 -1 0.0 0 0 -1 0 0 2
	 7160 2880 7300 2880
2 1 0 1 0 0 93 -1 -1 0.0 0 0 -1 0 0 2
	 7300 2880 7780 2880
4 0 0 93 -1 0 11 0.0 4 220 320 7400 3130 1.2\001
2 1 0 1 0 0 93 -1 -1 0.0 0 0 -1 0 0 2
	 7300 4120 7780 4120
4 0 0 93 -1 0 11 0.0 4 220 320 7400 4370 1.2\001
2 1 0 1 0 0 93 -1 -1 0.0 0 0 -1 0 0 2
	 7300 2880 7300 4120
2 2 0 1 0 38 92 -1 20 0.0 0 0 -1 0 0 5
	 7780 2820 9260 2820 9260 3920 7780 3920 7780 2820
4 0 0 91 -1 0 11 0.0 4 220 1200 7960 3150 PCI 01:00.0\001
2 2 0 1 0 39 90 -1 20 0.0 0 0 -1 0 0 5
	 7920 3300 9080 3300 9080 3780 7920 3780 7920 3300
4 0 0 89 -1 0 11 0.0 4 220 880 8100 3630 Net eth0\001
2 2 0 1 0 38 92 -1 20 0.0 0 0 -1 0 0 5
	 7780 4060 9260 4060 9260 5160 7780 5160 7780 4060
4 0 0 91 -1 0 11 0.0 4 220 1200 7960 4390 PCI 01:00.1\001
2 2 0 1 0 39 90 -1 20 0.0 0 0 -1 0 0 5
	 7920 4540 9080 4540 9080 5020 7920 5020 7920 4540
4 0 0 89 -1 0 11 0.0 4 220 880 8100 4870 Net eno4\001
2 2 0 1 0 7 94 -1 20 0.0 0 0 -1 0 0 5
	 7020 5300 7160 5300 7160 5440 7020 5440 7020 5300
2 1 0 1 0 0 94 -1 -1 0.0 0 0 -1 0 0 2
	 7160 5360 7300 5360
2 1 0 1 0 0 93 -1 -1 0.0 0 0 -1 0 0 2
	 7300 5360 7780 5360
4 0 0 93 -1 0 11 0.0 4 220 320 7400 5610 0.6\001
2 1 0 1 0 0 93 -1 -1 0.0 0 0 -1 0 0 2
	 7300 5360 7300 5360
2 2 0 1 0 7 92 -1 20 0.0 0 0 -1 0 0 5
	 7780 5300 7920 5300 7920 5440 7780 5440 7780 5300
2 1 0 1 0 0 92 -1 -1 0.0 0 0 -1 0 0 2
	 7920 5360 8060 5360
2 1 0 1 0 0 91 -1 -1 0.0 0 0 -1 0 0 2
	 8060 5360 8540 5360
2 1 0 1 0 0 91 -1 -1 0.0 0 0 -1 0 0 2
	 8060 5360 8060 5360
2 2 0 1 0 38 90 -1 20 0.0 0 0 -1 0 0 5
	 8540 5300 10020 5300 10020 5780 8540 5780 8540 5300
4 0 0 89 -1 0 11 0.0 4 220 1200 8720 5630 PCI 03:00.0\001
2 2 0 1 0 7 96 -1 20 0.0 0 0 -1 0 0 5
	 10160 1580 10300 1580 10300 1720 10160 1720 10160 1580
2 1 0 1 0 0 96 -1 -1 0.0 0 0 -1 0 0 2
	 10300 1640 10440 1640
2 1 0 1 0 0 95 -1 -1 0.0 0 0 -1 0 0 2
	 10440 1640 10920 1640
4 0 0 95 -1 0 11 0.0 4 220 320 10540 1890 7.9\001
2 1 0 1 0 0 95 -1 -1 0.0 0 0 -1 0 0 2
	 10440 1640 10440 1640
2 2 0 1 0 7 94 -1 20 0.0 0 0 -1 0 0 5
	 10920 1580 11060 1580 11060 1720 10920 1720 10920 1580
2 1 0 1 0 0 94 -1 -1 0.0 0 0 -1 0 0 2
	 11060 1640 11200 1640
2 1 0 1 0 0 93 -1 -1 0.0 0 0 -1 0 0 2
	 11200 1640 11680 1640
4 0 0 93 -1 0 11 0.0 4 220 320 11300 1890 7.9\001
2 1 0 1 0 0 93 -1 -1 0.0 0 0 -1 0 0 2
	 11200 2880 11680 2880
4 0 0 93 -1 0 11 0.0 4 220 320 11300 3130 7.9\001
2 1 0 1 0 0 93 -1 -1 0.0 0 0 -1 0 0 2
	 11200 1640 11200 2880
2 2 0 1 0 38 92 -1 20 0.0 0 0 -1 0 0 5
	 11680 1580 13440 1580 13440 2680 11680 2680 11680 1580
4 0 0 91 -1 0 11 0.0 4 220 1200 11860 1910 PCI 18:00.0\001
2 2 0 1 0 39 90 -1 20 0.0 0 0 -1 0 0 5
	 11820 2060 13300 2060 13300 2540 11820 2540 11820 2060
4 0 0 89 -1 0 11 0.0 4 220 1200 12000 2390 Net eno1np0\001
2 2 0 1 0 38 92 -1 20 0.0 0 0 -1 0 0 5
	 11680 2820 13440 2820 13440 3920 11680 3920 11680 2820
4 0 0 91 -1 0 11 0.0 4 220 1200 11860 3150 PCI 18:00.1\001
2 2 0 1 0 39 90 -1 20 0.0 0 0 -1 0 0 5
	 11820 3300 13300 3300 13300 3780 11820 3780 11820 3300
4 0 0 89 -1 0 11 0.0 4 220 1200 12000 3630 Net eno2np1\001
2 2 0 1 0 7 96 -1 20 0.0 0 0 -1 0 0 5
	 6260 5920 6400 5920 6400 6060 6260 6060 6260 5920
2 1 0 1 0 0 96 -1 -1 0.0 0 0 -1 0 0 2
	 6400 5980 6540 5980
2 1 0 1 0 0 95 -1 -1 0.0 0 0 -1 0 0 2
	 6540 5980 7020 5980
4 0 0 95 -1 0 11 0.0 4 220 320 6640 6230 7.9\001
2 1 0 1 0 0 95 -1 -1 0.0 0 0 -1 0 0 2
	 6540 5980 6540 5980
2 2 0 1 0 7 94 -1 20 0.0 0 0 -1 0 0 5
	 7020 5920 7160 5920 7160 6060 7020 6060 7020 5920
2 1 0 1 0 0 94 -1 -1 0.0 0 0 -1 0 0 2
	 7160 5980 7300 5980
2 1 0 1 0 0 93 -1 -1 0.0 0 0 -1 0 0 2
	 7300 5980 7780 5980
4 0 0 93 -1 0 11 0.0 4 220 320 7400 6230 7.9\001
2 1 0 1 0 0 93 -1 -1 0.0 0 0 -1 0 0 2
	 7300 5980 7300 5980
2 2 0 1 0 38 92 -1 20 0.0 0 0 -1 0 0 5
	 7780 5920 9320 5920 9320 8200 7780 8200 7780 5920
4 0 0 91 -1 0 11 0.0 4 220 1200 7960 6250 PCI 3b:00.0\001
2 2 0 1 0 39 90 -1 20 0.0 0 0 -1 0 0 5
	 7920 6400 9180 6400 9180 7160 7920 7160 7920 6400
4 0 0 89 -1 0 11 0.0 4 220 980 8100 6730 Block sdb\001
4 0 0 89 -1 0 11 0.0 4 220 760 8100 7010 2235 GB\001
2 2 0 1 0 39 90 -1 20 0.0 0 0 -1 0 0 5
	 7920 7300 9180 7300 9180 8060 7920 8060 7920 7300
4 0 0 89 -1 0 11 0.0 4 220 980 8100 7630 Block sda\001
4 0 0 89 -1 0 11 0.0 4 220 760 8100 7910 2235 GB\001
2 2 0 1 0 32 98 -1 20 0.0 0 0 -1 0 0 5
	 140 8480 6260 8480 6260 14340 140 14340 140 8480
4 0 0 97 -1 0 11 0.0 4 220 1200 320 8810 Package L#1\001
2 2 0 1 0 7 96 -1 20 0.0 0 0 -1 0 0 5
	 280 9580 6120 9580 6120 10060 280 10060 280 9580
4 0 0 95 -1 0 11 0.0 4 220 980 460 9910 L3 (14MB)\001
2 2 0 1 0 7 94 -1 20 0.0 0 0 -1 0 0 5
	 280 10200 1760 10200 1760 10680 280 10680 280 10200
4 0 0 93 -1 0 11 0.0 4 220 1200 460 10530 L2 (1024KB)\001
2 2 0 1 0 7 92 -1 20 0.0 0 0 -1 0 0 5
	 280 10820 1660 10820 1660 11300 280 11300 280 10820
4 0 0 91 -1 0 11 0.0 4 220 1100 460 11150 L1d (32KB)\001
2 2 0 1 0 7 90 -1 20 0.0 0 0 -1 0 0 5
	 280 11440 1660 11440 1660 11920 280 11920 280 11440
4 0 0 89 -1 0 11 0.0 4 220 1100 460 11770 L1i (32KB)\001
2 2 0 1 0 35 88 -1 20 0.0 0 0 -1 0 0 5
	 280 12060 1600 12060 1600 14200 280 14200 280 12060
4 0 0 87 -1 0 11 0.0 4 220 980 460 12390 Core L#10\001
2 2 0 1 0 7 86 -1 20 0.0 0 0 -1 0 0 5
	 420 12540 1460 12540 1460 13300 420 13300 420 12540
4 0 0 85 -1 0 11 0.0 4 220 760 600 12870 PU L#20\001
4 0 0 85 -1 0 11 0.0 4 220 320 820 13150 P#1\001
2 2 0 1 0 7 86 -1 20 0.0 0 0 -1 0 0 5
	 420 13300 1460 13300 1460 14060 420 14060 420 13300
4 0 0 85 -1 0 11 0.0 4 220 760 600 13630 PU L#21\001
4 0 0 85 -1 0 11 0.0 4 220 440 760 13910 P#21\001
2 2 0 1 0 7 94 -1 20 0.0 0 0 -1 0 0 5
	 1900 10200 3380 10200 3380 10680 1900 10680 1900 10200
4 0 0 93 -1 0 11 0.0 4 220 1200 2080 10530 L2 (1024KB)\001
2 2 0 1 0 7 92 -1 20 0.0 0 0 -1 0 0 5
	 1900 10820 3280 10820 3280 11300 1900 11300 1900 10820
4 0 0 91 -1 0 11 0.0 4 220 1100 2080 11150 L1d (32KB)\001
2 2 0 1 0 7 90 -1 20 0.0 0 0 -1 0 0 5
	 1900 11440 3280 11440 3280 11920 1900 11920 1900 11440
4 0 0 89 -1 0 11 0.0 4 220 1100 2080 11770 L1i (32KB)\001
2 2 0 1 0 35 88 -1 20 0.0 0 0 -1 0 0 5
	 1900 12060 3220 12060 3220 14200 1900 14200 1900 12060
4 0 0 87 -1 0 11 0.0 4 220 980 2080 12390 Core L#11\001
2 2 0 1 0 7 86 -1 20 0.0 0 0 -1 0 0 5
	 2040 12540 3080 12540 3080 13300 2040 13300 2040 12540
4 0 0 85 -1 0 11 0.0 4 220 760 2220 12870 PU L#22\001
4 0 0 85 -1 0 11 0.0 4 220 320 2440 13150 P#3\001
2 2 0 1 0 7 86 -1 20 0.0 0 0 -1 0 0 5
	 2040 13300 3080 13300 3080 14060 2040 14060 2040 13300
4 0 0 85 -1 0 11 0.0 4 220 760 2220 13630 PU L#23\001
4 0 0 85 -1 0 11 0.0 4 220 440 2380 13910 P#23\001
2 2 0 1 0 7 94 -1 20 0.0 0 0 -1 0 0 5
	 3520 10340 3660 10340 3660 10480 3520 10480 3520 10340
2 2 0 1 0 7 94 -1 20 0.0 0 0 -1 0 0 5
	 3800 10340 3940 10340 3940 10480 3800 10480 3800 10340
2 2 0 1 0 7 94 -1 20 0.0 0 0 -1 0 0 5
	 4080 10340 4220 10340 4220 10480 4080 10480 4080 10340
4 0 0 94 -1 0 11 0.0 4 220 980 3560 10750 10x total\001
2 2 0 1 0 7 94 -1 20 0.0 0 0 -1 0 0 5
	 4640 10200 6120 10200 6120 10680 4640 10680 4640 10200
4 0 0 93 -1 0 11 0.0 4 220 1200 4820 10530 L2 (1024KB)\001
2 2 0 1 0 7 92 -1 20 0.0 0 0 -1 0 0 5
	 4640 10820 6020 10820 6020 11300 4640 11300 4640 10820
4 0 0 91 -1 0 11 0.0 4 220 1100 4820 11150 L1d (32KB)\001
2 2 0 1 0 7 90 -1 20 0.0 0 0 -1 0 0 5
	 4640 11440 6020 11440 6020 11920 4640 11920 4640 11440
4 0 0 89 -1 0 11 0.0 4 220 1100 4820 11770 L1i (32KB)\001
2 2 0 1 0 35 88 -1 20 0.0 0 0 -1 0 0 5
	 4640 12060 5960 12060 5960 14200 4640 14200 4640 12060
4 0 0 87 -1 0 11 0.0 4 220 980 4820 12390 Core L#19\001
2 2 0 1 0 7 86 -1 20 0.0 0 0 -1 0 0 5
	 4780 12540 5820 12540 5820 13300 4780 13300 4780 12540
4 0 0 85 -1 0 11 0.0 4 220 760 4960 12870 PU L#38\001
4 0 0 85 -1 0 11 0.0 4 220 440 5120 13150 P#19\001
2 2 0 1 0 7 86 -1 20 0.0 0 0 -1 0 0 5
	 4780 13300 5820 13300 5820 14060 4780 14060 4780 13300
4 0 0 85 -1 0 11 0.0 4 220 760 4960 13630 PU L#39\001
4 0 0 85 -1 0 11 0.0 4 220 440 5120 13910 P#39\001
2 2 0 1 0 36 96 -1 20 0.0 0 0 -1 0 0 5
	 280 8960 6120 8960 6120 9440 280 9440 280 8960
4 0 0 95 -1 0 11 0.0 4 220 2520 460 9290 NUMANode L#1 P#1 (47GB)\001
2 2 0 1 0 7 100 -1 20 0.0 0 0 -1 0 0 5
	 0 14480 13720 14480 13720 15240 0 15240 0 14480
4 0 0 100 -1 0 11 0.0 4 220 2640 180 14810 Host: boada-11.ac.upc.es\001
4 0 0 100 -1 0 11 0.0 4 220 4180 180 15090 Date: Wed 07 Sep 2022 10:31:29 AM CEST\001
