TASK:0:MAIN_TAREADOR:1:161:0:1263265436
 18:8:30:loads::stores:[0,8)
 14:8:31:loads::stores:[0,8)
 18:8:40:loads::stores:[0,8)
 14:8:41:loads::stores:[0,8)
 18:8:50:loads::stores:[0,8)
 14:8:51:loads::stores:[0,8)
 18:8:60:loads::stores:[0,8)
 14:8:61:loads::stores:[0,8)
 18:8:76:loads::stores:[0,8)
 19:8:77:loads::stores:[0,8)
 20:8:78:loads::stores:[0,8)
 21:8:79:loads::stores:[0,8)
 22:8:80:loads::stores:[0,8)
 23:8:81:loads::stores:[0,8)
 18:8:97:loads::stores:[0,8)
 19:8:98:loads::stores:[0,8)
 20:8:99:loads::stores:[0,8)
 21:8:100:loads::stores:[0,8)
 22:8:101:loads::stores:[0,8)
 23:8:102:loads::stores:[0,8)
 18:8:144:loads::stores:[0,8)
 19:8:145:loads::stores:[0,8)
 20:8:146:loads::stores:[0,8)
 21:8:147:loads::stores:[0,8)
 22:8:148:loads::stores:[0,8)
 23:8:149:loads::stores:[0,8)
 18:8:165:loads::stores:[0,8)
 19:8:166:loads::stores:[0,8)
 20:8:167:loads::stores:[0,8)
 21:8:168:loads::stores:[0,8)
 22:8:169:loads::stores:[0,8)
 23:8:170:loads::stores:[0,8)
 18:8:220:loads::stores:[0,8)
 19:8:221:loads::stores:[0,8)
 20:8:222:loads::stores:[0,8)
 21:8:223:loads::stores:[0,8)
 22:8:224:loads::stores:[0,8)
 23:8:225:loads::stores:[0,8)
 18:8:241:loads::stores:[0,8)
 19:8:242:loads::stores:[0,8)
 20:8:243:loads::stores:[0,8)
 21:8:244:loads::stores:[0,8)
 22:8:245:loads::stores:[0,8)
 23:8:246:loads::stores:[0,8)
 18:8:290:loads::stores:[0,8)
 19:8:291:loads::stores:[0,8)
 20:8:292:loads::stores:[0,8)
 21:8:293:loads::stores:[0,8)
 22:8:294:loads::stores:[0,8)
 23:8:295:loads::stores:[0,8)
 18:8:335:loads::stores:[0,8)
 19:8:336:loads::stores:[0,8)
 20:8:337:loads::stores:[0,8)
 21:8:338:loads::stores:[0,8)
 22:8:339:loads::stores:[0,8)
 23:8:340:loads::stores:[0,8)
 18:8:379:loads::stores:[0,8)
 14:8:380:loads::stores:[0,8)
 18:8:389:loads::stores:[0,8)
 14:8:390:loads::stores:[0,8)
 18:8:399:loads::stores:[0,8)
 14:8:400:loads::stores:[0,8)
 18:8:409:loads::stores:[0,8)
 14:8:410:loads::stores:[0,8)
 18:8:425:loads::stores:[0,8)
 19:8:426:loads::stores:[0,8)
 20:8:427:loads::stores:[0,8)
 21:8:428:loads::stores:[0,8)
 22:8:429:loads::stores:[0,8)
 23:8:430:loads::stores:[0,8)
 18:8:446:loads::stores:[0,8)
 19:8:447:loads::stores:[0,8)
 20:8:448:loads::stores:[0,8)
 21:8:449:loads::stores:[0,8)
 22:8:450:loads::stores:[0,8)
 23:8:451:loads::stores:[0,8)
 18:8:493:loads::stores:[0,8)
 19:8:494:loads::stores:[0,8)
 20:8:495:loads::stores:[0,8)
 21:8:496:loads::stores:[0,8)
 22:8:497:loads::stores:[0,8)
 23:8:498:loads::stores:[0,8)
 18:8:514:loads::stores:[0,8)
 19:8:515:loads::stores:[0,8)
 20:8:516:loads::stores:[0,8)
 21:8:517:loads::stores:[0,8)
 22:8:518:loads::stores:[0,8)
 23:8:519:loads::stores:[0,8)
 18:8:561:loads::stores:[0,8)
 19:8:562:loads::stores:[0,8)
 20:8:563:loads::stores:[0,8)
 21:8:564:loads::stores:[0,8)
 22:8:565:loads::stores:[0,8)
 23:8:566:loads::stores:[0,8)
 18:8:582:loads::stores:[0,8)
 19:8:583:loads::stores:[0,8)
 20:8:584:loads::stores:[0,8)
 21:8:585:loads::stores:[0,8)
 22:8:586:loads::stores:[0,8)
 23:8:587:loads::stores:[0,8)
 18:8:631:loads::stores:[0,8)
 19:8:632:loads::stores:[0,8)
 20:8:633:loads::stores:[0,8)
 21:8:634:loads::stores:[0,8)
 22:8:635:loads::stores:[0,8)
 23:8:636:loads::stores:[0,8)
 18:8:676:loads::stores:[0,8)
 19:8:677:loads::stores:[0,8)
 20:8:678:loads::stores:[0,8)
 21:8:679:loads::stores:[0,8)
 22:8:680:loads::stores:[0,8)
 23:8:681:loads::stores:[0,8)
 18:8:722:loads::stores:[0,8)
 14:8:723:loads::stores:[0,8)
 18:8:732:loads::stores:[0,8)
 14:8:733:loads::stores:[0,8)
 18:8:742:loads::stores:[0,8)
 14:8:743:loads::stores:[0,8)
 18:8:752:loads::stores:[0,8)
 14:8:753:loads::stores:[0,8)
 18:8:768:loads::stores:[0,8)
 19:8:769:loads::stores:[0,8)
 20:8:770:loads::stores:[0,8)
 21:8:771:loads::stores:[0,8)
 22:8:772:loads::stores:[0,8)
 23:8:773:loads::stores:[0,8)
 18:8:789:loads::stores:[0,8)
 19:8:790:loads::stores:[0,8)
 20:8:791:loads::stores:[0,8)
 21:8:792:loads::stores:[0,8)
 22:8:793:loads::stores:[0,8)
 23:8:794:loads::stores:[0,8)
 18:8:834:loads::stores:[0,8)
 19:8:835:loads::stores:[0,8)
 20:8:836:loads::stores:[0,8)
 21:8:837:loads::stores:[0,8)
 22:8:838:loads::stores:[0,8)
 23:8:839:loads::stores:[0,8)
 18:8:855:loads::stores:[0,8)
 19:8:856:loads::stores:[0,8)
 20:8:857:loads::stores:[0,8)
 21:8:858:loads::stores:[0,8)
 22:8:859:loads::stores:[0,8)
 23:8:860:loads::stores:[0,8)
 18:8:906:loads::stores:[0,8)
 19:8:907:loads::stores:[0,8)
 20:8:908:loads::stores:[0,8)
 21:8:909:loads::stores:[0,8)
 22:8:910:loads::stores:[0,8)
 23:8:911:loads::stores:[0,8)
 18:8:927:loads::stores:[0,8)
 19:8:928:loads::stores:[0,8)
 20:8:929:loads::stores:[0,8)
 21:8:930:loads::stores:[0,8)
 22:8:931:loads::stores:[0,8)
 23:8:932:loads::stores:[0,8)
 18:8:976:loads::stores:[0,8)
 19:8:977:loads::stores:[0,8)
 20:8:978:loads::stores:[0,8)
 21:8:979:loads::stores:[0,8)
 22:8:980:loads::stores:[0,8)
 23:8:981:loads::stores:[0,8)
 18:8:1021:loads::stores:[0,8)
 19:8:1022:loads::stores:[0,8)
 20:8:1023:loads::stores:[0,8)
 21:8:1024:loads::stores:[0,8)
 22:8:1025:loads::stores:[0,8)
 23:8:1026:loads::stores:[0,8)
 18:8:1067:loads::stores:[0,8)
 14:8:1068:loads::stores:[0,8)
 18:8:1077:loads::stores:[0,8)
 14:8:1078:loads::stores:[0,8)
 18:8:1087:loads::stores:[0,8)
 14:8:1088:loads::stores:[0,8)
 18:8:1097:loads::stores:[0,8)
 14:8:1098:loads::stores:[0,8)
 18:8:1113:loads::stores:[0,8)
 19:8:1114:loads::stores:[0,8)
 20:8:1115:loads::stores:[0,8)
 21:8:1116:loads::stores:[0,8)
 22:8:1117:loads::stores:[0,8)
 23:8:1118:loads::stores:[0,8)
 18:8:1134:loads::stores:[0,8)
 19:8:1135:loads::stores:[0,8)
 20:8:1136:loads::stores:[0,8)
 21:8:1137:loads::stores:[0,8)
 22:8:1138:loads::stores:[0,8)
 23:8:1139:loads::stores:[0,8)
 18:8:1183:loads::stores:[0,8)
 19:8:1184:loads::stores:[0,8)
 20:8:1185:loads::stores:[0,8)
 21:8:1186:loads::stores:[0,8)
 22:8:1187:loads::stores:[0,8)
 23:8:1188:loads::stores:[0,8)
 18:8:1204:loads::stores:[0,8)
 19:8:1205:loads::stores:[0,8)
 20:8:1206:loads::stores:[0,8)
 21:8:1207:loads::stores:[0,8)
 22:8:1208:loads::stores:[0,8)
 23:8:1209:loads::stores:[0,8)
 18:8:1257:loads::stores:[0,8)
 19:8:1258:loads::stores:[0,8)
 20:8:1259:loads::stores:[0,8)
 21:8:1260:loads::stores:[0,8)
 22:8:1261:loads::stores:[0,8)
 23:8:1262:loads::stores:[0,8)
 18:8:1278:loads::stores:[0,8)
 19:8:1279:loads::stores:[0,8)
 20:8:1280:loads::stores:[0,8)
 21:8:1281:loads::stores:[0,8)
 22:8:1282:loads::stores:[0,8)
 23:8:1283:loads::stores:[0,8)
 18:8:1325:loads::stores:[0,8)
 19:8:1326:loads::stores:[0,8)
 20:8:1327:loads::stores:[0,8)
 21:8:1328:loads::stores:[0,8)
 22:8:1329:loads::stores:[0,8)
 23:8:1330:loads::stores:[0,8)
 18:8:1368:loads::stores:[0,8)
 19:8:1369:loads::stores:[0,8)
 20:8:1370:loads::stores:[0,8)
 21:8:1371:loads::stores:[0,8)
 22:8:1372:loads::stores:[0,8)
 23:8:1373:loads::stores:[0,8)
 18:8:1429:loads::stores:[0,8)
 19:8:1430:loads::stores:[0,8)
 20:8:1431:loads::stores:[0,8)
 21:8:1432:loads::stores:[0,8)
 22:8:1433:loads::stores:[0,8)
 23:8:1434:loads::stores:[0,8)
 18:8:1450:loads::stores:[0,8)
 19:8:1451:loads::stores:[0,8)
 20:8:1452:loads::stores:[0,8)
 21:8:1453:loads::stores:[0,8)
 22:8:1454:loads::stores:[0,8)
 23:8:1455:loads::stores:[0,8)
 18:8:1493:loads::stores:[0,8)
 19:8:1494:loads::stores:[0,8)
 20:8:1495:loads::stores:[0,8)
 21:8:1496:loads::stores:[0,8)
 22:8:1497:loads::stores:[0,8)
 23:8:1498:loads::stores:[0,8)
 18:8:1538:loads::stores:[0,8)
 19:8:1539:loads::stores:[0,8)
 20:8:1540:loads::stores:[0,8)
 21:8:1541:loads::stores:[0,8)
 22:8:1542:loads::stores:[0,8)
 23:8:1543:loads::stores:[0,8)
 18:8:1591:loads::stores:[0,8)
 19:8:1592:loads::stores:[0,8)
 20:8:1593:loads::stores:[0,8)
 21:8:1594:loads::stores:[0,8)
 22:8:1595:loads::stores:[0,8)
 23:8:1596:loads::stores:[0,8)
 18:8:1634:loads::stores:[0,8)
 19:8:1635:loads::stores:[0,8)
 20:8:1636:loads::stores:[0,8)
 21:8:1637:loads::stores:[0,8)
 22:8:1638:loads::stores:[0,8)
 23:8:1639:loads::stores:[0,8)
 18:8:1683:loads::stores:[0,8)
 19:8:1684:loads::stores:[0,8)
 20:8:1685:loads::stores:[0,8)
 21:8:1686:loads::stores:[0,8)
 22:8:1687:loads::stores:[0,8)
 23:8:1688:loads::stores:[0,8)
 18:8:1728:loads::stores:[0,8)
 19:8:1729:loads::stores:[0,8)
 20:8:1730:loads::stores:[0,8)
 21:8:1731:loads::stores:[0,8)
 22:8:1732:loads::stores:[0,8)
 23:8:1733:loads::stores:[0,8)
 18:8:1787:loads::stores:[0,8)
 19:8:1788:loads::stores:[0,8)
 20:8:1789:loads::stores:[0,8)
 21:8:1790:loads::stores:[0,8)
 22:8:1791:loads::stores:[0,8)
 23:8:1792:loads::stores:[0,8)
 18:8:1808:loads::stores:[0,8)
 19:8:1809:loads::stores:[0,8)
 20:8:1810:loads::stores:[0,8)
 21:8:1811:loads::stores:[0,8)
 22:8:1812:loads::stores:[0,8)
 23:8:1813:loads::stores:[0,8)
 18:8:1851:loads::stores:[0,8)
 19:8:1852:loads::stores:[0,8)
 20:8:1853:loads::stores:[0,8)
 21:8:1854:loads::stores:[0,8)
 22:8:1855:loads::stores:[0,8)
 23:8:1856:loads::stores:[0,8)
 18:8:1896:loads::stores:[0,8)
 19:8:1897:loads::stores:[0,8)
 20:8:1898:loads::stores:[0,8)
 21:8:1899:loads::stores:[0,8)
 22:8:1900:loads::stores:[0,8)
 23:8:1901:loads::stores:[0,8)
 18:8:1947:loads::stores:[0,8)
 19:8:1948:loads::stores:[0,8)
 20:8:1949:loads::stores:[0,8)
 21:8:1950:loads::stores:[0,8)
 22:8:1951:loads::stores:[0,8)
 23:8:1952:loads::stores:[0,8)
 18:8:1994:loads::stores:[0,8)
 19:8:1995:loads::stores:[0,8)
 20:8:1996:loads::stores:[0,8)
 21:8:1997:loads::stores:[0,8)
 22:8:1998:loads::stores:[0,8)
 23:8:1999:loads::stores:[0,8)
 18:8:2043:loads::stores:[0,8)
 19:8:2044:loads::stores:[0,8)
 20:8:2045:loads::stores:[0,8)
 21:8:2046:loads::stores:[0,8)
 22:8:2047:loads::stores:[0,8)
 23:8:2048:loads::stores:[0,8)
 18:8:2088:loads::stores:[0,8)
 19:8:2089:loads::stores:[0,8)
 20:8:2090:loads::stores:[0,8)
 21:8:2091:loads::stores:[0,8)
 22:8:2092:loads::stores:[0,8)
 23:8:2093:loads::stores:[0,8)
 18:8:2155:loads::stores:[0,8)
 19:8:2156:loads::stores:[0,8)
 20:8:2157:loads::stores:[0,8)
 21:8:2158:loads::stores:[0,8)
 22:8:2159:loads::stores:[0,8)
 23:8:2160:loads::stores:[0,8)
 18:8:2176:loads::stores:[0,8)
 19:8:2177:loads::stores:[0,8)
 20:8:2178:loads::stores:[0,8)
 21:8:2179:loads::stores:[0,8)
 22:8:2180:loads::stores:[0,8)
 23:8:2181:loads::stores:[0,8)
 18:8:2223:loads::stores:[0,8)
 19:8:2224:loads::stores:[0,8)
 20:8:2225:loads::stores:[0,8)
 21:8:2226:loads::stores:[0,8)
 22:8:2227:loads::stores:[0,8)
 23:8:2228:loads::stores:[0,8)
 18:8:2268:loads::stores:[0,8)
 19:8:2269:loads::stores:[0,8)
 20:8:2270:loads::stores:[0,8)
 21:8:2271:loads::stores:[0,8)
 22:8:2272:loads::stores:[0,8)
 23:8:2273:loads::stores:[0,8)
 18:8:2325:loads::stores:[0,8)
 19:8:2326:loads::stores:[0,8)
 20:8:2327:loads::stores:[0,8)
 21:8:2328:loads::stores:[0,8)
 22:8:2329:loads::stores:[0,8)
 23:8:2330:loads::stores:[0,8)
 18:8:2368:loads::stores:[0,8)
 19:8:2369:loads::stores:[0,8)
 20:8:2370:loads::stores:[0,8)
 21:8:2371:loads::stores:[0,8)
 22:8:2372:loads::stores:[0,8)
 23:8:2373:loads::stores:[0,8)
 18:8:2419:loads::stores:[0,8)
 19:8:2420:loads::stores:[0,8)
 20:8:2421:loads::stores:[0,8)
 21:8:2422:loads::stores:[0,8)
 22:8:2423:loads::stores:[0,8)
 23:8:2424:loads::stores:[0,8)
 18:8:2466:loads::stores:[0,8)
 19:8:2467:loads::stores:[0,8)
 20:8:2468:loads::stores:[0,8)
 21:8:2469:loads::stores:[0,8)
 22:8:2470:loads::stores:[0,8)
 23:8:2471:loads::stores:[0,8)
 18:8:2531:loads::stores:[0,8)
 19:8:2532:loads::stores:[0,8)
 20:8:2533:loads::stores:[0,8)
 21:8:2534:loads::stores:[0,8)
 22:8:2535:loads::stores:[0,8)
 23:8:2536:loads::stores:[0,8)
 18:8:2574:loads::stores:[0,8)
 19:8:2575:loads::stores:[0,8)
 20:8:2576:loads::stores:[0,8)
 21:8:2577:loads::stores:[0,8)
 22:8:2578:loads::stores:[0,8)
 23:8:2579:loads::stores:[0,8)
 18:8:2625:loads::stores:[0,8)
 19:8:2626:loads::stores:[0,8)
 20:8:2627:loads::stores:[0,8)
 21:8:2628:loads::stores:[0,8)
 22:8:2629:loads::stores:[0,8)
 23:8:2630:loads::stores:[0,8)
 18:8:2670:loads::stores:[0,8)
 19:8:2671:loads::stores:[0,8)
 20:8:2672:loads::stores:[0,8)
 21:8:2673:loads::stores:[0,8)
 22:8:2674:loads::stores:[0,8)
 23:8:2675:loads::stores:[0,8)
 18:8:2727:loads::stores:[0,8)
 19:8:2728:loads::stores:[0,8)
 20:8:2729:loads::stores:[0,8)
 21:8:2730:loads::stores:[0,8)
 22:8:2731:loads::stores:[0,8)
 23:8:2732:loads::stores:[0,8)
 18:8:2772:loads::stores:[0,8)
 19:8:2773:loads::stores:[0,8)
 20:8:2774:loads::stores:[0,8)
 21:8:2775:loads::stores:[0,8)
 22:8:2776:loads::stores:[0,8)
 23:8:2777:loads::stores:[0,8)
 18:8:2821:loads::stores:[0,8)
 19:8:2822:loads::stores:[0,8)
 20:8:2823:loads::stores:[0,8)
 21:8:2824:loads::stores:[0,8)
 22:8:2825:loads::stores:[0,8)
 23:8:2826:loads::stores:[0,8)
 18:8:2862:loads::stores:[0,8)
 19:8:2863:loads::stores:[0,8)
 20:8:2864:loads::stores:[0,8)
 21:8:2865:loads::stores:[0,8)
 22:8:2866:loads::stores:[0,8)
 23:8:2867:loads::stores:[0,8)
 section:0:0:1:161:0:1263265436
   18:8:30:loads::stores:[0,8)
   14:8:31:loads::stores:[0,8)
   18:8:40:loads::stores:[0,8)
   14:8:41:loads::stores:[0,8)
   18:8:50:loads::stores:[0,8)
   14:8:51:loads::stores:[0,8)
   18:8:60:loads::stores:[0,8)
   14:8:61:loads::stores:[0,8)
   18:8:76:loads::stores:[0,8)
   19:8:77:loads::stores:[0,8)
   20:8:78:loads::stores:[0,8)
   21:8:79:loads::stores:[0,8)
   22:8:80:loads::stores:[0,8)
   23:8:81:loads::stores:[0,8)
   18:8:97:loads::stores:[0,8)
   19:8:98:loads::stores:[0,8)
   20:8:99:loads::stores:[0,8)
   21:8:100:loads::stores:[0,8)
   22:8:101:loads::stores:[0,8)
   23:8:102:loads::stores:[0,8)
   18:8:144:loads::stores:[0,8)
   19:8:145:loads::stores:[0,8)
   20:8:146:loads::stores:[0,8)
   21:8:147:loads::stores:[0,8)
   22:8:148:loads::stores:[0,8)
   23:8:149:loads::stores:[0,8)
   18:8:165:loads::stores:[0,8)
   19:8:166:loads::stores:[0,8)
   20:8:167:loads::stores:[0,8)
   21:8:168:loads::stores:[0,8)
   22:8:169:loads::stores:[0,8)
   23:8:170:loads::stores:[0,8)
   18:8:220:loads::stores:[0,8)
   19:8:221:loads::stores:[0,8)
   20:8:222:loads::stores:[0,8)
   21:8:223:loads::stores:[0,8)
   22:8:224:loads::stores:[0,8)
   23:8:225:loads::stores:[0,8)
   18:8:241:loads::stores:[0,8)
   19:8:242:loads::stores:[0,8)
   20:8:243:loads::stores:[0,8)
   21:8:244:loads::stores:[0,8)
   22:8:245:loads::stores:[0,8)
   23:8:246:loads::stores:[0,8)
   18:8:290:loads::stores:[0,8)
   19:8:291:loads::stores:[0,8)
   20:8:292:loads::stores:[0,8)
   21:8:293:loads::stores:[0,8)
   22:8:294:loads::stores:[0,8)
   23:8:295:loads::stores:[0,8)
   18:8:335:loads::stores:[0,8)
   19:8:336:loads::stores:[0,8)
   20:8:337:loads::stores:[0,8)
   21:8:338:loads::stores:[0,8)
   22:8:339:loads::stores:[0,8)
   23:8:340:loads::stores:[0,8)
   18:8:379:loads::stores:[0,8)
   14:8:380:loads::stores:[0,8)
   18:8:389:loads::stores:[0,8)
   14:8:390:loads::stores:[0,8)
   18:8:399:loads::stores:[0,8)
   14:8:400:loads::stores:[0,8)
   18:8:409:loads::stores:[0,8)
   14:8:410:loads::stores:[0,8)
   18:8:425:loads::stores:[0,8)
   19:8:426:loads::stores:[0,8)
   20:8:427:loads::stores:[0,8)
   21:8:428:loads::stores:[0,8)
   22:8:429:loads::stores:[0,8)
   23:8:430:loads::stores:[0,8)
   18:8:446:loads::stores:[0,8)
   19:8:447:loads::stores:[0,8)
   20:8:448:loads::stores:[0,8)
   21:8:449:loads::stores:[0,8)
   22:8:450:loads::stores:[0,8)
   23:8:451:loads::stores:[0,8)
   18:8:493:loads::stores:[0,8)
   19:8:494:loads::stores:[0,8)
   20:8:495:loads::stores:[0,8)
   21:8:496:loads::stores:[0,8)
   22:8:497:loads::stores:[0,8)
   23:8:498:loads::stores:[0,8)
   18:8:514:loads::stores:[0,8)
   19:8:515:loads::stores:[0,8)
   20:8:516:loads::stores:[0,8)
   21:8:517:loads::stores:[0,8)
   22:8:518:loads::stores:[0,8)
   23:8:519:loads::stores:[0,8)
   18:8:561:loads::stores:[0,8)
   19:8:562:loads::stores:[0,8)
   20:8:563:loads::stores:[0,8)
   21:8:564:loads::stores:[0,8)
   22:8:565:loads::stores:[0,8)
   23:8:566:loads::stores:[0,8)
   18:8:582:loads::stores:[0,8)
   19:8:583:loads::stores:[0,8)
   20:8:584:loads::stores:[0,8)
   21:8:585:loads::stores:[0,8)
   22:8:586:loads::stores:[0,8)
   23:8:587:loads::stores:[0,8)
   18:8:631:loads::stores:[0,8)
   19:8:632:loads::stores:[0,8)
   20:8:633:loads::stores:[0,8)
   21:8:634:loads::stores:[0,8)
   22:8:635:loads::stores:[0,8)
   23:8:636:loads::stores:[0,8)
   18:8:676:loads::stores:[0,8)
   19:8:677:loads::stores:[0,8)
   20:8:678:loads::stores:[0,8)
   21:8:679:loads::stores:[0,8)
   22:8:680:loads::stores:[0,8)
   23:8:681:loads::stores:[0,8)
   18:8:722:loads::stores:[0,8)
   14:8:723:loads::stores:[0,8)
   18:8:732:loads::stores:[0,8)
   14:8:733:loads::stores:[0,8)
   18:8:742:loads::stores:[0,8)
   14:8:743:loads::stores:[0,8)
   18:8:752:loads::stores:[0,8)
   14:8:753:loads::stores:[0,8)
   18:8:768:loads::stores:[0,8)
   19:8:769:loads::stores:[0,8)
   20:8:770:loads::stores:[0,8)
   21:8:771:loads::stores:[0,8)
   22:8:772:loads::stores:[0,8)
   23:8:773:loads::stores:[0,8)
   18:8:789:loads::stores:[0,8)
   19:8:790:loads::stores:[0,8)
   20:8:791:loads::stores:[0,8)
   21:8:792:loads::stores:[0,8)
   22:8:793:loads::stores:[0,8)
   23:8:794:loads::stores:[0,8)
   18:8:834:loads::stores:[0,8)
   19:8:835:loads::stores:[0,8)
   20:8:836:loads::stores:[0,8)
   21:8:837:loads::stores:[0,8)
   22:8:838:loads::stores:[0,8)
   23:8:839:loads::stores:[0,8)
   18:8:855:loads::stores:[0,8)
   19:8:856:loads::stores:[0,8)
   20:8:857:loads::stores:[0,8)
   21:8:858:loads::stores:[0,8)
   22:8:859:loads::stores:[0,8)
   23:8:860:loads::stores:[0,8)
   18:8:906:loads::stores:[0,8)
   19:8:907:loads::stores:[0,8)
   20:8:908:loads::stores:[0,8)
   21:8:909:loads::stores:[0,8)
   22:8:910:loads::stores:[0,8)
   23:8:911:loads::stores:[0,8)
   18:8:927:loads::stores:[0,8)
   19:8:928:loads::stores:[0,8)
   20:8:929:loads::stores:[0,8)
   21:8:930:loads::stores:[0,8)
   22:8:931:loads::stores:[0,8)
   23:8:932:loads::stores:[0,8)
   18:8:976:loads::stores:[0,8)
   19:8:977:loads::stores:[0,8)
   20:8:978:loads::stores:[0,8)
   21:8:979:loads::stores:[0,8)
   22:8:980:loads::stores:[0,8)
   23:8:981:loads::stores:[0,8)
   18:8:1021:loads::stores:[0,8)
   19:8:1022:loads::stores:[0,8)
   20:8:1023:loads::stores:[0,8)
   21:8:1024:loads::stores:[0,8)
   22:8:1025:loads::stores:[0,8)
   23:8:1026:loads::stores:[0,8)
   18:8:1067:loads::stores:[0,8)
   14:8:1068:loads::stores:[0,8)
   18:8:1077:loads::stores:[0,8)
   14:8:1078:loads::stores:[0,8)
   18:8:1087:loads::stores:[0,8)
   14:8:1088:loads::stores:[0,8)
   18:8:1097:loads::stores:[0,8)
   14:8:1098:loads::stores:[0,8)
   18:8:1113:loads::stores:[0,8)
   19:8:1114:loads::stores:[0,8)
   20:8:1115:loads::stores:[0,8)
   21:8:1116:loads::stores:[0,8)
   22:8:1117:loads::stores:[0,8)
   23:8:1118:loads::stores:[0,8)
   18:8:1134:loads::stores:[0,8)
   19:8:1135:loads::stores:[0,8)
   20:8:1136:loads::stores:[0,8)
   21:8:1137:loads::stores:[0,8)
   22:8:1138:loads::stores:[0,8)
   23:8:1139:loads::stores:[0,8)
   18:8:1183:loads::stores:[0,8)
   19:8:1184:loads::stores:[0,8)
   20:8:1185:loads::stores:[0,8)
   21:8:1186:loads::stores:[0,8)
   22:8:1187:loads::stores:[0,8)
   23:8:1188:loads::stores:[0,8)
   18:8:1204:loads::stores:[0,8)
   19:8:1205:loads::stores:[0,8)
   20:8:1206:loads::stores:[0,8)
   21:8:1207:loads::stores:[0,8)
   22:8:1208:loads::stores:[0,8)
   23:8:1209:loads::stores:[0,8)
   18:8:1257:loads::stores:[0,8)
   19:8:1258:loads::stores:[0,8)
   20:8:1259:loads::stores:[0,8)
   21:8:1260:loads::stores:[0,8)
   22:8:1261:loads::stores:[0,8)
   23:8:1262:loads::stores:[0,8)
   18:8:1278:loads::stores:[0,8)
   19:8:1279:loads::stores:[0,8)
   20:8:1280:loads::stores:[0,8)
   21:8:1281:loads::stores:[0,8)
   22:8:1282:loads::stores:[0,8)
   23:8:1283:loads::stores:[0,8)
   18:8:1325:loads::stores:[0,8)
   19:8:1326:loads::stores:[0,8)
   20:8:1327:loads::stores:[0,8)
   21:8:1328:loads::stores:[0,8)
   22:8:1329:loads::stores:[0,8)
   23:8:1330:loads::stores:[0,8)
   18:8:1368:loads::stores:[0,8)
   19:8:1369:loads::stores:[0,8)
   20:8:1370:loads::stores:[0,8)
   21:8:1371:loads::stores:[0,8)
   22:8:1372:loads::stores:[0,8)
   23:8:1373:loads::stores:[0,8)
   18:8:1429:loads::stores:[0,8)
   19:8:1430:loads::stores:[0,8)
   20:8:1431:loads::stores:[0,8)
   21:8:1432:loads::stores:[0,8)
   22:8:1433:loads::stores:[0,8)
   23:8:1434:loads::stores:[0,8)
   18:8:1450:loads::stores:[0,8)
   19:8:1451:loads::stores:[0,8)
   20:8:1452:loads::stores:[0,8)
   21:8:1453:loads::stores:[0,8)
   22:8:1454:loads::stores:[0,8)
   23:8:1455:loads::stores:[0,8)
   18:8:1493:loads::stores:[0,8)
   19:8:1494:loads::stores:[0,8)
   20:8:1495:loads::stores:[0,8)
   21:8:1496:loads::stores:[0,8)
   22:8:1497:loads::stores:[0,8)
   23:8:1498:loads::stores:[0,8)
   18:8:1538:loads::stores:[0,8)
   19:8:1539:loads::stores:[0,8)
   20:8:1540:loads::stores:[0,8)
   21:8:1541:loads::stores:[0,8)
   22:8:1542:loads::stores:[0,8)
   23:8:1543:loads::stores:[0,8)
   18:8:1591:loads::stores:[0,8)
   19:8:1592:loads::stores:[0,8)
   20:8:1593:loads::stores:[0,8)
   21:8:1594:loads::stores:[0,8)
   22:8:1595:loads::stores:[0,8)
   23:8:1596:loads::stores:[0,8)
   18:8:1634:loads::stores:[0,8)
   19:8:1635:loads::stores:[0,8)
   20:8:1636:loads::stores:[0,8)
   21:8:1637:loads::stores:[0,8)
   22:8:1638:loads::stores:[0,8)
   23:8:1639:loads::stores:[0,8)
   18:8:1683:loads::stores:[0,8)
   19:8:1684:loads::stores:[0,8)
   20:8:1685:loads::stores:[0,8)
   21:8:1686:loads::stores:[0,8)
   22:8:1687:loads::stores:[0,8)
   23:8:1688:loads::stores:[0,8)
   18:8:1728:loads::stores:[0,8)
   19:8:1729:loads::stores:[0,8)
   20:8:1730:loads::stores:[0,8)
   21:8:1731:loads::stores:[0,8)
   22:8:1732:loads::stores:[0,8)
   23:8:1733:loads::stores:[0,8)
   18:8:1787:loads::stores:[0,8)
   19:8:1788:loads::stores:[0,8)
   20:8:1789:loads::stores:[0,8)
   21:8:1790:loads::stores:[0,8)
   22:8:1791:loads::stores:[0,8)
   23:8:1792:loads::stores:[0,8)
   18:8:1808:loads::stores:[0,8)
   19:8:1809:loads::stores:[0,8)
   20:8:1810:loads::stores:[0,8)
   21:8:1811:loads::stores:[0,8)
   22:8:1812:loads::stores:[0,8)
   23:8:1813:loads::stores:[0,8)
   18:8:1851:loads::stores:[0,8)
   19:8:1852:loads::stores:[0,8)
   20:8:1853:loads::stores:[0,8)
   21:8:1854:loads::stores:[0,8)
   22:8:1855:loads::stores:[0,8)
   23:8:1856:loads::stores:[0,8)
   18:8:1896:loads::stores:[0,8)
   19:8:1897:loads::stores:[0,8)
   20:8:1898:loads::stores:[0,8)
   21:8:1899:loads::stores:[0,8)
   22:8:1900:loads::stores:[0,8)
   23:8:1901:loads::stores:[0,8)
   18:8:1947:loads::stores:[0,8)
   19:8:1948:loads::stores:[0,8)
   20:8:1949:loads::stores:[0,8)
   21:8:1950:loads::stores:[0,8)
   22:8:1951:loads::stores:[0,8)
   23:8:1952:loads::stores:[0,8)
   18:8:1994:loads::stores:[0,8)
   19:8:1995:loads::stores:[0,8)
   20:8:1996:loads::stores:[0,8)
   21:8:1997:loads::stores:[0,8)
   22:8:1998:loads::stores:[0,8)
   23:8:1999:loads::stores:[0,8)
   18:8:2043:loads::stores:[0,8)
   19:8:2044:loads::stores:[0,8)
   20:8:2045:loads::stores:[0,8)
   21:8:2046:loads::stores:[0,8)
   22:8:2047:loads::stores:[0,8)
   23:8:2048:loads::stores:[0,8)
   18:8:2088:loads::stores:[0,8)
   19:8:2089:loads::stores:[0,8)
   20:8:2090:loads::stores:[0,8)
   21:8:2091:loads::stores:[0,8)
   22:8:2092:loads::stores:[0,8)
   23:8:2093:loads::stores:[0,8)
   18:8:2155:loads::stores:[0,8)
   19:8:2156:loads::stores:[0,8)
   20:8:2157:loads::stores:[0,8)
   21:8:2158:loads::stores:[0,8)
   22:8:2159:loads::stores:[0,8)
   23:8:2160:loads::stores:[0,8)
   18:8:2176:loads::stores:[0,8)
   19:8:2177:loads::stores:[0,8)
   20:8:2178:loads::stores:[0,8)
   21:8:2179:loads::stores:[0,8)
   22:8:2180:loads::stores:[0,8)
   23:8:2181:loads::stores:[0,8)
   18:8:2223:loads::stores:[0,8)
   19:8:2224:loads::stores:[0,8)
   20:8:2225:loads::stores:[0,8)
   21:8:2226:loads::stores:[0,8)
   22:8:2227:loads::stores:[0,8)
   23:8:2228:loads::stores:[0,8)
   18:8:2268:loads::stores:[0,8)
   19:8:2269:loads::stores:[0,8)
   20:8:2270:loads::stores:[0,8)
   21:8:2271:loads::stores:[0,8)
   22:8:2272:loads::stores:[0,8)
   23:8:2273:loads::stores:[0,8)
   18:8:2325:loads::stores:[0,8)
   19:8:2326:loads::stores:[0,8)
   20:8:2327:loads::stores:[0,8)
   21:8:2328:loads::stores:[0,8)
   22:8:2329:loads::stores:[0,8)
   23:8:2330:loads::stores:[0,8)
   18:8:2368:loads::stores:[0,8)
   19:8:2369:loads::stores:[0,8)
   20:8:2370:loads::stores:[0,8)
   21:8:2371:loads::stores:[0,8)
   22:8:2372:loads::stores:[0,8)
   23:8:2373:loads::stores:[0,8)
   18:8:2419:loads::stores:[0,8)
   19:8:2420:loads::stores:[0,8)
   20:8:2421:loads::stores:[0,8)
   21:8:2422:loads::stores:[0,8)
   22:8:2423:loads::stores:[0,8)
   23:8:2424:loads::stores:[0,8)
   18:8:2466:loads::stores:[0,8)
   19:8:2467:loads::stores:[0,8)
   20:8:2468:loads::stores:[0,8)
   21:8:2469:loads::stores:[0,8)
   22:8:2470:loads::stores:[0,8)
   23:8:2471:loads::stores:[0,8)
   18:8:2531:loads::stores:[0,8)
   19:8:2532:loads::stores:[0,8)
   20:8:2533:loads::stores:[0,8)
   21:8:2534:loads::stores:[0,8)
   22:8:2535:loads::stores:[0,8)
   23:8:2536:loads::stores:[0,8)
   18:8:2574:loads::stores:[0,8)
   19:8:2575:loads::stores:[0,8)
   20:8:2576:loads::stores:[0,8)
   21:8:2577:loads::stores:[0,8)
   22:8:2578:loads::stores:[0,8)
   23:8:2579:loads::stores:[0,8)
   18:8:2625:loads::stores:[0,8)
   19:8:2626:loads::stores:[0,8)
   20:8:2627:loads::stores:[0,8)
   21:8:2628:loads::stores:[0,8)
   22:8:2629:loads::stores:[0,8)
   23:8:2630:loads::stores:[0,8)
   18:8:2670:loads::stores:[0,8)
   19:8:2671:loads::stores:[0,8)
   20:8:2672:loads::stores:[0,8)
   21:8:2673:loads::stores:[0,8)
   22:8:2674:loads::stores:[0,8)
   23:8:2675:loads::stores:[0,8)
   18:8:2727:loads::stores:[0,8)
   19:8:2728:loads::stores:[0,8)
   20:8:2729:loads::stores:[0,8)
   21:8:2730:loads::stores:[0,8)
   22:8:2731:loads::stores:[0,8)
   23:8:2732:loads::stores:[0,8)
   18:8:2772:loads::stores:[0,8)
   19:8:2773:loads::stores:[0,8)
   20:8:2774:loads::stores:[0,8)
   21:8:2775:loads::stores:[0,8)
   22:8:2776:loads::stores:[0,8)
   23:8:2777:loads::stores:[0,8)
   18:8:2821:loads::stores:[0,8)
   19:8:2822:loads::stores:[0,8)
   20:8:2823:loads::stores:[0,8)
   21:8:2824:loads::stores:[0,8)
   22:8:2825:loads::stores:[0,8)
   23:8:2826:loads::stores:[0,8)
   18:8:2862:loads::stores:[0,8)
   19:8:2863:loads::stores:[0,8)
   20:8:2864:loads::stores:[0,8)
   21:8:2865:loads::stores:[0,8)
   22:8:2866:loads::stores:[0,8)
   23:8:2867:loads::stores:[0,8)
 section:0:1:None:161:1263265436:1263265436
 TASK:1:basicsort:2:2:39:79220710
  16:131072:16:loads:[0,8192):stores:[0,8192)
  18:8:30:loads:[0,8):stores:
  14:8:31:loads:[0,8):stores:
  section:1:0:2:2:39:79220710
    16:131072:16:loads:[0,8192):stores:[0,8192)
    18:8:30:loads:[0,8):stores:
    14:8:31:loads:[0,8):stores:
 TASK:2:basicsort:4:4:79220725:157478471
  16:131072:16:loads:[8192,16384):stores:[8192,16384)
  18:8:40:loads:[0,8):stores:
  14:8:41:loads:[0,8):stores:
  section:2:0:4:4:79220725:157478471
    16:131072:16:loads:[8192,16384):stores:[8192,16384)
    18:8:40:loads:[0,8):stores:
    14:8:41:loads:[0,8):stores:
 TASK:3:basicsort:6:6:157478486:235946757
  16:131072:16:loads:[16384,24576):stores:[16384,24576)
  18:8:50:loads:[0,8):stores:
  14:8:51:loads:[0,8):stores:
  section:3:0:6:6:157478486:235946757
    16:131072:16:loads:[16384,24576):stores:[16384,24576)
    18:8:50:loads:[0,8):stores:
    14:8:51:loads:[0,8):stores:
 TASK:4:basicsort:8:8:235946772:315193943
  16:131072:16:loads:[24576,32768):stores:[24576,32768)
  18:8:60:loads:[0,8):stores:
  14:8:61:loads:[0,8):stores:
  section:4:0:8:8:235946772:315193943
    16:131072:16:loads:[24576,32768):stores:[24576,32768)
    18:8:60:loads:[0,8):stores:
    14:8:61:loads:[0,8):stores:
 TASK:5:basicmerge:10:10:315193987:315275968
  16:131072:16:loads:[0,4156)[8192,12232):stores:
  17:131072:17:loads::stores:[0,8192)
  18:8:76:loads:[0,8):stores:
  19:8:77:loads:[0,8):stores:
  20:8:78:loads:[0,8):stores:
  21:8:79:loads:[0,8):stores:
  22:8:80:loads:[0,8):stores:
  23:8:81:loads:[0,8):stores:
  section:5:0:10:10:315193987:315275968
    16:131072:16:loads:[0,4156)[8192,12232):stores:
    17:131072:17:loads::stores:[0,8192)
    18:8:76:loads:[0,8):stores:
    19:8:77:loads:[0,8):stores:
    20:8:78:loads:[0,8):stores:
    21:8:79:loads:[0,8):stores:
    22:8:80:loads:[0,8):stores:
    23:8:81:loads:[0,8):stores:
 TASK:6:basicmerge:12:12:315275991:315359133
  16:131072:16:loads:[4096,4100)[4128,4132)[4144,4148)[4152,8192)[10240,10244)[11264,11268)[11776,11780)[12032,12036)[12160,12164)[12224,16384):stores:
  17:131072:17:loads::stores:[8192,16384)
  18:8:97:loads:[0,8):stores:
  19:8:98:loads:[0,8):stores:
  20:8:99:loads:[0,8):stores:
  21:8:100:loads:[0,8):stores:
  22:8:101:loads:[0,8):stores:
  23:8:102:loads:[0,8):stores:
  section:6:0:12:12:315275991:315359133
    16:131072:16:loads:[4096,4100)[4128,4132)[4144,4148)[4152,8192)[10240,10244)[11264,11268)[11776,11780)[12032,12036)[12160,12164)[12224,16384):stores:
    17:131072:17:loads::stores:[8192,16384)
    18:8:97:loads:[0,8):stores:
    19:8:98:loads:[0,8):stores:
    20:8:99:loads:[0,8):stores:
    21:8:100:loads:[0,8):stores:
    22:8:101:loads:[0,8):stores:
    23:8:102:loads:[0,8):stores:
 TASK:7:basicmerge:14:14:315359198:315441179
  16:131072:16:loads:[16384,20536)[24576,28620):stores:
  17:131072:17:loads::stores:[16384,24576)
  18:8:144:loads:[0,8):stores:
  19:8:145:loads:[0,8):stores:
  20:8:146:loads:[0,8):stores:
  21:8:147:loads:[0,8):stores:
  22:8:148:loads:[0,8):stores:
  23:8:149:loads:[0,8):stores:
  section:7:0:14:14:315359198:315441179
    16:131072:16:loads:[16384,20536)[24576,28620):stores:
    17:131072:17:loads::stores:[16384,24576)
    18:8:144:loads:[0,8):stores:
    19:8:145:loads:[0,8):stores:
    20:8:146:loads:[0,8):stores:
    21:8:147:loads:[0,8):stores:
    22:8:148:loads:[0,8):stores:
    23:8:149:loads:[0,8):stores:
 TASK:8:basicmerge:16:16:315441202:315524492
  16:131072:16:loads:[20480,20484)[20512,20516)[20528,24576)[26624,26628)[27648,27652)[28160,28164)[28416,28420)[28544,28548)[28608,28612)[28616,32768):stores:
  17:131072:17:loads::stores:[24576,32768)
  18:8:165:loads:[0,8):stores:
  19:8:166:loads:[0,8):stores:
  20:8:167:loads:[0,8):stores:
  21:8:168:loads:[0,8):stores:
  22:8:169:loads:[0,8):stores:
  23:8:170:loads:[0,8):stores:
  section:8:0:16:16:315441202:315524492
    16:131072:16:loads:[20480,20484)[20512,20516)[20528,24576)[26624,26628)[27648,27652)[28160,28164)[28416,28420)[28544,28548)[28608,28612)[28616,32768):stores:
    17:131072:17:loads::stores:[24576,32768)
    18:8:165:loads:[0,8):stores:
    19:8:166:loads:[0,8):stores:
    20:8:167:loads:[0,8):stores:
    21:8:168:loads:[0,8):stores:
    22:8:169:loads:[0,8):stores:
    23:8:170:loads:[0,8):stores:
 TASK:9:basicmerge:18:18:315524578:315606559
  16:131072:16:loads::stores:[0,8192)
  17:131072:17:loads:[0,4136)[16384,20444):stores:
  18:8:220:loads:[0,8):stores:
  19:8:221:loads:[0,8):stores:
  20:8:222:loads:[0,8):stores:
  21:8:223:loads:[0,8):stores:
  22:8:224:loads:[0,8):stores:
  23:8:225:loads:[0,8):stores:
  section:9:0:18:18:315524578:315606559
    16:131072:16:loads::stores:[0,8192)
    17:131072:17:loads:[0,4136)[16384,20444):stores:
    18:8:220:loads:[0,8):stores:
    19:8:221:loads:[0,8):stores:
    20:8:222:loads:[0,8):stores:
    21:8:223:loads:[0,8):stores:
    22:8:224:loads:[0,8):stores:
    23:8:225:loads:[0,8):stores:
 TASK:10:basicmerge:20:20:315606582:315689894
  16:131072:16:loads::stores:[8192,16384)
  17:131072:17:loads:[4096,4100)[4128,8252)[18432,18436)[19456,19460)[19968,19972)[20224,20228)[20352,20356)[20416,20420)[20432,20436)[20440,24520):stores:
  18:8:241:loads:[0,8):stores:
  19:8:242:loads:[0,8):stores:
  20:8:243:loads:[0,8):stores:
  21:8:244:loads:[0,8):stores:
  22:8:245:loads:[0,8):stores:
  23:8:246:loads:[0,8):stores:
  section:10:0:20:20:315606582:315689894
    16:131072:16:loads::stores:[8192,16384)
    17:131072:17:loads:[4096,4100)[4128,8252)[18432,18436)[19456,19460)[19968,19972)[20224,20228)[20352,20356)[20416,20420)[20432,20436)[20440,24520):stores:
    18:8:241:loads:[0,8):stores:
    19:8:242:loads:[0,8):stores:
    20:8:243:loads:[0,8):stores:
    21:8:244:loads:[0,8):stores:
    22:8:245:loads:[0,8):stores:
    23:8:246:loads:[0,8):stores:
 TASK:11:basicmerge:22:22:315689959:315773405
  16:131072:16:loads::stores:[16384,24576)
  17:131072:17:loads:[8192,8196)[8224,8228)[8240,8244)[8248,12232)[12284,12292)[20480,20484)[22528,22532)[23552,23556)[24064,24068)[24320,24324)[24448,24452)[24512,28732):stores:
  18:8:290:loads:[0,8):stores:
  19:8:291:loads:[0,8):stores:
  20:8:292:loads:[0,8):stores:
  21:8:293:loads:[0,8):stores:
  22:8:294:loads:[0,8):stores:
  23:8:295:loads:[0,8):stores:
  section:11:0:22:22:315689959:315773405
    16:131072:16:loads::stores:[16384,24576)
    17:131072:17:loads:[8192,8196)[8224,8228)[8240,8244)[8248,12232)[12284,12292)[20480,20484)[22528,22532)[23552,23556)[24064,24068)[24320,24324)[24448,24452)[24512,28732):stores:
    18:8:290:loads:[0,8):stores:
    19:8:291:loads:[0,8):stores:
    20:8:292:loads:[0,8):stores:
    21:8:293:loads:[0,8):stores:
    22:8:294:loads:[0,8):stores:
    23:8:295:loads:[0,8):stores:
 TASK:12:basicmerge:24:24:315773428:315856591
  16:131072:16:loads::stores:[24576,32768)
  17:131072:17:loads:[10240,10244)[11264,11268)[11776,11780)[12032,12036)[12160,12164)[12224,16384)[28672,28676)[28704,28708)[28720,28724)[28728,32768):stores:
  18:8:335:loads:[0,8):stores:
  19:8:336:loads:[0,8):stores:
  20:8:337:loads:[0,8):stores:
  21:8:338:loads:[0,8):stores:
  22:8:339:loads:[0,8):stores:
  23:8:340:loads:[0,8):stores:
  section:12:0:24:24:315773428:315856591
    16:131072:16:loads::stores:[24576,32768)
    17:131072:17:loads:[10240,10244)[11264,11268)[11776,11780)[12032,12036)[12160,12164)[12224,16384)[28672,28676)[28704,28708)[28720,28724)[28728,32768):stores:
    18:8:335:loads:[0,8):stores:
    19:8:336:loads:[0,8):stores:
    20:8:337:loads:[0,8):stores:
    21:8:338:loads:[0,8):stores:
    22:8:339:loads:[0,8):stores:
    23:8:340:loads:[0,8):stores:
 TASK:13:basicsort:26:26:315856748:394618544
  16:131072:16:loads:[32768,40960):stores:[32768,40960)
  18:8:379:loads:[0,8):stores:
  14:8:380:loads:[0,8):stores:
  section:13:0:26:26:315856748:394618544
    16:131072:16:loads:[32768,40960):stores:[32768,40960)
    18:8:379:loads:[0,8):stores:
    14:8:380:loads:[0,8):stores:
 TASK:14:basicsort:28:28:394618559:473528630
  16:131072:16:loads:[40960,49152):stores:[40960,49152)
  18:8:389:loads:[0,8):stores:
  14:8:390:loads:[0,8):stores:
  section:14:0:28:28:394618559:473528630
    16:131072:16:loads:[40960,49152):stores:[40960,49152)
    18:8:389:loads:[0,8):stores:
    14:8:390:loads:[0,8):stores:
 TASK:15:basicsort:30:30:473528645:551487591
  16:131072:16:loads:[49152,57344):stores:[49152,57344)
  18:8:399:loads:[0,8):stores:
  14:8:400:loads:[0,8):stores:
  section:15:0:30:30:473528645:551487591
    16:131072:16:loads:[49152,57344):stores:[49152,57344)
    18:8:399:loads:[0,8):stores:
    14:8:400:loads:[0,8):stores:
 TASK:16:basicsort:32:32:551487606:629736352
  16:131072:16:loads:[57344,65536):stores:[57344,65536)
  18:8:409:loads:[0,8):stores:
  14:8:410:loads:[0,8):stores:
  section:16:0:32:32:551487606:629736352
    16:131072:16:loads:[57344,65536):stores:[57344,65536)
    18:8:409:loads:[0,8):stores:
    14:8:410:loads:[0,8):stores:
 TASK:17:basicmerge:34:34:629736396:629818377
  16:131072:16:loads:[32768,36776)[40960,45148):stores:
  17:131072:17:loads::stores:[32768,40960)
  18:8:425:loads:[0,8):stores:
  19:8:426:loads:[0,8):stores:
  20:8:427:loads:[0,8):stores:
  21:8:428:loads:[0,8):stores:
  22:8:429:loads:[0,8):stores:
  23:8:430:loads:[0,8):stores:
  section:17:0:34:34:629736396:629818377
    16:131072:16:loads:[32768,36776)[40960,45148):stores:
    17:131072:17:loads::stores:[32768,40960)
    18:8:425:loads:[0,8):stores:
    19:8:426:loads:[0,8):stores:
    20:8:427:loads:[0,8):stores:
    21:8:428:loads:[0,8):stores:
    22:8:429:loads:[0,8):stores:
    23:8:430:loads:[0,8):stores:
 TASK:18:basicmerge:36:36:629818400:629901570
  16:131072:16:loads:[34816,34820)[35840,35844)[36352,36356)[36608,36612)[36736,36740)[36768,36772)[36776,40960)[45056,45060)[45120,45124)[45136,49152):stores:
  17:131072:17:loads::stores:[40960,49152)
  18:8:446:loads:[0,8):stores:
  19:8:447:loads:[0,8):stores:
  20:8:448:loads:[0,8):stores:
  21:8:449:loads:[0,8):stores:
  22:8:450:loads:[0,8):stores:
  23:8:451:loads:[0,8):stores:
  section:18:0:36:36:629818400:629901570
    16:131072:16:loads:[34816,34820)[35840,35844)[36352,36356)[36608,36612)[36736,36740)[36768,36772)[36776,40960)[45056,45060)[45120,45124)[45136,49152):stores:
    17:131072:17:loads::stores:[40960,49152)
    18:8:446:loads:[0,8):stores:
    19:8:447:loads:[0,8):stores:
    20:8:448:loads:[0,8):stores:
    21:8:449:loads:[0,8):stores:
    22:8:450:loads:[0,8):stores:
    23:8:451:loads:[0,8):stores:
 TASK:19:basicmerge:38:38:629901635:629983616
  16:131072:16:loads:[49152,53056)[57344,61636):stores:
  17:131072:17:loads::stores:[49152,57344)
  18:8:493:loads:[0,8):stores:
  19:8:494:loads:[0,8):stores:
  20:8:495:loads:[0,8):stores:
  21:8:496:loads:[0,8):stores:
  22:8:497:loads:[0,8):stores:
  23:8:498:loads:[0,8):stores:
  section:19:0:38:38:629901635:629983616
    16:131072:16:loads:[49152,53056)[57344,61636):stores:
    17:131072:17:loads::stores:[49152,57344)
    18:8:493:loads:[0,8):stores:
    19:8:494:loads:[0,8):stores:
    20:8:495:loads:[0,8):stores:
    21:8:496:loads:[0,8):stores:
    22:8:497:loads:[0,8):stores:
    23:8:498:loads:[0,8):stores:
 TASK:20:basicmerge:40:40:629983639:630066415
  16:131072:16:loads:[51200,51204)[52224,52228)[52736,52740)[52992,52996)[53052,57344)[61440,61444)[61568,61572)[61632,65536):stores:
  17:131072:17:loads::stores:[57344,65536)
  18:8:514:loads:[0,8):stores:
  19:8:515:loads:[0,8):stores:
  20:8:516:loads:[0,8):stores:
  21:8:517:loads:[0,8):stores:
  22:8:518:loads:[0,8):stores:
  23:8:519:loads:[0,8):stores:
  section:20:0:40:40:629983639:630066415
    16:131072:16:loads:[51200,51204)[52224,52228)[52736,52740)[52992,52996)[53052,57344)[61440,61444)[61568,61572)[61632,65536):stores:
    17:131072:17:loads::stores:[57344,65536)
    18:8:514:loads:[0,8):stores:
    19:8:515:loads:[0,8):stores:
    20:8:516:loads:[0,8):stores:
    21:8:517:loads:[0,8):stores:
    22:8:518:loads:[0,8):stores:
    23:8:519:loads:[0,8):stores:
 TASK:21:basicmerge:42:42:630066501:630148482
  16:131072:16:loads::stores:[32768,40960)
  17:131072:17:loads:[32768,36812)[49152,53304):stores:
  18:8:561:loads:[0,8):stores:
  19:8:562:loads:[0,8):stores:
  20:8:563:loads:[0,8):stores:
  21:8:564:loads:[0,8):stores:
  22:8:565:loads:[0,8):stores:
  23:8:566:loads:[0,8):stores:
  section:21:0:42:42:630066501:630148482
    16:131072:16:loads::stores:[32768,40960)
    17:131072:17:loads:[32768,36812)[49152,53304):stores:
    18:8:561:loads:[0,8):stores:
    19:8:562:loads:[0,8):stores:
    20:8:563:loads:[0,8):stores:
    21:8:564:loads:[0,8):stores:
    22:8:565:loads:[0,8):stores:
    23:8:566:loads:[0,8):stores:
 TASK:22:basicmerge:44:44:630148505:630231827
  16:131072:16:loads::stores:[40960,49152)
  17:131072:17:loads:[34816,34820)[35840,35844)[36352,36356)[36608,36612)[36736,36740)[36800,36804)[36808,40932)[53248,53252)[53280,53284)[53296,57376):stores:
  18:8:582:loads:[0,8):stores:
  19:8:583:loads:[0,8):stores:
  20:8:584:loads:[0,8):stores:
  21:8:585:loads:[0,8):stores:
  22:8:586:loads:[0,8):stores:
  23:8:587:loads:[0,8):stores:
  section:22:0:44:44:630148505:630231827
    16:131072:16:loads::stores:[40960,49152)
    17:131072:17:loads:[34816,34820)[35840,35844)[36352,36356)[36608,36612)[36736,36740)[36800,36804)[36808,40932)[53248,53252)[53280,53284)[53296,57376):stores:
    18:8:582:loads:[0,8):stores:
    19:8:583:loads:[0,8):stores:
    20:8:584:loads:[0,8):stores:
    21:8:585:loads:[0,8):stores:
    22:8:586:loads:[0,8):stores:
    23:8:587:loads:[0,8):stores:
 TASK:23:basicmerge:46:46:630231892:630315328
  16:131072:16:loads::stores:[49152,57344)
  17:131072:17:loads:[36864,36868)[38912,38916)[39936,39940)[40448,40452)[40704,40708)[40832,40836)[40896,40900)[40928,44984)[57344,57348)[57360,57364)[57368,61516):stores:
  18:8:631:loads:[0,8):stores:
  19:8:632:loads:[0,8):stores:
  20:8:633:loads:[0,8):stores:
  21:8:634:loads:[0,8):stores:
  22:8:635:loads:[0,8):stores:
  23:8:636:loads:[0,8):stores:
  section:23:0:46:46:630231892:630315328
    16:131072:16:loads::stores:[49152,57344)
    17:131072:17:loads:[36864,36868)[38912,38916)[39936,39940)[40448,40452)[40704,40708)[40832,40836)[40896,40900)[40928,44984)[57344,57348)[57360,57364)[57368,61516):stores:
    18:8:631:loads:[0,8):stores:
    19:8:632:loads:[0,8):stores:
    20:8:633:loads:[0,8):stores:
    21:8:634:loads:[0,8):stores:
    22:8:635:loads:[0,8):stores:
    23:8:636:loads:[0,8):stores:
 TASK:24:basicmerge:48:48:630315351:630398657
  16:131072:16:loads::stores:[57344,65536)
  17:131072:17:loads:[43008,43012)[44032,44036)[44544,44548)[44800,44804)[44928,44932)[44960,44964)[44976,49152)[61440,61444)[61504,61508)[61512,65536):stores:
  18:8:676:loads:[0,8):stores:
  19:8:677:loads:[0,8):stores:
  20:8:678:loads:[0,8):stores:
  21:8:679:loads:[0,8):stores:
  22:8:680:loads:[0,8):stores:
  23:8:681:loads:[0,8):stores:
  section:24:0:48:48:630315351:630398657
    16:131072:16:loads::stores:[57344,65536)
    17:131072:17:loads:[43008,43012)[44032,44036)[44544,44548)[44800,44804)[44928,44932)[44960,44964)[44976,49152)[61440,61444)[61504,61508)[61512,65536):stores:
    18:8:676:loads:[0,8):stores:
    19:8:677:loads:[0,8):stores:
    20:8:678:loads:[0,8):stores:
    21:8:679:loads:[0,8):stores:
    22:8:680:loads:[0,8):stores:
    23:8:681:loads:[0,8):stores:
 TASK:25:basicsort:50:50:630398814:708945435
  16:131072:16:loads:[65536,73728):stores:[65540,73728)
  18:8:722:loads:[0,8):stores:
  14:8:723:loads:[0,8):stores:
  section:25:0:50:50:630398814:708945435
    16:131072:16:loads:[65536,73728):stores:[65540,73728)
    18:8:722:loads:[0,8):stores:
    14:8:723:loads:[0,8):stores:
 TASK:26:basicsort:52:52:708945450:787105471
  16:131072:16:loads:[73728,81920):stores:[73728,81920)
  18:8:732:loads:[0,8):stores:
  14:8:733:loads:[0,8):stores:
  section:26:0:52:52:708945450:787105471
    16:131072:16:loads:[73728,81920):stores:[73728,81920)
    18:8:732:loads:[0,8):stores:
    14:8:733:loads:[0,8):stores:
 TASK:27:basicsort:54:54:787105486:866146057
  16:131072:16:loads:[81920,90112):stores:[81920,90112)
  18:8:742:loads:[0,8):stores:
  14:8:743:loads:[0,8):stores:
  section:27:0:54:54:787105486:866146057
    16:131072:16:loads:[81920,90112):stores:[81920,90112)
    18:8:742:loads:[0,8):stores:
    14:8:743:loads:[0,8):stores:
 TASK:28:basicsort:56:56:866146072:945720043
  16:131072:16:loads:[90112,98304):stores:[90112,98304)
  18:8:752:loads:[0,8):stores:
  14:8:753:loads:[0,8):stores:
  section:28:0:56:56:866146072:945720043
    16:131072:16:loads:[90112,98304):stores:[90112,98304)
    18:8:752:loads:[0,8):stores:
    14:8:753:loads:[0,8):stores:
 TASK:29:basicmerge:58:58:945720087:945802068
  16:131072:16:loads:[65536,69716)[73728,77744):stores:
  17:131072:17:loads::stores:[65536,73728)
  18:8:768:loads:[0,8):stores:
  19:8:769:loads:[0,8):stores:
  20:8:770:loads:[0,8):stores:
  21:8:771:loads:[0,8):stores:
  22:8:772:loads:[0,8):stores:
  23:8:773:loads:[0,8):stores:
  section:29:0:58:58:945720087:945802068
    16:131072:16:loads:[65536,69716)[73728,77744):stores:
    17:131072:17:loads::stores:[65536,73728)
    18:8:768:loads:[0,8):stores:
    19:8:769:loads:[0,8):stores:
    20:8:770:loads:[0,8):stores:
    21:8:771:loads:[0,8):stores:
    22:8:772:loads:[0,8):stores:
    23:8:773:loads:[0,8):stores:
 TASK:30:basicmerge:60:60:945802091:945885142
  16:131072:16:loads:[69632,69636)[69696,69700)[69712,73728)[75776,75780)[76800,76804)[77312,77316)[77568,77572)[77696,77700)[77728,77732)[77740,81920):stores:
  17:131072:17:loads::stores:[73728,81920)
  18:8:789:loads:[0,8):stores:
  19:8:790:loads:[0,8):stores:
  20:8:791:loads:[0,8):stores:
  21:8:792:loads:[0,8):stores:
  22:8:793:loads:[0,8):stores:
  23:8:794:loads:[0,8):stores:
  section:30:0:60:60:945802091:945885142
    16:131072:16:loads:[69632,69636)[69696,69700)[69712,73728)[75776,75780)[76800,76804)[77312,77316)[77568,77572)[77696,77700)[77728,77732)[77740,81920):stores:
    17:131072:17:loads::stores:[73728,81920)
    18:8:789:loads:[0,8):stores:
    19:8:790:loads:[0,8):stores:
    20:8:791:loads:[0,8):stores:
    21:8:792:loads:[0,8):stores:
    22:8:793:loads:[0,8):stores:
    23:8:794:loads:[0,8):stores:
 TASK:31:basicmerge:62:62:945885207:945967188
  16:131072:16:loads:[81920,86068)[90112,94160):stores:
  17:131072:17:loads::stores:[81920,90112)
  18:8:834:loads:[0,8):stores:
  19:8:835:loads:[0,8):stores:
  20:8:836:loads:[0,8):stores:
  21:8:837:loads:[0,8):stores:
  22:8:838:loads:[0,8):stores:
  23:8:839:loads:[0,8):stores:
  section:31:0:62:62:945885207:945967188
    16:131072:16:loads:[81920,86068)[90112,94160):stores:
    17:131072:17:loads::stores:[81920,90112)
    18:8:834:loads:[0,8):stores:
    19:8:835:loads:[0,8):stores:
    20:8:836:loads:[0,8):stores:
    21:8:837:loads:[0,8):stores:
    22:8:838:loads:[0,8):stores:
    23:8:839:loads:[0,8):stores:
 TASK:32:basicmerge:64:64:945967211:946050229
  16:131072:16:loads:[86016,86020)[86048,86052)[86064,90112)[92160,92164)[93184,93188)[93696,93700)[93952,93956)[94080,94084)[94144,94148)[94156,98304):stores:
  17:131072:17:loads::stores:[90112,98304)
  18:8:855:loads:[0,8):stores:
  19:8:856:loads:[0,8):stores:
  20:8:857:loads:[0,8):stores:
  21:8:858:loads:[0,8):stores:
  22:8:859:loads:[0,8):stores:
  23:8:860:loads:[0,8):stores:
  section:32:0:64:64:945967211:946050229
    16:131072:16:loads:[86016,86020)[86048,86052)[86064,90112)[92160,92164)[93184,93188)[93696,93700)[93952,93956)[94080,94084)[94144,94148)[94156,98304):stores:
    17:131072:17:loads::stores:[90112,98304)
    18:8:855:loads:[0,8):stores:
    19:8:856:loads:[0,8):stores:
    20:8:857:loads:[0,8):stores:
    21:8:858:loads:[0,8):stores:
    22:8:859:loads:[0,8):stores:
    23:8:860:loads:[0,8):stores:
 TASK:33:basicmerge:66:66:946050315:946132296
  16:131072:16:loads::stores:[65536,73728)
  17:131072:17:loads:[65536,69636)[81920,86016):stores:
  18:8:906:loads:[0,8):stores:
  19:8:907:loads:[0,8):stores:
  20:8:908:loads:[0,8):stores:
  21:8:909:loads:[0,8):stores:
  22:8:910:loads:[0,8):stores:
  23:8:911:loads:[0,8):stores:
  section:33:0:66:66:946050315:946132296
    16:131072:16:loads::stores:[65536,73728)
    17:131072:17:loads:[65536,69636)[81920,86016):stores:
    18:8:906:loads:[0,8):stores:
    19:8:907:loads:[0,8):stores:
    20:8:908:loads:[0,8):stores:
    21:8:909:loads:[0,8):stores:
    22:8:910:loads:[0,8):stores:
    23:8:911:loads:[0,8):stores:
 TASK:34:basicmerge:68:68:946132319:946215631
  16:131072:16:loads::stores:[73728,81920)
  17:131072:17:loads:[69632,73888)[83968,83972)[84992,84996)[85504,85508)[85760,85764)[85888,85892)[85952,85956)[85984,85988)[86000,86004)[86008,89956):stores:
  18:8:927:loads:[0,8):stores:
  19:8:928:loads:[0,8):stores:
  20:8:929:loads:[0,8):stores:
  21:8:930:loads:[0,8):stores:
  22:8:931:loads:[0,8):stores:
  23:8:932:loads:[0,8):stores:
  section:34:0:68:68:946132319:946215631
    16:131072:16:loads::stores:[73728,81920)
    17:131072:17:loads:[69632,73888)[83968,83972)[84992,84996)[85504,85508)[85760,85764)[85888,85892)[85952,85956)[85984,85988)[86000,86004)[86008,89956):stores:
    18:8:927:loads:[0,8):stores:
    19:8:928:loads:[0,8):stores:
    20:8:929:loads:[0,8):stores:
    21:8:930:loads:[0,8):stores:
    22:8:931:loads:[0,8):stores:
    23:8:932:loads:[0,8):stores:
 TASK:35:basicmerge:70:70:946215696:946299132
  16:131072:16:loads::stores:[81920,90112)
  17:131072:17:loads:[73728,73732)[73856,73860)[73872,73876)[73880,77876)[86016,86020)[88064,88068)[89088,89092)[89600,89604)[89856,89860)[89920,89924)[89952,94160):stores:
  18:8:976:loads:[0,8):stores:
  19:8:977:loads:[0,8):stores:
  20:8:978:loads:[0,8):stores:
  21:8:979:loads:[0,8):stores:
  22:8:980:loads:[0,8):stores:
  23:8:981:loads:[0,8):stores:
  section:35:0:70:70:946215696:946299132
    16:131072:16:loads::stores:[81920,90112)
    17:131072:17:loads:[73728,73732)[73856,73860)[73872,73876)[73880,77876)[86016,86020)[88064,88068)[89088,89092)[89600,89604)[89856,89860)[89920,89924)[89952,94160):stores:
    18:8:976:loads:[0,8):stores:
    19:8:977:loads:[0,8):stores:
    20:8:978:loads:[0,8):stores:
    21:8:979:loads:[0,8):stores:
    22:8:980:loads:[0,8):stores:
    23:8:981:loads:[0,8):stores:
 TASK:36:basicmerge:72:72:946299155:946382445
  16:131072:16:loads::stores:[90112,98304)
  17:131072:17:loads:[77824,77828)[77856,77860)[77872,81920)[92160,92164)[93184,93188)[93696,93700)[93952,93956)[94080,94084)[94144,94148)[94152,98304):stores:
  18:8:1021:loads:[0,8):stores:
  19:8:1022:loads:[0,8):stores:
  20:8:1023:loads:[0,8):stores:
  21:8:1024:loads:[0,8):stores:
  22:8:1025:loads:[0,8):stores:
  23:8:1026:loads:[0,8):stores:
  section:36:0:72:72:946299155:946382445
    16:131072:16:loads::stores:[90112,98304)
    17:131072:17:loads:[77824,77828)[77856,77860)[77872,81920)[92160,92164)[93184,93188)[93696,93700)[93952,93956)[94080,94084)[94144,94148)[94152,98304):stores:
    18:8:1021:loads:[0,8):stores:
    19:8:1022:loads:[0,8):stores:
    20:8:1023:loads:[0,8):stores:
    21:8:1024:loads:[0,8):stores:
    22:8:1025:loads:[0,8):stores:
    23:8:1026:loads:[0,8):stores:
 TASK:37:basicsort:74:74:946382602:1024634098
  16:131072:16:loads:[98304,106496):stores:[98304,106496)
  18:8:1067:loads:[0,8):stores:
  14:8:1068:loads:[0,8):stores:
  section:37:0:74:74:946382602:1024634098
    16:131072:16:loads:[98304,106496):stores:[98304,106496)
    18:8:1067:loads:[0,8):stores:
    14:8:1068:loads:[0,8):stores:
 TASK:38:basicsort:76:76:1024634113:1103526409
  16:131072:16:loads:[106496,114688):stores:[106496,114688)
  18:8:1077:loads:[0,8):stores:
  14:8:1078:loads:[0,8):stores:
  section:38:0:76:76:1024634113:1103526409
    16:131072:16:loads:[106496,114688):stores:[106496,114688)
    18:8:1077:loads:[0,8):stores:
    14:8:1078:loads:[0,8):stores:
 TASK:39:basicsort:78:78:1103526424:1181853720
  16:131072:16:loads:[114688,122880):stores:[114688,122880)
  18:8:1087:loads:[0,8):stores:
  14:8:1088:loads:[0,8):stores:
  section:39:0:78:78:1103526424:1181853720
    16:131072:16:loads:[114688,122880):stores:[114688,122880)
    18:8:1087:loads:[0,8):stores:
    14:8:1088:loads:[0,8):stores:
 TASK:40:basicsort:80:80:1181853735:1259938456
  16:131072:16:loads:[122880,131072):stores:[122880,131072)
  18:8:1097:loads:[0,8):stores:
  14:8:1098:loads:[0,8):stores:
  section:40:0:80:80:1181853735:1259938456
    16:131072:16:loads:[122880,131072):stores:[122880,131072)
    18:8:1097:loads:[0,8):stores:
    14:8:1098:loads:[0,8):stores:
 TASK:41:basicmerge:82:82:1259938500:1260020481
  16:131072:16:loads:[98304,102392)[106496,110604):stores:
  17:131072:17:loads::stores:[98304,106496)
  18:8:1113:loads:[0,8):stores:
  19:8:1114:loads:[0,8):stores:
  20:8:1115:loads:[0,8):stores:
  21:8:1116:loads:[0,8):stores:
  22:8:1117:loads:[0,8):stores:
  23:8:1118:loads:[0,8):stores:
  section:41:0:82:82:1259938500:1260020481
    16:131072:16:loads:[98304,102392)[106496,110604):stores:
    17:131072:17:loads::stores:[98304,106496)
    18:8:1113:loads:[0,8):stores:
    19:8:1114:loads:[0,8):stores:
    20:8:1115:loads:[0,8):stores:
    21:8:1116:loads:[0,8):stores:
    22:8:1117:loads:[0,8):stores:
    23:8:1118:loads:[0,8):stores:
 TASK:42:basicmerge:84:84:1260020504:1260103784
  16:131072:16:loads:[100352,100356)[101376,101380)[101888,101892)[102144,102148)[102272,102276)[102336,102340)[102368,102372)[102384,106496)[110592,110596)[110600,114688):stores:
  17:131072:17:loads::stores:[106496,114688)
  18:8:1134:loads:[0,8):stores:
  19:8:1135:loads:[0,8):stores:
  20:8:1136:loads:[0,8):stores:
  21:8:1137:loads:[0,8):stores:
  22:8:1138:loads:[0,8):stores:
  23:8:1139:loads:[0,8):stores:
  section:42:0:84:84:1260020504:1260103784
    16:131072:16:loads:[100352,100356)[101376,101380)[101888,101892)[102144,102148)[102272,102276)[102336,102340)[102368,102372)[102384,106496)[110592,110596)[110600,114688):stores:
    17:131072:17:loads::stores:[106496,114688)
    18:8:1134:loads:[0,8):stores:
    19:8:1135:loads:[0,8):stores:
    20:8:1136:loads:[0,8):stores:
    21:8:1137:loads:[0,8):stores:
    22:8:1138:loads:[0,8):stores:
    23:8:1139:loads:[0,8):stores:
 TASK:43:basicmerge:86:86:1260103849:1260185830
  16:131072:16:loads:[114688,118876)[122880,126888):stores:
  17:131072:17:loads::stores:[114688,122880)
  18:8:1183:loads:[0,8):stores:
  19:8:1184:loads:[0,8):stores:
  20:8:1185:loads:[0,8):stores:
  21:8:1186:loads:[0,8):stores:
  22:8:1187:loads:[0,8):stores:
  23:8:1188:loads:[0,8):stores:
  section:43:0:86:86:1260103849:1260185830
    16:131072:16:loads:[114688,118876)[122880,126888):stores:
    17:131072:17:loads::stores:[114688,122880)
    18:8:1183:loads:[0,8):stores:
    19:8:1184:loads:[0,8):stores:
    20:8:1185:loads:[0,8):stores:
    21:8:1186:loads:[0,8):stores:
    22:8:1187:loads:[0,8):stores:
    23:8:1188:loads:[0,8):stores:
 TASK:44:basicmerge:88:88:1260185853:1260269028
  16:131072:16:loads:[118784,118788)[118848,118852)[118864,118868)[118872,122880)[124928,124932)[125952,125956)[126464,126468)[126720,126724)[126848,126852)[126880,131072):stores:
  17:131072:17:loads::stores:[122880,131072)
  18:8:1204:loads:[0,8):stores:
  19:8:1205:loads:[0,8):stores:
  20:8:1206:loads:[0,8):stores:
  21:8:1207:loads:[0,8):stores:
  22:8:1208:loads:[0,8):stores:
  23:8:1209:loads:[0,8):stores:
  section:44:0:88:88:1260185853:1260269028
    16:131072:16:loads:[118784,118788)[118848,118852)[118864,118868)[118872,122880)[124928,124932)[125952,125956)[126464,126468)[126720,126724)[126848,126852)[126880,131072):stores:
    17:131072:17:loads::stores:[122880,131072)
    18:8:1204:loads:[0,8):stores:
    19:8:1205:loads:[0,8):stores:
    20:8:1206:loads:[0,8):stores:
    21:8:1207:loads:[0,8):stores:
    22:8:1208:loads:[0,8):stores:
    23:8:1209:loads:[0,8):stores:
 TASK:45:basicmerge:90:90:1260269114:1260351095
  16:131072:16:loads::stores:[98304,106496)
  17:131072:17:loads:[98304,102264)[114688,118924):stores:
  18:8:1257:loads:[0,8):stores:
  19:8:1258:loads:[0,8):stores:
  20:8:1259:loads:[0,8):stores:
  21:8:1260:loads:[0,8):stores:
  22:8:1261:loads:[0,8):stores:
  23:8:1262:loads:[0,8):stores:
  section:45:0:90:90:1260269114:1260351095
    16:131072:16:loads::stores:[98304,106496)
    17:131072:17:loads:[98304,102264)[114688,118924):stores:
    18:8:1257:loads:[0,8):stores:
    19:8:1258:loads:[0,8):stores:
    20:8:1259:loads:[0,8):stores:
    21:8:1260:loads:[0,8):stores:
    22:8:1261:loads:[0,8):stores:
    23:8:1262:loads:[0,8):stores:
 TASK:46:basicmerge:92:92:1260351118:1260434304
  16:131072:16:loads::stores:[106496,114688)
  17:131072:17:loads:[100352,100356)[101376,101380)[101888,101892)[102144,102148)[102208,102212)[102240,102244)[102256,102260)[102264,106316)[118784,118788)[118912,123064):stores:
  18:8:1278:loads:[0,8):stores:
  19:8:1279:loads:[0,8):stores:
  20:8:1280:loads:[0,8):stores:
  21:8:1281:loads:[0,8):stores:
  22:8:1282:loads:[0,8):stores:
  23:8:1283:loads:[0,8):stores:
  section:46:0:92:92:1260351118:1260434304
    16:131072:16:loads::stores:[106496,114688)
    17:131072:17:loads:[100352,100356)[101376,101380)[101888,101892)[102144,102148)[102208,102212)[102240,102244)[102256,102260)[102264,106316)[118784,118788)[118912,123064):stores:
    18:8:1278:loads:[0,8):stores:
    19:8:1279:loads:[0,8):stores:
    20:8:1280:loads:[0,8):stores:
    21:8:1281:loads:[0,8):stores:
    22:8:1282:loads:[0,8):stores:
    23:8:1283:loads:[0,8):stores:
 TASK:47:basicmerge:94:94:1260434369:1260517679
  16:131072:16:loads::stores:[114688,122880)
  17:131072:17:loads:[102400,102404)[104448,104452)[105472,105476)[105984,105988)[106240,106244)[106304,106308)[106312,110476)[122880,122884)[123008,123012)[123040,123044)[123056,127096):stores:
  18:8:1325:loads:[0,8):stores:
  19:8:1326:loads:[0,8):stores:
  20:8:1327:loads:[0,8):stores:
  21:8:1328:loads:[0,8):stores:
  22:8:1329:loads:[0,8):stores:
  23:8:1330:loads:[0,8):stores:
  section:47:0:94:94:1260434369:1260517679
    16:131072:16:loads::stores:[114688,122880)
    17:131072:17:loads:[102400,102404)[104448,104452)[105472,105476)[105984,105988)[106240,106244)[106304,106308)[106312,110476)[122880,122884)[123008,123012)[123040,123044)[123056,127096):stores:
    18:8:1325:loads:[0,8):stores:
    19:8:1326:loads:[0,8):stores:
    20:8:1327:loads:[0,8):stores:
    21:8:1328:loads:[0,8):stores:
    22:8:1329:loads:[0,8):stores:
    23:8:1330:loads:[0,8):stores:
 TASK:48:basicmerge:96:96:1260517702:1260601003
  16:131072:16:loads::stores:[122880,131072)
  17:131072:17:loads:[108544,108548)[109568,109572)[110080,110084)[110336,110340)[110464,110468)[110472,114688)[126976,126980)[127040,127044)[127072,127076)[127088,131072):stores:
  18:8:1368:loads:[0,8):stores:
  19:8:1369:loads:[0,8):stores:
  20:8:1370:loads:[0,8):stores:
  21:8:1371:loads:[0,8):stores:
  22:8:1372:loads:[0,8):stores:
  23:8:1373:loads:[0,8):stores:
  section:48:0:96:96:1260517702:1260601003
    16:131072:16:loads::stores:[122880,131072)
    17:131072:17:loads:[108544,108548)[109568,109572)[110080,110084)[110336,110340)[110464,110468)[110472,114688)[126976,126980)[127040,127044)[127072,127076)[127088,131072):stores:
    18:8:1368:loads:[0,8):stores:
    19:8:1369:loads:[0,8):stores:
    20:8:1370:loads:[0,8):stores:
    21:8:1371:loads:[0,8):stores:
    22:8:1372:loads:[0,8):stores:
    23:8:1373:loads:[0,8):stores:
 TASK:49:basicmerge:98:98:1260601218:1260683199
  16:131072:16:loads:[0,4128)[32768,36836):stores:
  17:131072:17:loads::stores:[0,8192)
  18:8:1429:loads:[0,8):stores:
  19:8:1430:loads:[0,8):stores:
  20:8:1431:loads:[0,8):stores:
  21:8:1432:loads:[0,8):stores:
  22:8:1433:loads:[0,8):stores:
  23:8:1434:loads:[0,8):stores:
  section:49:0:98:98:1260601218:1260683199
    16:131072:16:loads:[0,4128)[32768,36836):stores:
    17:131072:17:loads::stores:[0,8192)
    18:8:1429:loads:[0,8):stores:
    19:8:1430:loads:[0,8):stores:
    20:8:1431:loads:[0,8):stores:
    21:8:1432:loads:[0,8):stores:
    22:8:1433:loads:[0,8):stores:
    23:8:1434:loads:[0,8):stores:
 TASK:50:basicmerge:100:100:1260683222:1260766160
  16:131072:16:loads:[4096,4100)[4128,8208)[34816,34820)[35840,35844)[36352,36356)[36608,36612)[36736,36740)[36800,36804)[36828,40948):stores:
  17:131072:17:loads::stores:[8192,16384)
  18:8:1450:loads:[0,8):stores:
  19:8:1451:loads:[0,8):stores:
  20:8:1452:loads:[0,8):stores:
  21:8:1453:loads:[0,8):stores:
  22:8:1454:loads:[0,8):stores:
  23:8:1455:loads:[0,8):stores:
  section:50:0:100:100:1260683222:1260766160
    16:131072:16:loads:[4096,4100)[4128,8208)[34816,34820)[35840,35844)[36352,36356)[36608,36612)[36736,36740)[36800,36804)[36828,40948):stores:
    17:131072:17:loads::stores:[8192,16384)
    18:8:1450:loads:[0,8):stores:
    19:8:1451:loads:[0,8):stores:
    20:8:1452:loads:[0,8):stores:
    21:8:1453:loads:[0,8):stores:
    22:8:1454:loads:[0,8):stores:
    23:8:1455:loads:[0,8):stores:
 TASK:51:basicmerge:102:102:1260766225:1260849671
  16:131072:16:loads:[8192,8196)[8200,12360)[36864,36868)[38912,38916)[39936,39940)[40448,40452)[40704,40708)[40832,40836)[40896,40900)[40928,40932)[40944,44988):stores:
  17:131072:17:loads::stores:[16384,24576)
  18:8:1493:loads:[0,8):stores:
  19:8:1494:loads:[0,8):stores:
  20:8:1495:loads:[0,8):stores:
  21:8:1496:loads:[0,8):stores:
  22:8:1497:loads:[0,8):stores:
  23:8:1498:loads:[0,8):stores:
  section:51:0:102:102:1260766225:1260849671
    16:131072:16:loads:[8192,8196)[8200,12360)[36864,36868)[38912,38916)[39936,39940)[40448,40452)[40704,40708)[40832,40836)[40896,40900)[40928,40932)[40944,44988):stores:
    17:131072:17:loads::stores:[16384,24576)
    18:8:1493:loads:[0,8):stores:
    19:8:1494:loads:[0,8):stores:
    20:8:1495:loads:[0,8):stores:
    21:8:1496:loads:[0,8):stores:
    22:8:1497:loads:[0,8):stores:
    23:8:1498:loads:[0,8):stores:
 TASK:52:basicmerge:104:104:1260849694:1260932880
  16:131072:16:loads:[12288,12292)[12336,12340)[12360,16592)[18428,18436)[38912,38916)[41984,41988)[43520,43524)[44288,44292)[44672,44676)[44864,44868)[44960,44964)[44980,48948):stores:
  17:131072:17:loads::stores:[24576,32768)
  18:8:1538:loads:[0,8):stores:
  19:8:1539:loads:[0,8):stores:
  20:8:1540:loads:[0,8):stores:
  21:8:1541:loads:[0,8):stores:
  22:8:1542:loads:[0,8):stores:
  23:8:1543:loads:[0,8):stores:
  section:52:0:104:104:1260849694:1260932880
    16:131072:16:loads:[12288,12292)[12336,12340)[12360,16592)[18428,18436)[38912,38916)[41984,41988)[43520,43524)[44288,44292)[44672,44676)[44864,44868)[44960,44964)[44980,48948):stores:
    17:131072:17:loads::stores:[24576,32768)
    18:8:1538:loads:[0,8):stores:
    19:8:1539:loads:[0,8):stores:
    20:8:1540:loads:[0,8):stores:
    21:8:1541:loads:[0,8):stores:
    22:8:1542:loads:[0,8):stores:
    23:8:1543:loads:[0,8):stores:
 TASK:53:basicmerge:106:106:1260932987:1261016297
  16:131072:16:loads:[16384,16388)[16512,16516)[16576,16580)[16592,20636)[24572,24580)[40960,40964)[45056,45060)[47104,47108)[48128,48132)[48640,48644)[48896,48900)[48928,48932)[48940,53096):stores:
  17:131072:17:loads::stores:[32768,40960)
  18:8:1591:loads:[0,8):stores:
  19:8:1592:loads:[0,8):stores:
  20:8:1593:loads:[0,8):stores:
  21:8:1594:loads:[0,8):stores:
  22:8:1595:loads:[0,8):stores:
  23:8:1596:loads:[0,8):stores:
  section:53:0:106:106:1260932987:1261016297
    16:131072:16:loads:[16384,16388)[16512,16516)[16576,16580)[16592,20636)[24572,24580)[40960,40964)[45056,45060)[47104,47108)[48128,48132)[48640,48644)[48896,48900)[48928,48932)[48940,53096):stores:
    17:131072:17:loads::stores:[32768,40960)
    18:8:1591:loads:[0,8):stores:
    19:8:1592:loads:[0,8):stores:
    20:8:1593:loads:[0,8):stores:
    21:8:1594:loads:[0,8):stores:
    22:8:1595:loads:[0,8):stores:
    23:8:1596:loads:[0,8):stores:
 TASK:54:basicmerge:108:108:1261016320:1261099640
  16:131072:16:loads:[20480,20484)[20576,20580)[20624,20628)[20632,24732)[26620,26628)[47104,47108)[50176,50180)[51712,51716)[52480,52484)[52864,52868)[53056,53060)[53080,53084)[53092,57192):stores:
  17:131072:17:loads::stores:[40960,49152)
  18:8:1634:loads:[0,8):stores:
  19:8:1635:loads:[0,8):stores:
  20:8:1636:loads:[0,8):stores:
  21:8:1637:loads:[0,8):stores:
  22:8:1638:loads:[0,8):stores:
  23:8:1639:loads:[0,8):stores:
  section:54:0:108:108:1261016320:1261099640
    16:131072:16:loads:[20480,20484)[20576,20580)[20624,20628)[20632,24732)[26620,26628)[47104,47108)[50176,50180)[51712,51716)[52480,52484)[52864,52868)[53056,53060)[53080,53084)[53092,57192):stores:
    17:131072:17:loads::stores:[40960,49152)
    18:8:1634:loads:[0,8):stores:
    19:8:1635:loads:[0,8):stores:
    20:8:1636:loads:[0,8):stores:
    21:8:1637:loads:[0,8):stores:
    22:8:1638:loads:[0,8):stores:
    23:8:1639:loads:[0,8):stores:
 TASK:55:basicmerge:110:110:1261099705:1261183141
  16:131072:16:loads:[24576,24580)[24704,24708)[24720,24724)[24728,28796)[53248,53252)[55296,55300)[56320,56324)[56832,56836)[57088,57092)[57152,57156)[57184,61320):stores:
  17:131072:17:loads::stores:[49152,57344)
  18:8:1683:loads:[0,8):stores:
  19:8:1684:loads:[0,8):stores:
  20:8:1685:loads:[0,8):stores:
  21:8:1686:loads:[0,8):stores:
  22:8:1687:loads:[0,8):stores:
  23:8:1688:loads:[0,8):stores:
  section:55:0:110:110:1261099705:1261183141
    16:131072:16:loads:[24576,24580)[24704,24708)[24720,24724)[24728,28796)[53248,53252)[55296,55300)[56320,56324)[56832,56836)[57088,57092)[57152,57156)[57184,61320):stores:
    17:131072:17:loads::stores:[49152,57344)
    18:8:1683:loads:[0,8):stores:
    19:8:1684:loads:[0,8):stores:
    20:8:1685:loads:[0,8):stores:
    21:8:1686:loads:[0,8):stores:
    22:8:1687:loads:[0,8):stores:
    23:8:1688:loads:[0,8):stores:
 TASK:56:basicmerge:112:112:1261183164:1261266339
  16:131072:16:loads:[28672,28676)[28736,28740)[28768,28772)[28784,28788)[28792,32768)[59392,59396)[60416,60420)[60928,60932)[61184,61188)[61312,65536):stores:
  17:131072:17:loads::stores:[57344,65536)
  18:8:1728:loads:[0,8):stores:
  19:8:1729:loads:[0,8):stores:
  20:8:1730:loads:[0,8):stores:
  21:8:1731:loads:[0,8):stores:
  22:8:1732:loads:[0,8):stores:
  23:8:1733:loads:[0,8):stores:
  section:56:0:112:112:1261183164:1261266339
    16:131072:16:loads:[28672,28676)[28736,28740)[28768,28772)[28784,28788)[28792,32768)[59392,59396)[60416,60420)[60928,60932)[61184,61188)[61312,65536):stores:
    17:131072:17:loads::stores:[57344,65536)
    18:8:1728:loads:[0,8):stores:
    19:8:1729:loads:[0,8):stores:
    20:8:1730:loads:[0,8):stores:
    21:8:1731:loads:[0,8):stores:
    22:8:1732:loads:[0,8):stores:
    23:8:1733:loads:[0,8):stores:
 TASK:57:basicmerge:114:114:1261266488:1261348469
  16:131072:16:loads:[65536,69600)[98304,102436):stores:
  17:131072:17:loads::stores:[65536,73728)
  18:8:1787:loads:[0,8):stores:
  19:8:1788:loads:[0,8):stores:
  20:8:1789:loads:[0,8):stores:
  21:8:1790:loads:[0,8):stores:
  22:8:1791:loads:[0,8):stores:
  23:8:1792:loads:[0,8):stores:
  section:57:0:114:114:1261266488:1261348469
    16:131072:16:loads:[65536,69600)[98304,102436):stores:
    17:131072:17:loads::stores:[65536,73728)
    18:8:1787:loads:[0,8):stores:
    19:8:1788:loads:[0,8):stores:
    20:8:1789:loads:[0,8):stores:
    21:8:1790:loads:[0,8):stores:
    22:8:1791:loads:[0,8):stores:
    23:8:1792:loads:[0,8):stores:
 TASK:58:basicmerge:116:116:1261348492:1261431440
  16:131072:16:loads:[67584,67588)[68608,68612)[69120,69124)[69376,69380)[69504,69508)[69568,69572)[69596,73524)[102400,102404)[102432,106704):stores:
  17:131072:17:loads::stores:[73728,81920)
  18:8:1808:loads:[0,8):stores:
  19:8:1809:loads:[0,8):stores:
  20:8:1810:loads:[0,8):stores:
  21:8:1811:loads:[0,8):stores:
  22:8:1812:loads:[0,8):stores:
  23:8:1813:loads:[0,8):stores:
  section:58:0:116:116:1261348492:1261431440
    16:131072:16:loads:[67584,67588)[68608,68612)[69120,69124)[69376,69380)[69504,69508)[69568,69572)[69596,73524)[102400,102404)[102432,106704):stores:
    17:131072:17:loads::stores:[73728,81920)
    18:8:1808:loads:[0,8):stores:
    19:8:1809:loads:[0,8):stores:
    20:8:1810:loads:[0,8):stores:
    21:8:1811:loads:[0,8):stores:
    22:8:1812:loads:[0,8):stores:
    23:8:1813:loads:[0,8):stores:
 TASK:59:basicmerge:118:118:1261431505:1261514941
  16:131072:16:loads:[69632,69636)[71680,71684)[72704,72708)[73216,73220)[73472,73476)[73504,73508)[73520,77684)[106496,106500)[106624,106628)[106688,106692)[106696,110736):stores:
  17:131072:17:loads::stores:[81920,90112)
  18:8:1851:loads:[0,8):stores:
  19:8:1852:loads:[0,8):stores:
  20:8:1853:loads:[0,8):stores:
  21:8:1854:loads:[0,8):stores:
  22:8:1855:loads:[0,8):stores:
  23:8:1856:loads:[0,8):stores:
  section:59:0:118:118:1261431505:1261514941
    16:131072:16:loads:[69632,69636)[71680,71684)[72704,72708)[73216,73220)[73472,73476)[73504,73508)[73520,77684)[106496,106500)[106624,106628)[106688,106692)[106696,110736):stores:
    17:131072:17:loads::stores:[81920,90112)
    18:8:1851:loads:[0,8):stores:
    19:8:1852:loads:[0,8):stores:
    20:8:1853:loads:[0,8):stores:
    21:8:1854:loads:[0,8):stores:
    22:8:1855:loads:[0,8):stores:
    23:8:1856:loads:[0,8):stores:
 TASK:60:basicmerge:120:120:1261514964:1261598036
  16:131072:16:loads:[71680,71684)[74752,74756)[76288,76292)[77056,77060)[77440,77444)[77632,77636)[77676,81888)[110592,110596)[110688,110692)[110736,114724)[116732,116740):stores:
  17:131072:17:loads::stores:[90112,98304)
  18:8:1896:loads:[0,8):stores:
  19:8:1897:loads:[0,8):stores:
  20:8:1898:loads:[0,8):stores:
  21:8:1899:loads:[0,8):stores:
  22:8:1900:loads:[0,8):stores:
  23:8:1901:loads:[0,8):stores:
  section:60:0:120:120:1261514964:1261598036
    16:131072:16:loads:[71680,71684)[74752,74756)[76288,76292)[77056,77060)[77440,77444)[77632,77636)[77676,81888)[110592,110596)[110688,110692)[110736,114724)[116732,116740):stores:
    17:131072:17:loads::stores:[90112,98304)
    18:8:1896:loads:[0,8):stores:
    19:8:1897:loads:[0,8):stores:
    20:8:1898:loads:[0,8):stores:
    21:8:1899:loads:[0,8):stores:
    22:8:1900:loads:[0,8):stores:
    23:8:1901:loads:[0,8):stores:
 TASK:61:basicmerge:122:122:1261598143:1261681703
  16:131072:16:loads:[73728,73732)[77824,77828)[79872,79876)[80896,80900)[81408,81412)[81664,81668)[81792,81796)[81856,81860)[81872,81876)[81880,85960)[114688,114692)[114720,118844)[122876,122884):stores:
  17:131072:17:loads::stores:[98304,106496)
  18:8:1947:loads:[0,8):stores:
  19:8:1948:loads:[0,8):stores:
  20:8:1949:loads:[0,8):stores:
  21:8:1950:loads:[0,8):stores:
  22:8:1951:loads:[0,8):stores:
  23:8:1952:loads:[0,8):stores:
  section:61:0:122:122:1261598143:1261681703
    16:131072:16:loads:[73728,73732)[77824,77828)[79872,79876)[80896,80900)[81408,81412)[81664,81668)[81792,81796)[81856,81860)[81872,81876)[81880,85960)[114688,114692)[114720,118844)[122876,122884):stores:
    17:131072:17:loads::stores:[98304,106496)
    18:8:1947:loads:[0,8):stores:
    19:8:1948:loads:[0,8):stores:
    20:8:1949:loads:[0,8):stores:
    21:8:1950:loads:[0,8):stores:
    22:8:1951:loads:[0,8):stores:
    23:8:1952:loads:[0,8):stores:
 TASK:62:basicmerge:124:124:1261681726:1261765046
  16:131072:16:loads:[79872,79876)[82944,82948)[84480,84484)[85248,85252)[85632,85636)[85824,85828)[85920,85924)[85944,85948)[85952,90212)[118784,118788)[118832,118836)[118844,122784)[124924,124932):stores:
  17:131072:17:loads::stores:[106496,114688)
  18:8:1994:loads:[0,8):stores:
  19:8:1995:loads:[0,8):stores:
  20:8:1996:loads:[0,8):stores:
  21:8:1997:loads:[0,8):stores:
  22:8:1998:loads:[0,8):stores:
  23:8:1999:loads:[0,8):stores:
  section:62:0:124:124:1261681726:1261765046
    16:131072:16:loads:[79872,79876)[82944,82948)[84480,84484)[85248,85252)[85632,85636)[85824,85828)[85920,85924)[85944,85948)[85952,90212)[118784,118788)[118832,118836)[118844,122784)[124924,124932):stores:
    17:131072:17:loads::stores:[106496,114688)
    18:8:1994:loads:[0,8):stores:
    19:8:1995:loads:[0,8):stores:
    20:8:1996:loads:[0,8):stores:
    21:8:1997:loads:[0,8):stores:
    22:8:1998:loads:[0,8):stores:
    23:8:1999:loads:[0,8):stores:
 TASK:63:basicmerge:126:126:1261765111:1261848557
  16:131072:16:loads:[90112,90116)[90176,90180)[90208,94292)[118784,118788)[120832,120836)[121856,121860)[122368,122372)[122624,122628)[122752,122756)[122768,122772)[122776,126896):stores:
  17:131072:17:loads::stores:[114688,122880)
  18:8:2043:loads:[0,8):stores:
  19:8:2044:loads:[0,8):stores:
  20:8:2045:loads:[0,8):stores:
  21:8:2046:loads:[0,8):stores:
  22:8:2047:loads:[0,8):stores:
  23:8:2048:loads:[0,8):stores:
  section:63:0:126:126:1261765111:1261848557
    16:131072:16:loads:[90112,90116)[90176,90180)[90208,94292)[118784,118788)[120832,120836)[121856,121860)[122368,122372)[122624,122628)[122752,122756)[122768,122772)[122776,126896):stores:
    17:131072:17:loads::stores:[114688,122880)
    18:8:2043:loads:[0,8):stores:
    19:8:2044:loads:[0,8):stores:
    20:8:2045:loads:[0,8):stores:
    21:8:2046:loads:[0,8):stores:
    22:8:2047:loads:[0,8):stores:
    23:8:2048:loads:[0,8):stores:
 TASK:64:basicmerge:128:128:1261848580:1261931844
  16:131072:16:loads:[94208,94212)[94272,94276)[94288,98304)[124928,124932)[125952,125956)[126464,126468)[126720,126724)[126848,126852)[126880,126884)[126888,131072):stores:
  17:131072:17:loads::stores:[122880,131072)
  18:8:2088:loads:[0,8):stores:
  19:8:2089:loads:[0,8):stores:
  20:8:2090:loads:[0,8):stores:
  21:8:2091:loads:[0,8):stores:
  22:8:2092:loads:[0,8):stores:
  23:8:2093:loads:[0,8):stores:
  section:64:0:128:128:1261848580:1261931844
    16:131072:16:loads:[94208,94212)[94272,94276)[94288,98304)[124928,124932)[125952,125956)[126464,126468)[126720,126724)[126848,126852)[126880,126884)[126888,131072):stores:
    17:131072:17:loads::stores:[122880,131072)
    18:8:2088:loads:[0,8):stores:
    19:8:2089:loads:[0,8):stores:
    20:8:2090:loads:[0,8):stores:
    21:8:2091:loads:[0,8):stores:
    22:8:2092:loads:[0,8):stores:
    23:8:2093:loads:[0,8):stores:
 TASK:65:basicmerge:130:130:1261932014:1262013995
  16:131072:16:loads::stores:[0,8192)
  17:131072:17:loads:[0,4056)[65536,69676):stores:
  18:8:2155:loads:[0,8):stores:
  19:8:2156:loads:[0,8):stores:
  20:8:2157:loads:[0,8):stores:
  21:8:2158:loads:[0,8):stores:
  22:8:2159:loads:[0,8):stores:
  23:8:2160:loads:[0,8):stores:
  section:65:0:130:130:1261932014:1262013995
    16:131072:16:loads::stores:[0,8192)
    17:131072:17:loads:[0,4056)[65536,69676):stores:
    18:8:2155:loads:[0,8):stores:
    19:8:2156:loads:[0,8):stores:
    20:8:2157:loads:[0,8):stores:
    21:8:2158:loads:[0,8):stores:
    22:8:2159:loads:[0,8):stores:
    23:8:2160:loads:[0,8):stores:
 TASK:66:basicmerge:132:132:1262014018:1262097204
  16:131072:16:loads::stores:[8192,16384)
  17:131072:17:loads:[2048,2052)[3072,3076)[3584,3588)[3840,3844)[3968,3972)[4032,4036)[4048,4052)[4056,8192)[69632,69636)[69664,73732):stores:
  18:8:2176:loads:[0,8):stores:
  19:8:2177:loads:[0,8):stores:
  20:8:2178:loads:[0,8):stores:
  21:8:2179:loads:[0,8):stores:
  22:8:2180:loads:[0,8):stores:
  23:8:2181:loads:[0,8):stores:
  section:66:0:132:132:1262014018:1262097204
    16:131072:16:loads::stores:[8192,16384)
    17:131072:17:loads:[2048,2052)[3072,3076)[3584,3588)[3840,3844)[3968,3972)[4032,4036)[4048,4052)[4056,8192)[69632,69636)[69664,73732):stores:
    18:8:2176:loads:[0,8):stores:
    19:8:2177:loads:[0,8):stores:
    20:8:2178:loads:[0,8):stores:
    21:8:2179:loads:[0,8):stores:
    22:8:2180:loads:[0,8):stores:
    23:8:2181:loads:[0,8):stores:
 TASK:67:basicmerge:134:134:1262097269:1262180715
  16:131072:16:loads::stores:[16384,24576)
  17:131072:17:loads:[4096,4100)[6144,6148)[7168,7172)[7680,7684)[7936,7940)[8064,8068)[8128,8132)[8160,8164)[8176,8180)[8184,12240)[73728,77876):stores:
  18:8:2223:loads:[0,8):stores:
  19:8:2224:loads:[0,8):stores:
  20:8:2225:loads:[0,8):stores:
  21:8:2226:loads:[0,8):stores:
  22:8:2227:loads:[0,8):stores:
  23:8:2228:loads:[0,8):stores:
  section:67:0:134:134:1262097269:1262180715
    16:131072:16:loads::stores:[16384,24576)
    17:131072:17:loads:[4096,4100)[6144,6148)[7168,7172)[7680,7684)[7936,7940)[8064,8068)[8128,8132)[8160,8164)[8176,8180)[8184,12240)[73728,77876):stores:
    18:8:2223:loads:[0,8):stores:
    19:8:2224:loads:[0,8):stores:
    20:8:2225:loads:[0,8):stores:
    21:8:2226:loads:[0,8):stores:
    22:8:2227:loads:[0,8):stores:
    23:8:2228:loads:[0,8):stores:
 TASK:68:basicmerge:136:136:1262180738:1262264174
  16:131072:16:loads::stores:[24576,32768)
  17:131072:17:loads:[6144,6148)[9216,9220)[10752,10756)[11520,11524)[11904,11908)[12096,12100)[12192,12196)[12216,12220)[12228,16336)[77824,77828)[77872,81972)[83964,83972):stores:
  18:8:2268:loads:[0,8):stores:
  19:8:2269:loads:[0,8):stores:
  20:8:2270:loads:[0,8):stores:
  21:8:2271:loads:[0,8):stores:
  22:8:2272:loads:[0,8):stores:
  23:8:2273:loads:[0,8):stores:
  section:68:0:136:136:1262180738:1262264174
    16:131072:16:loads::stores:[24576,32768)
    17:131072:17:loads:[6144,6148)[9216,9220)[10752,10756)[11520,11524)[11904,11908)[12096,12100)[12192,12196)[12216,12220)[12228,16336)[77824,77828)[77872,81972)[83964,83972):stores:
    18:8:2268:loads:[0,8):stores:
    19:8:2269:loads:[0,8):stores:
    20:8:2270:loads:[0,8):stores:
    21:8:2271:loads:[0,8):stores:
    22:8:2272:loads:[0,8):stores:
    23:8:2273:loads:[0,8):stores:
 TASK:69:basicmerge:138:138:1262264281:1262347601
  16:131072:16:loads::stores:[32768,40960)
  17:131072:17:loads:[8192,8196)[12288,12292)[14336,14340)[15360,15364)[15872,15876)[16128,16132)[16256,16260)[16320,16324)[16332,20416)[81920,81924)[81952,81956)[81968,86084)[90108,90116):stores:
  18:8:2325:loads:[0,8):stores:
  19:8:2326:loads:[0,8):stores:
  20:8:2327:loads:[0,8):stores:
  21:8:2328:loads:[0,8):stores:
  22:8:2329:loads:[0,8):stores:
  23:8:2330:loads:[0,8):stores:
  section:69:0:138:138:1262264281:1262347601
    16:131072:16:loads::stores:[32768,40960)
    17:131072:17:loads:[8192,8196)[12288,12292)[14336,14340)[15360,15364)[15872,15876)[16128,16132)[16256,16260)[16320,16324)[16332,20416)[81920,81924)[81952,81956)[81968,86084)[90108,90116):stores:
    18:8:2325:loads:[0,8):stores:
    19:8:2326:loads:[0,8):stores:
    20:8:2327:loads:[0,8):stores:
    21:8:2328:loads:[0,8):stores:
    22:8:2329:loads:[0,8):stores:
    23:8:2330:loads:[0,8):stores:
 TASK:70:basicmerge:140:140:1262347624:1262431068
  16:131072:16:loads::stores:[40960,49152)
  17:131072:17:loads:[10240,10244)[15360,15364)[17920,17924)[19200,19204)[19840,19844)[20160,20164)[20320,20324)[20400,20404)[20408,24600)[86016,86020)[86056,86060)[86076,86080)[86084,90092)[91132,91140)[96252,96260):stores:
  18:8:2368:loads:[0,8):stores:
  19:8:2369:loads:[0,8):stores:
  20:8:2370:loads:[0,8):stores:
  21:8:2371:loads:[0,8):stores:
  22:8:2372:loads:[0,8):stores:
  23:8:2373:loads:[0,8):stores:
  section:70:0:140:140:1262347624:1262431068
    16:131072:16:loads::stores:[40960,49152)
    17:131072:17:loads:[10240,10244)[15360,15364)[17920,17924)[19200,19204)[19840,19844)[20160,20164)[20320,20324)[20400,20404)[20408,24600)[86016,86020)[86056,86060)[86076,86080)[86084,90092)[91132,91140)[96252,96260):stores:
    18:8:2368:loads:[0,8):stores:
    19:8:2369:loads:[0,8):stores:
    20:8:2370:loads:[0,8):stores:
    21:8:2371:loads:[0,8):stores:
    22:8:2372:loads:[0,8):stores:
    23:8:2373:loads:[0,8):stores:
 TASK:71:basicmerge:142:142:1262431133:1262514693
  16:131072:16:loads::stores:[49152,57344)
  17:131072:17:loads:[24576,24580)[24588,28796)[30716,30724)[36860,36868)[77824,77828)[83968,83972)[87040,87044)[88576,88580)[89344,89348)[89728,89732)[89920,89924)[90016,90020)[90064,90068)[90088,94088):stores:
  18:8:2419:loads:[0,8):stores:
  19:8:2420:loads:[0,8):stores:
  20:8:2421:loads:[0,8):stores:
  21:8:2422:loads:[0,8):stores:
  22:8:2423:loads:[0,8):stores:
  23:8:2424:loads:[0,8):stores:
  section:71:0:142:142:1262431133:1262514693
    16:131072:16:loads::stores:[49152,57344)
    17:131072:17:loads:[24576,24580)[24588,28796)[30716,30724)[36860,36868)[77824,77828)[83968,83972)[87040,87044)[88576,88580)[89344,89348)[89728,89732)[89920,89924)[90016,90020)[90064,90068)[90088,94088):stores:
    18:8:2419:loads:[0,8):stores:
    19:8:2420:loads:[0,8):stores:
    20:8:2421:loads:[0,8):stores:
    21:8:2422:loads:[0,8):stores:
    22:8:2423:loads:[0,8):stores:
    23:8:2424:loads:[0,8):stores:
 TASK:72:basicmerge:144:144:1262514716:1262598276
  16:131072:16:loads::stores:[57344,65536)
  17:131072:17:loads:[28672,28676)[28784,28788)[28796,32936)[35836,35844)[43004,43012)[79872,79876)[87040,87044)[90624,90628)[92416,92420)[93312,93316)[93760,93764)[93984,93988)[94040,94044)[94068,94072)[94080,98140):stores:
  18:8:2466:loads:[0,8):stores:
  19:8:2467:loads:[0,8):stores:
  20:8:2468:loads:[0,8):stores:
  21:8:2469:loads:[0,8):stores:
  22:8:2470:loads:[0,8):stores:
  23:8:2471:loads:[0,8):stores:
  section:72:0:144:144:1262514716:1262598276
    16:131072:16:loads::stores:[57344,65536)
    17:131072:17:loads:[28672,28676)[28784,28788)[28796,32936)[35836,35844)[43004,43012)[79872,79876)[87040,87044)[90624,90628)[92416,92420)[93312,93316)[93760,93764)[93984,93988)[94040,94044)[94068,94072)[94080,98140):stores:
    18:8:2466:loads:[0,8):stores:
    19:8:2467:loads:[0,8):stores:
    20:8:2468:loads:[0,8):stores:
    21:8:2469:loads:[0,8):stores:
    22:8:2470:loads:[0,8):stores:
    23:8:2471:loads:[0,8):stores:
 TASK:73:basicmerge:146:146:1262598425:1262681735
  16:131072:16:loads::stores:[65536,73728)
  17:131072:17:loads:[32768,32772)[32896,32900)[32928,37072)[40956,40964)[49148,49156)[81920,81924)[90112,90116)[94208,94212)[96256,96260)[97280,97284)[97792,97796)[98048,98052)[98112,98116)[98140,102196):stores:
  18:8:2531:loads:[0,8):stores:
  19:8:2532:loads:[0,8):stores:
  20:8:2533:loads:[0,8):stores:
  21:8:2534:loads:[0,8):stores:
  22:8:2535:loads:[0,8):stores:
  23:8:2536:loads:[0,8):stores:
  section:73:0:146:146:1262598425:1262681735
    16:131072:16:loads::stores:[65536,73728)
    17:131072:17:loads:[32768,32772)[32896,32900)[32928,37072)[40956,40964)[49148,49156)[81920,81924)[90112,90116)[94208,94212)[96256,96260)[97280,97284)[97792,97796)[98048,98052)[98112,98116)[98140,102196):stores:
    18:8:2531:loads:[0,8):stores:
    19:8:2532:loads:[0,8):stores:
    20:8:2533:loads:[0,8):stores:
    21:8:2534:loads:[0,8):stores:
    22:8:2535:loads:[0,8):stores:
    23:8:2536:loads:[0,8):stores:
 TASK:74:basicmerge:148:148:1262681758:1262765202
  16:131072:16:loads::stores:[73728,81920)
  17:131072:17:loads:[36864,36868)[36976,36980)[37032,37036)[37060,37064)[37068,41124)[44028,44036)[51196,51204)[88064,88068)[95232,95236)[98816,98820)[100608,100612)[101504,101508)[101952,101956)[102176,102180)[102192,106336):stores:
  18:8:2574:loads:[0,8):stores:
  19:8:2575:loads:[0,8):stores:
  20:8:2576:loads:[0,8):stores:
  21:8:2577:loads:[0,8):stores:
  22:8:2578:loads:[0,8):stores:
  23:8:2579:loads:[0,8):stores:
  section:74:0:148:148:1262681758:1262765202
    16:131072:16:loads::stores:[73728,81920)
    17:131072:17:loads:[36864,36868)[36976,36980)[37032,37036)[37060,37064)[37068,41124)[44028,44036)[51196,51204)[88064,88068)[95232,95236)[98816,98820)[100608,100612)[101504,101508)[101952,101956)[102176,102180)[102192,106336):stores:
    18:8:2574:loads:[0,8):stores:
    19:8:2575:loads:[0,8):stores:
    20:8:2576:loads:[0,8):stores:
    21:8:2577:loads:[0,8):stores:
    22:8:2578:loads:[0,8):stores:
    23:8:2579:loads:[0,8):stores:
 TASK:75:basicmerge:150:150:1262765267:1262848701
  16:131072:16:loads::stores:[81920,90112)
  17:131072:17:loads:[40960,40964)[41056,41060)[41104,41108)[41116,45272)[47100,47108)[53244,53252)[94208,94212)[100352,100356)[103424,103428)[104960,104964)[105728,105732)[106112,106116)[106304,106308)[106328,106332)[106336,110380):stores:
  18:8:2625:loads:[0,8):stores:
  19:8:2626:loads:[0,8):stores:
  20:8:2627:loads:[0,8):stores:
  21:8:2628:loads:[0,8):stores:
  22:8:2629:loads:[0,8):stores:
  23:8:2630:loads:[0,8):stores:
  section:75:0:150:150:1262765267:1262848701
    16:131072:16:loads::stores:[81920,90112)
    17:131072:17:loads:[40960,40964)[41056,41060)[41104,41108)[41116,45272)[47100,47108)[53244,53252)[94208,94212)[100352,100356)[103424,103428)[104960,104964)[105728,105732)[106112,106116)[106304,106308)[106328,106332)[106336,110380):stores:
    18:8:2625:loads:[0,8):stores:
    19:8:2626:loads:[0,8):stores:
    20:8:2627:loads:[0,8):stores:
    21:8:2628:loads:[0,8):stores:
    22:8:2629:loads:[0,8):stores:
    23:8:2630:loads:[0,8):stores:
 TASK:76:basicmerge:152:152:1262848724:1262932158
  16:131072:16:loads::stores:[90112,98304)
  17:131072:17:loads:[45056,45060)[45216,45220)[45256,45260)[45268,49372)[50172,50180)[55292,55300)[100352,100356)[105472,105476)[108032,108036)[109312,109316)[109952,109956)[110272,110276)[110352,110356)[110372,114472):stores:
  18:8:2670:loads:[0,8):stores:
  19:8:2671:loads:[0,8):stores:
  20:8:2672:loads:[0,8):stores:
  21:8:2673:loads:[0,8):stores:
  22:8:2674:loads:[0,8):stores:
  23:8:2675:loads:[0,8):stores:
  section:76:0:152:152:1262848724:1262932158
    16:131072:16:loads::stores:[90112,98304)
    17:131072:17:loads:[45056,45060)[45216,45220)[45256,45260)[45268,49372)[50172,50180)[55292,55300)[100352,100356)[105472,105476)[108032,108036)[109312,109316)[109952,109956)[110272,110276)[110352,110356)[110372,114472):stores:
    18:8:2670:loads:[0,8):stores:
    19:8:2671:loads:[0,8):stores:
    20:8:2672:loads:[0,8):stores:
    21:8:2673:loads:[0,8):stores:
    22:8:2674:loads:[0,8):stores:
    23:8:2675:loads:[0,8):stores:
 TASK:77:basicmerge:154:154:1262932265:1263015699
  16:131072:16:loads::stores:[98304,106496)
  17:131072:17:loads:[49152,49156)[49280,49284)[49344,49348)[49360,49364)[49368,53476)[57340,57348)[106496,106500)[110592,110596)[112640,112644)[113664,113668)[114176,114180)[114432,114436)[114464,118560):stores:
  18:8:2727:loads:[0,8):stores:
  19:8:2728:loads:[0,8):stores:
  20:8:2729:loads:[0,8):stores:
  21:8:2730:loads:[0,8):stores:
  22:8:2731:loads:[0,8):stores:
  23:8:2732:loads:[0,8):stores:
  section:77:0:154:154:1262932265:1263015699
    16:131072:16:loads::stores:[98304,106496)
    17:131072:17:loads:[49152,49156)[49280,49284)[49344,49348)[49360,49364)[49368,53476)[57340,57348)[106496,106500)[110592,110596)[112640,112644)[113664,113668)[114176,114180)[114432,114436)[114464,118560):stores:
    18:8:2727:loads:[0,8):stores:
    19:8:2728:loads:[0,8):stores:
    20:8:2729:loads:[0,8):stores:
    21:8:2730:loads:[0,8):stores:
    22:8:2731:loads:[0,8):stores:
    23:8:2732:loads:[0,8):stores:
 TASK:78:basicmerge:156:156:1263015722:1263099032
  16:131072:16:loads::stores:[106496,114688)
  17:131072:17:loads:[53248,53252)[53440,53444)[53464,53468)[53476,57488)[59388,59396)[112640,112644)[115712,115716)[117248,117252)[118016,118020)[118400,118404)[118496,118500)[118544,118548)[118552,122740):stores:
  18:8:2772:loads:[0,8):stores:
  19:8:2773:loads:[0,8):stores:
  20:8:2774:loads:[0,8):stores:
  21:8:2775:loads:[0,8):stores:
  22:8:2776:loads:[0,8):stores:
  23:8:2777:loads:[0,8):stores:
  section:78:0:156:156:1263015722:1263099032
    16:131072:16:loads::stores:[106496,114688)
    17:131072:17:loads:[53248,53252)[53440,53444)[53464,53468)[53476,57488)[59388,59396)[112640,112644)[115712,115716)[117248,117252)[118016,118020)[118400,118404)[118496,118500)[118544,118548)[118552,122740):stores:
    18:8:2772:loads:[0,8):stores:
    19:8:2773:loads:[0,8):stores:
    20:8:2774:loads:[0,8):stores:
    21:8:2775:loads:[0,8):stores:
    22:8:2776:loads:[0,8):stores:
    23:8:2777:loads:[0,8):stores:
 TASK:79:basicmerge:158:158:1263099097:1263182283
  16:131072:16:loads::stores:[114688,122880)
  17:131072:17:loads:[57344,57348)[57472,57476)[57488,61476)[118784,118788)[120832,120836)[121856,121860)[122368,122372)[122624,122628)[122688,122692)[122720,122724)[122732,126944):stores:
  18:8:2821:loads:[0,8):stores:
  19:8:2822:loads:[0,8):stores:
  20:8:2823:loads:[0,8):stores:
  21:8:2824:loads:[0,8):stores:
  22:8:2825:loads:[0,8):stores:
  23:8:2826:loads:[0,8):stores:
  section:79:0:158:158:1263099097:1263182283
    16:131072:16:loads::stores:[114688,122880)
    17:131072:17:loads:[57344,57348)[57472,57476)[57488,61476)[118784,118788)[120832,120836)[121856,121860)[122368,122372)[122624,122628)[122688,122692)[122720,122724)[122732,126944):stores:
    18:8:2821:loads:[0,8):stores:
    19:8:2822:loads:[0,8):stores:
    20:8:2823:loads:[0,8):stores:
    21:8:2824:loads:[0,8):stores:
    22:8:2825:loads:[0,8):stores:
    23:8:2826:loads:[0,8):stores:
 TASK:80:basicmerge:160:160:1263182306:1263265233
  16:131072:16:loads::stores:[122880,131072)
  17:131072:17:loads:[61440,61444)[61472,65536)[124928,124932)[125952,125956)[126464,126468)[126720,126724)[126848,126852)[126912,126916)[126940,131072):stores:
  18:8:2862:loads:[0,8):stores:
  19:8:2863:loads:[0,8):stores:
  20:8:2864:loads:[0,8):stores:
  21:8:2865:loads:[0,8):stores:
  22:8:2866:loads:[0,8):stores:
  23:8:2867:loads:[0,8):stores:
  section:80:0:160:160:1263182306:1263265233
    16:131072:16:loads::stores:[122880,131072)
    17:131072:17:loads:[61440,61444)[61472,65536)[124928,124932)[125952,125956)[126464,126468)[126720,126724)[126848,126852)[126912,126916)[126940,131072):stores:
    18:8:2862:loads:[0,8):stores:
    19:8:2863:loads:[0,8):stores:
    20:8:2864:loads:[0,8):stores:
    21:8:2865:loads:[0,8):stores:
    22:8:2866:loads:[0,8):stores:
    23:8:2867:loads:[0,8):stores:
