%!PS-Adobe-3.0
%%Pages: (atend)
%%Creator: jgraph
%%EndComments

%%BeginProlog
%%EndProlog
%%BeginSetup
%%EndSetup

%%Page: 1 1
%%BeginPageSetup
%%EndPageSetup

198.000000 328.000000 translate
1 setlinecap 1 setlinejoin
0.700 setlinewidth
0.00 setgray

/Jrnd { exch cvi exch cvi dup 3 1 roll idiv mul } def
/JDEdict 8 dict def
JDEdict /mtrx matrix put
/JDE {
  JDEdict begin
  /yrad exch def
  /xrad exch def
  /savematrix mtrx currentmatrix def
  xrad yrad scale
  0 0 1 0 360 arc
  savematrix setmatrix
  end
} def
/JSTR {
  gsave 1 eq { gsave 1 setgray fill grestore } if
    exch neg exch neg translate 
    clip                        
    rotate                      
    4 dict begin
      pathbbox  /&top exch def
                /&right exch def
                /&bottom exch def
                &right sub /&width exch def
      newpath
      currentlinewidth mul round dup               
      &bottom exch Jrnd exch &top             
      4 -1 roll currentlinewidth mul setlinewidth  
      { &right exch moveto &width 0 rlineto stroke } for    
    end
  grestore
  newpath
} bind def
 gsave /Times-Roman findfont 9.000000 scalefont setfont
0.000000 0.000000 translate
0.700000 setlinewidth  gsave newpath 0.000000 0.000000 moveto 216.000000 0.000000 lineto stroke
newpath 0.000000 0.000000 moveto 0.000000 -2.000000 lineto stroke
newpath 13.500000 0.000000 moveto 13.500000 -5.000000 lineto stroke
newpath 27.000000 0.000000 moveto 27.000000 -2.000000 lineto stroke
newpath 40.500000 0.000000 moveto 40.500000 -2.000000 lineto stroke
newpath 54.000000 0.000000 moveto 54.000000 -2.000000 lineto stroke
newpath 67.500000 0.000000 moveto 67.500000 -2.000000 lineto stroke
newpath 81.000000 0.000000 moveto 81.000000 -5.000000 lineto stroke
newpath 94.500000 0.000000 moveto 94.500000 -2.000000 lineto stroke
newpath 108.000000 0.000000 moveto 108.000000 -2.000000 lineto stroke
newpath 121.500000 0.000000 moveto 121.500000 -2.000000 lineto stroke
newpath 135.000000 0.000000 moveto 135.000000 -2.000000 lineto stroke
newpath 148.500000 0.000000 moveto 148.500000 -5.000000 lineto stroke
newpath 162.000000 0.000000 moveto 162.000000 -2.000000 lineto stroke
newpath 175.500000 0.000000 moveto 175.500000 -2.000000 lineto stroke
newpath 189.000000 0.000000 moveto 189.000000 -2.000000 lineto stroke
newpath 202.500000 0.000000 moveto 202.500000 -2.000000 lineto stroke
newpath 216.000000 0.000000 moveto 216.000000 -5.000000 lineto stroke
gsave 13.500000 -8.000000 translate 90.000000 rotate
0 -2.700000 translate ( 0) dup stringwidth pop neg 0 moveto
show
grestore
gsave 27.000000 -8.000000 translate 90.000000 rotate
0 -2.700000 translate ( 1) dup stringwidth pop neg 0 moveto
show
grestore
gsave 40.500000 -8.000000 translate 90.000000 rotate
0 -2.700000 translate ( 2) dup stringwidth pop neg 0 moveto
show
grestore
gsave 54.000000 -8.000000 translate 90.000000 rotate
0 -2.700000 translate ( 3) dup stringwidth pop neg 0 moveto
show
grestore
gsave 67.500000 -8.000000 translate 90.000000 rotate
0 -2.700000 translate ( 4) dup stringwidth pop neg 0 moveto
show
grestore
gsave 81.000000 -8.000000 translate 90.000000 rotate
0 -2.700000 translate ( 5) dup stringwidth pop neg 0 moveto
show
grestore
gsave 94.500000 -8.000000 translate 90.000000 rotate
0 -2.700000 translate ( 6) dup stringwidth pop neg 0 moveto
show
grestore
gsave 108.000000 -8.000000 translate 90.000000 rotate
0 -2.700000 translate ( 7) dup stringwidth pop neg 0 moveto
show
grestore
gsave 121.500000 -8.000000 translate 90.000000 rotate
0 -2.700000 translate ( 8) dup stringwidth pop neg 0 moveto
show
grestore
gsave 135.000000 -8.000000 translate 90.000000 rotate
0 -2.700000 translate ( 9) dup stringwidth pop neg 0 moveto
show
grestore
gsave 148.500000 -8.000000 translate 90.000000 rotate
0 -2.700000 translate ( 10) dup stringwidth pop neg 0 moveto
show
grestore
gsave 162.000000 -8.000000 translate 90.000000 rotate
0 -2.700000 translate ( 11) dup stringwidth pop neg 0 moveto
show
grestore
gsave 175.500000 -8.000000 translate 90.000000 rotate
0 -2.700000 translate ( 12) dup stringwidth pop neg 0 moveto
show
grestore
gsave 189.000000 -8.000000 translate 90.000000 rotate
0 -2.700000 translate ( 13) dup stringwidth pop neg 0 moveto
show
grestore
gsave 202.500000 -8.000000 translate 90.000000 rotate
0 -2.700000 translate ( 14) dup stringwidth pop neg 0 moveto
show
grestore
gsave 216.000000 -8.000000 translate 90.000000 rotate
0 -2.700000 translate ( 15) dup stringwidth pop neg 0 moveto
show
grestore
/Times-Bold findfont 10.000000 scalefont setfont
gsave 108.000000 -28.959999 translate 0.000000 rotate
0 -6.000000 translate (Recursion size) dup stringwidth pop 2 div neg 0 moveto
show
grestore
 grestore 
0.700000 setlinewidth  gsave newpath 0.000000 0.000000 moveto 0.000000 216.000000 lineto stroke
newpath 0.000000 0.000000 moveto -5.000000 0.000000 lineto stroke
newpath 0.000000 4.450780 moveto -2.000000 4.450780 lineto stroke
newpath 0.000000 8.901561 moveto -2.000000 8.901561 lineto stroke
newpath 0.000000 13.352342 moveto -2.000000 13.352342 lineto stroke
newpath 0.000000 17.803122 moveto -2.000000 17.803122 lineto stroke
newpath 0.000000 22.253902 moveto -2.000000 22.253902 lineto stroke
newpath 0.000000 26.704683 moveto -2.000000 26.704683 lineto stroke
newpath 0.000000 31.155466 moveto -2.000000 31.155466 lineto stroke
newpath 0.000000 35.606247 moveto -2.000000 35.606247 lineto stroke
newpath 0.000000 40.057030 moveto -2.000000 40.057030 lineto stroke
newpath 0.000000 44.507805 moveto -5.000000 44.507805 lineto stroke
newpath 0.000000 48.958588 moveto -2.000000 48.958588 lineto stroke
newpath 0.000000 53.409367 moveto -2.000000 53.409367 lineto stroke
newpath 0.000000 57.860149 moveto -2.000000 57.860149 lineto stroke
newpath 0.000000 62.310932 moveto -2.000000 62.310932 lineto stroke
newpath 0.000000 66.761711 moveto -2.000000 66.761711 lineto stroke
newpath 0.000000 71.212494 moveto -2.000000 71.212494 lineto stroke
newpath 0.000000 75.663277 moveto -2.000000 75.663277 lineto stroke
newpath 0.000000 80.114059 moveto -2.000000 80.114059 lineto stroke
newpath 0.000000 84.564842 moveto -2.000000 84.564842 lineto stroke
newpath 0.000000 89.015610 moveto -5.000000 89.015610 lineto stroke
newpath 0.000000 93.466385 moveto -2.000000 93.466385 lineto stroke
newpath 0.000000 97.917160 moveto -2.000000 97.917160 lineto stroke
newpath 0.000000 102.367935 moveto -2.000000 102.367935 lineto stroke
newpath 0.000000 106.818718 moveto -2.000000 106.818718 lineto stroke
newpath 0.000000 111.269493 moveto -2.000000 111.269493 lineto stroke
newpath 0.000000 115.720268 moveto -2.000000 115.720268 lineto stroke
newpath 0.000000 120.171043 moveto -2.000000 120.171043 lineto stroke
newpath 0.000000 124.621819 moveto -2.000000 124.621819 lineto stroke
newpath 0.000000 129.072601 moveto -2.000000 129.072601 lineto stroke
newpath 0.000000 133.523407 moveto -5.000000 133.523407 lineto stroke
newpath 0.000000 137.974197 moveto -2.000000 137.974197 lineto stroke
newpath 0.000000 142.424973 moveto -2.000000 142.424973 lineto stroke
newpath 0.000000 146.875748 moveto -2.000000 146.875748 lineto stroke
newpath 0.000000 151.326523 moveto -2.000000 151.326523 lineto stroke
newpath 0.000000 155.777298 moveto -2.000000 155.777298 lineto stroke
newpath 0.000000 160.228073 moveto -2.000000 160.228073 lineto stroke
newpath 0.000000 164.678848 moveto -2.000000 164.678848 lineto stroke
newpath 0.000000 169.129623 moveto -2.000000 169.129623 lineto stroke
newpath 0.000000 173.580399 moveto -2.000000 173.580399 lineto stroke
newpath 0.000000 178.031219 moveto -5.000000 178.031219 lineto stroke
newpath 0.000000 182.481995 moveto -2.000000 182.481995 lineto stroke
newpath 0.000000 186.932770 moveto -2.000000 186.932770 lineto stroke
newpath 0.000000 191.383545 moveto -2.000000 191.383545 lineto stroke
newpath 0.000000 195.834320 moveto -2.000000 195.834320 lineto stroke
newpath 0.000000 200.285095 moveto -2.000000 200.285095 lineto stroke
newpath 0.000000 204.735870 moveto -2.000000 204.735870 lineto stroke
newpath 0.000000 209.186661 moveto -2.000000 209.186661 lineto stroke
newpath 0.000000 213.637436 moveto -2.000000 213.637436 lineto stroke
/Times-Roman findfont 9.000000 scalefont setfont
gsave -8.000000 0.000000 translate 0.000000 rotate
0 -2.700000 translate (0) dup stringwidth pop neg 0 moveto
show
grestore
gsave -8.000000 44.507805 translate 0.000000 rotate
0 -2.700000 translate (1) dup stringwidth pop neg 0 moveto
show
grestore
gsave -8.000000 89.015610 translate 0.000000 rotate
0 -2.700000 translate (2) dup stringwidth pop neg 0 moveto
show
grestore
gsave -8.000000 133.523407 translate 0.000000 rotate
0 -2.700000 translate (3) dup stringwidth pop neg 0 moveto
show
grestore
gsave -8.000000 178.031219 translate 0.000000 rotate
0 -2.700000 translate (4) dup stringwidth pop neg 0 moveto
show
grestore
/Times-Bold findfont 10.000000 scalefont setfont
gsave -20.320000 108.000000 translate 90.000000 rotate
0 0.000000 translate (Execution time) dup stringwidth pop 2 div neg 0 moveto
show
grestore
 grestore 
/Times-Roman findfont 12.000000 scalefont setfont
gsave 108.000000 -44.959999 translate 0.000000 rotate
0 -7.200000 translate (par2107) dup stringwidth pop 2 div neg 0 moveto
show 0 -14.400000 translate
(Average elapsed execution time \(multisort only\)) dup stringwidth pop 2 div neg 0 moveto
show 0 -14.400000 translate
(Wed Nov 23 08:37:41 PM CET 2022) dup stringwidth pop 2 div neg 0 moveto
show
grestore
 gsave 
 gsave  gsave  27.000000 69.842361 translate 0.000000 rotate
 newpath 3.375000 0.000000 moveto  -3.375000 0.000000 lineto
  -3.375000 -69.842361 lineto
  3.375000 -69.842361 lineto
closepath gsave 0.500000 setgray  fill grestore
stroke
 grestore  gsave  13.500000 135.739151 translate 0.000000 rotate
 newpath 3.375000 0.000000 moveto  -3.375000 0.000000 lineto
  -3.375000 -135.739151 lineto
  3.375000 -135.739151 lineto
closepath gsave 0.500000 setgray  fill grestore
stroke
 grestore  gsave  40.500000 65.258232 translate 0.000000 rotate
 newpath 3.375000 0.000000 moveto  -3.375000 0.000000 lineto
  -3.375000 -65.258232 lineto
  3.375000 -65.258232 lineto
closepath gsave 0.500000 setgray  fill grestore
stroke
 grestore  gsave  54.000000 66.151634 translate 0.000000 rotate
 newpath 3.375000 0.000000 moveto  -3.375000 0.000000 lineto
  -3.375000 -66.151634 lineto
  3.375000 -66.151634 lineto
closepath gsave 0.500000 setgray  fill grestore
stroke
 grestore  gsave  27.000000 130.145142 translate 0.000000 rotate
 newpath 3.375000 0.000000 moveto  -3.375000 0.000000 lineto
  -3.375000 -130.145142 lineto
  3.375000 -130.145142 lineto
closepath gsave 0.500000 setgray  fill grestore
stroke
 grestore  gsave  67.500000 65.258987 translate 0.000000 rotate
 newpath 3.375000 0.000000 moveto  -3.375000 0.000000 lineto
  -3.375000 -65.258987 lineto
  3.375000 -65.258987 lineto
closepath gsave 0.500000 setgray  fill grestore
stroke
 grestore  gsave  81.000000 66.125153 translate 0.000000 rotate
 newpath 3.375000 0.000000 moveto  -3.375000 0.000000 lineto
  -3.375000 -66.125153 lineto
  3.375000 -66.125153 lineto
closepath gsave 0.500000 setgray  fill grestore
stroke
 grestore  gsave  40.500000 129.021179 translate 0.000000 rotate
 newpath 3.375000 0.000000 moveto  -3.375000 0.000000 lineto
  -3.375000 -129.021179 lineto
  3.375000 -129.021179 lineto
closepath gsave 0.500000 setgray  fill grestore
stroke
 grestore  gsave  94.500000 66.199890 translate 0.000000 rotate
 newpath 3.375000 0.000000 moveto  -3.375000 0.000000 lineto
  -3.375000 -66.199890 lineto
  3.375000 -66.199890 lineto
closepath gsave 0.500000 setgray  fill grestore
stroke
 grestore  gsave  54.000000 128.632309 translate 0.000000 rotate
 newpath 3.375000 0.000000 moveto  -3.375000 0.000000 lineto
  -3.375000 -128.632309 lineto
  3.375000 -128.632309 lineto
closepath gsave 0.500000 setgray  fill grestore
stroke
 grestore  gsave  108.000000 68.143806 translate 0.000000 rotate
 newpath 3.375000 0.000000 moveto  -3.375000 0.000000 lineto
  -3.375000 -68.143806 lineto
  3.375000 -68.143806 lineto
closepath gsave 0.500000 setgray  fill grestore
stroke
 grestore  gsave  121.500000 70.732071 translate 0.000000 rotate
 newpath 3.375000 0.000000 moveto  -3.375000 0.000000 lineto
  -3.375000 -70.732071 lineto
  3.375000 -70.732071 lineto
closepath gsave 0.500000 setgray  fill grestore
stroke
 grestore  gsave  67.500000 128.632797 translate 0.000000 rotate
 newpath 3.375000 0.000000 moveto  -3.375000 0.000000 lineto
  -3.375000 -128.632797 lineto
  3.375000 -128.632797 lineto
closepath gsave 0.500000 setgray  fill grestore
stroke
 grestore  gsave  135.000000 75.157036 translate 0.000000 rotate
 newpath 3.375000 0.000000 moveto  -3.375000 0.000000 lineto
  -3.375000 -75.157036 lineto
  3.375000 -75.157036 lineto
closepath gsave 0.500000 setgray  fill grestore
stroke
 grestore  gsave  81.000000 128.584305 translate 0.000000 rotate
 newpath 3.375000 0.000000 moveto  -3.375000 0.000000 lineto
  -3.375000 -128.584305 lineto
  3.375000 -128.584305 lineto
closepath gsave 0.500000 setgray  fill grestore
stroke
 grestore  gsave  148.500000 79.985245 translate 0.000000 rotate
 newpath 3.375000 0.000000 moveto  -3.375000 0.000000 lineto
  -3.375000 -79.985245 lineto
  3.375000 -79.985245 lineto
closepath gsave 0.500000 setgray  fill grestore
stroke
 grestore  gsave  162.000000 85.987480 translate 0.000000 rotate
 newpath 3.375000 0.000000 moveto  -3.375000 0.000000 lineto
  -3.375000 -85.987480 lineto
  3.375000 -85.987480 lineto
closepath gsave 0.500000 setgray  fill grestore
stroke
 grestore  gsave  94.500000 129.515579 translate 0.000000 rotate
 newpath 3.375000 0.000000 moveto  -3.375000 0.000000 lineto
  -3.375000 -129.515579 lineto
  3.375000 -129.515579 lineto
closepath gsave 0.500000 setgray  fill grestore
stroke
 grestore  gsave  175.500000 92.229652 translate 0.000000 rotate
 newpath 3.375000 0.000000 moveto  -3.375000 0.000000 lineto
  -3.375000 -92.229652 lineto
  3.375000 -92.229652 lineto
closepath gsave 0.500000 setgray  fill grestore
stroke
 grestore  gsave  108.000000 131.312805 translate 0.000000 rotate
 newpath 3.375000 0.000000 moveto  -3.375000 0.000000 lineto
  -3.375000 -131.312805 lineto
  3.375000 -131.312805 lineto
closepath gsave 0.500000 setgray  fill grestore
stroke
 grestore  gsave  189.000000 98.560974 translate 0.000000 rotate
 newpath 3.375000 0.000000 moveto  -3.375000 0.000000 lineto
  -3.375000 -98.560974 lineto
  3.375000 -98.560974 lineto
closepath gsave 0.500000 setgray  fill grestore
stroke
 grestore  gsave  121.500000 140.644577 translate 0.000000 rotate
 newpath 3.375000 0.000000 moveto  -3.375000 0.000000 lineto
  -3.375000 -140.644577 lineto
  3.375000 -140.644577 lineto
closepath gsave 0.500000 setgray  fill grestore
stroke
 grestore  gsave  202.500000 104.127655 translate 0.000000 rotate
 newpath 3.375000 0.000000 moveto  -3.375000 0.000000 lineto
  -3.375000 -104.127655 lineto
  3.375000 -104.127655 lineto
closepath gsave 0.500000 setgray  fill grestore
stroke
 grestore  gsave  135.000000 146.868408 translate 0.000000 rotate
 newpath 3.375000 0.000000 moveto  -3.375000 0.000000 lineto
  -3.375000 -146.868408 lineto
  3.375000 -146.868408 lineto
closepath gsave 0.500000 setgray  fill grestore
stroke
 grestore  gsave  216.000000 110.059921 translate 0.000000 rotate
 newpath 3.375000 0.000000 moveto  -3.375000 0.000000 lineto
  -3.375000 -110.059921 lineto
  3.375000 -110.059921 lineto
closepath gsave 0.500000 setgray  fill grestore
stroke
 grestore  gsave  148.500000 159.854935 translate 0.000000 rotate
 newpath 3.375000 0.000000 moveto  -3.375000 0.000000 lineto
  -3.375000 -159.854935 lineto
  3.375000 -159.854935 lineto
closepath gsave 0.500000 setgray  fill grestore
stroke
 grestore  gsave  162.000000 170.801544 translate 0.000000 rotate
 newpath 3.375000 0.000000 moveto  -3.375000 0.000000 lineto
  -3.375000 -170.801544 lineto
  3.375000 -170.801544 lineto
closepath gsave 0.500000 setgray  fill grestore
stroke
 grestore  gsave  175.500000 181.910370 translate 0.000000 rotate
 newpath 3.375000 0.000000 moveto  -3.375000 0.000000 lineto
  -3.375000 -181.910370 lineto
  3.375000 -181.910370 lineto
closepath gsave 0.500000 setgray  fill grestore
stroke
 grestore  gsave  189.000000 194.683151 translate 0.000000 rotate
 newpath 3.375000 0.000000 moveto  -3.375000 0.000000 lineto
  -3.375000 -194.683151 lineto
  3.375000 -194.683151 lineto
closepath gsave 0.500000 setgray  fill grestore
stroke
 grestore  gsave  202.500000 205.337204 translate 0.000000 rotate
 newpath 3.375000 0.000000 moveto  -3.375000 0.000000 lineto
  -3.375000 -205.337204 lineto
  3.375000 -205.337204 lineto
closepath gsave 0.500000 setgray  fill grestore
stroke
 grestore  gsave  216.000000 215.999985 translate 0.000000 rotate
 newpath 3.375000 0.000000 moveto  -3.375000 0.000000 lineto
  -3.375000 -215.999985 lineto
  3.375000 -215.999985 lineto
closepath gsave 0.500000 setgray  fill grestore
stroke
 grestore  grestore 
 grestore 
-0.000000 -0.000000 translate
 grestore showpage
%%PageTrailer

%%Trailer
%%Pages: 1
%%EOF
