1   5.131420
2   3.019092
3   2.329139
4   1.637868
5   1.504627
6   1.420731
7   1.340367
8   1.372896
9   1.475320
10   1.786086
11   1.997079
12   2.085747
13   1.972028
14   2.261182
15   2.283268
16   2.342395
17   2.352046
18   2.445035
19   2.417895
20   2.478312
