1
0.977075
2
0.602782
0
2.515126
3
0.462811
1
0.972964
4
0.432237
2
0.511968
5
0.415431
3
0.376988
6
0.413421
4
0.308857
7
0.418307
5
0.282109
8
0.440057
6
0.279333
9
0.466248
7
0.282341
10
0.503104
8
0.299325
9
11
0.316823
0.546839
10
0.344752
12
0.576812
11
0.366204
13
0.613668
12
0.386095
14
0.652626
13
0.412021
15
0.699882
14
0.436056
15
0.468687
