%!PS-Adobe-3.0
%%Pages: (atend)
%%Creator: jgraph
%%EndComments

%%BeginProlog
%%EndProlog
%%BeginSetup
%%EndSetup

%%Page: 1 1
%%BeginPageSetup
%%EndPageSetup

198.000000 328.000000 translate
1 setlinecap 1 setlinejoin
0.700 setlinewidth
0.00 setgray

/Jrnd { exch cvi exch cvi dup 3 1 roll idiv mul } def
/JDEdict 8 dict def
JDEdict /mtrx matrix put
/JDE {
  JDEdict begin
  /yrad exch def
  /xrad exch def
  /savematrix mtrx currentmatrix def
  xrad yrad scale
  0 0 1 0 360 arc
  savematrix setmatrix
  end
} def
/JSTR {
  gsave 1 eq { gsave 1 setgray fill grestore } if
    exch neg exch neg translate 
    clip                        
    rotate                      
    4 dict begin
      pathbbox  /&top exch def
                /&right exch def
                /&bottom exch def
                &right sub /&width exch def
      newpath
      currentlinewidth mul round dup               
      &bottom exch Jrnd exch &top             
      4 -1 roll currentlinewidth mul setlinewidth  
      { &right exch moveto &width 0 rlineto stroke } for    
    end
  grestore
  newpath
} bind def
 gsave /Times-Roman findfont 9.000000 scalefont setfont
0.000000 0.000000 translate
0.700000 setlinewidth  gsave newpath 0.000000 0.000000 moveto 216.000000 0.000000 lineto stroke
newpath 0.000000 0.000000 moveto 0.000000 -2.000000 lineto stroke
newpath 13.500000 0.000000 moveto 13.500000 -5.000000 lineto stroke
newpath 27.000000 0.000000 moveto 27.000000 -2.000000 lineto stroke
newpath 40.500000 0.000000 moveto 40.500000 -2.000000 lineto stroke
newpath 54.000000 0.000000 moveto 54.000000 -2.000000 lineto stroke
newpath 67.500000 0.000000 moveto 67.500000 -2.000000 lineto stroke
newpath 81.000000 0.000000 moveto 81.000000 -5.000000 lineto stroke
newpath 94.500000 0.000000 moveto 94.500000 -2.000000 lineto stroke
newpath 108.000000 0.000000 moveto 108.000000 -2.000000 lineto stroke
newpath 121.500000 0.000000 moveto 121.500000 -2.000000 lineto stroke
newpath 135.000000 0.000000 moveto 135.000000 -2.000000 lineto stroke
newpath 148.500000 0.000000 moveto 148.500000 -5.000000 lineto stroke
newpath 162.000000 0.000000 moveto 162.000000 -2.000000 lineto stroke
newpath 175.500000 0.000000 moveto 175.500000 -2.000000 lineto stroke
newpath 189.000000 0.000000 moveto 189.000000 -2.000000 lineto stroke
newpath 202.500000 0.000000 moveto 202.500000 -2.000000 lineto stroke
newpath 216.000000 0.000000 moveto 216.000000 -5.000000 lineto stroke
gsave 13.500000 -8.000000 translate 90.000000 rotate
0 -2.700000 translate ( 0) dup stringwidth pop neg 0 moveto
show
grestore
gsave 27.000000 -8.000000 translate 90.000000 rotate
0 -2.700000 translate ( 1) dup stringwidth pop neg 0 moveto
show
grestore
gsave 40.500000 -8.000000 translate 90.000000 rotate
0 -2.700000 translate ( 2) dup stringwidth pop neg 0 moveto
show
grestore
gsave 54.000000 -8.000000 translate 90.000000 rotate
0 -2.700000 translate ( 3) dup stringwidth pop neg 0 moveto
show
grestore
gsave 67.500000 -8.000000 translate 90.000000 rotate
0 -2.700000 translate ( 4) dup stringwidth pop neg 0 moveto
show
grestore
gsave 81.000000 -8.000000 translate 90.000000 rotate
0 -2.700000 translate ( 5) dup stringwidth pop neg 0 moveto
show
grestore
gsave 94.500000 -8.000000 translate 90.000000 rotate
0 -2.700000 translate ( 6) dup stringwidth pop neg 0 moveto
show
grestore
gsave 108.000000 -8.000000 translate 90.000000 rotate
0 -2.700000 translate ( 7) dup stringwidth pop neg 0 moveto
show
grestore
gsave 121.500000 -8.000000 translate 90.000000 rotate
0 -2.700000 translate ( 8) dup stringwidth pop neg 0 moveto
show
grestore
gsave 135.000000 -8.000000 translate 90.000000 rotate
0 -2.700000 translate ( 9) dup stringwidth pop neg 0 moveto
show
grestore
gsave 148.500000 -8.000000 translate 90.000000 rotate
0 -2.700000 translate ( 10) dup stringwidth pop neg 0 moveto
show
grestore
gsave 162.000000 -8.000000 translate 90.000000 rotate
0 -2.700000 translate ( 11) dup stringwidth pop neg 0 moveto
show
grestore
gsave 175.500000 -8.000000 translate 90.000000 rotate
0 -2.700000 translate ( 12) dup stringwidth pop neg 0 moveto
show
grestore
gsave 189.000000 -8.000000 translate 90.000000 rotate
0 -2.700000 translate ( 13) dup stringwidth pop neg 0 moveto
show
grestore
gsave 202.500000 -8.000000 translate 90.000000 rotate
0 -2.700000 translate ( 14) dup stringwidth pop neg 0 moveto
show
grestore
gsave 216.000000 -8.000000 translate 90.000000 rotate
0 -2.700000 translate ( 15) dup stringwidth pop neg 0 moveto
show
grestore
/Times-Bold findfont 10.000000 scalefont setfont
gsave 108.000000 -28.959999 translate 0.000000 rotate
0 -6.000000 translate (Recursion size) dup stringwidth pop 2 div neg 0 moveto
show
grestore
 grestore 
0.700000 setlinewidth  gsave newpath 0.000000 0.000000 moveto 0.000000 216.000000 lineto stroke
newpath 0.000000 0.000000 moveto -5.000000 0.000000 lineto stroke
newpath 0.000000 6.545782 moveto -2.000000 6.545782 lineto stroke
newpath 0.000000 13.091563 moveto -2.000000 13.091563 lineto stroke
newpath 0.000000 19.637346 moveto -2.000000 19.637346 lineto stroke
newpath 0.000000 26.183126 moveto -2.000000 26.183126 lineto stroke
newpath 0.000000 32.728909 moveto -2.000000 32.728909 lineto stroke
newpath 0.000000 39.274693 moveto -2.000000 39.274693 lineto stroke
newpath 0.000000 45.820477 moveto -2.000000 45.820477 lineto stroke
newpath 0.000000 52.366257 moveto -2.000000 52.366257 lineto stroke
newpath 0.000000 58.912041 moveto -2.000000 58.912041 lineto stroke
newpath 0.000000 65.457817 moveto -5.000000 65.457817 lineto stroke
newpath 0.000000 72.003601 moveto -2.000000 72.003601 lineto stroke
newpath 0.000000 78.549385 moveto -2.000000 78.549385 lineto stroke
newpath 0.000000 85.095169 moveto -2.000000 85.095169 lineto stroke
newpath 0.000000 91.640953 moveto -2.000000 91.640953 lineto stroke
newpath 0.000000 98.186737 moveto -2.000000 98.186737 lineto stroke
newpath 0.000000 104.732513 moveto -2.000000 104.732513 lineto stroke
newpath 0.000000 111.278297 moveto -2.000000 111.278297 lineto stroke
newpath 0.000000 117.824081 moveto -2.000000 117.824081 lineto stroke
newpath 0.000000 124.369865 moveto -2.000000 124.369865 lineto stroke
newpath 0.000000 130.915634 moveto -5.000000 130.915634 lineto stroke
newpath 0.000000 137.461411 moveto -2.000000 137.461411 lineto stroke
newpath 0.000000 144.007187 moveto -2.000000 144.007187 lineto stroke
newpath 0.000000 150.552963 moveto -2.000000 150.552963 lineto stroke
newpath 0.000000 157.098740 moveto -2.000000 157.098740 lineto stroke
newpath 0.000000 163.644516 moveto -2.000000 163.644516 lineto stroke
newpath 0.000000 170.190292 moveto -2.000000 170.190292 lineto stroke
newpath 0.000000 176.736069 moveto -2.000000 176.736069 lineto stroke
newpath 0.000000 183.281845 moveto -2.000000 183.281845 lineto stroke
newpath 0.000000 189.827606 moveto -2.000000 189.827606 lineto stroke
newpath 0.000000 196.373444 moveto -5.000000 196.373444 lineto stroke
newpath 0.000000 202.919220 moveto -2.000000 202.919220 lineto stroke
newpath 0.000000 209.464996 moveto -2.000000 209.464996 lineto stroke
newpath 0.000000 216.010773 moveto -2.000000 216.010773 lineto stroke
/Times-Roman findfont 9.000000 scalefont setfont
gsave -8.000000 0.000000 translate 0.000000 rotate
0 -2.700000 translate (0) dup stringwidth pop neg 0 moveto
show
grestore
gsave -8.000000 65.457817 translate 0.000000 rotate
0 -2.700000 translate (1) dup stringwidth pop neg 0 moveto
show
grestore
gsave -8.000000 130.915634 translate 0.000000 rotate
0 -2.700000 translate (2) dup stringwidth pop neg 0 moveto
show
grestore
gsave -8.000000 196.373444 translate 0.000000 rotate
0 -2.700000 translate (3) dup stringwidth pop neg 0 moveto
show
grestore
/Times-Bold findfont 10.000000 scalefont setfont
gsave -20.320000 108.000000 translate 90.000000 rotate
0 0.000000 translate (Execution time) dup stringwidth pop 2 div neg 0 moveto
show
grestore
 grestore 
/Times-Roman findfont 12.000000 scalefont setfont
gsave 108.000000 -44.959999 translate 0.000000 rotate
0 -7.200000 translate (par2107) dup stringwidth pop 2 div neg 0 moveto
show 0 -14.400000 translate
(Average elapsed execution time \(multisort only\)) dup stringwidth pop 2 div neg 0 moveto
show 0 -14.400000 translate
(Wed Nov 23 08:37:11 PM CET 2022) dup stringwidth pop 2 div neg 0 moveto
show
grestore
 gsave 
 gsave  gsave  27.000000 102.717453 translate 0.000000 rotate
 newpath 3.375000 0.000000 moveto  -3.375000 0.000000 lineto
  -3.375000 -102.717453 lineto
  3.375000 -102.717453 lineto
closepath gsave 0.500000 setgray  fill grestore
stroke
 grestore  gsave  13.500000 199.632141 translate 0.000000 rotate
 newpath 3.375000 0.000000 moveto  -3.375000 0.000000 lineto
  -3.375000 -199.632141 lineto
  3.375000 -199.632141 lineto
closepath gsave 0.500000 setgray  fill grestore
stroke
 grestore  gsave  40.500000 95.975563 translate 0.000000 rotate
 newpath 3.375000 0.000000 moveto  -3.375000 0.000000 lineto
  -3.375000 -95.975563 lineto
  3.375000 -95.975563 lineto
closepath gsave 0.500000 setgray  fill grestore
stroke
 grestore  gsave  54.000000 97.289490 translate 0.000000 rotate
 newpath 3.375000 0.000000 moveto  -3.375000 0.000000 lineto
  -3.375000 -97.289490 lineto
  3.375000 -97.289490 lineto
closepath gsave 0.500000 setgray  fill grestore
stroke
 grestore  gsave  27.000000 191.405014 translate 0.000000 rotate
 newpath 3.375000 0.000000 moveto  -3.375000 0.000000 lineto
  -3.375000 -191.405014 lineto
  3.375000 -191.405014 lineto
closepath gsave 0.500000 setgray  fill grestore
stroke
 grestore  gsave  67.500000 95.976669 translate 0.000000 rotate
 newpath 3.375000 0.000000 moveto  -3.375000 0.000000 lineto
  -3.375000 -95.976669 lineto
  3.375000 -95.976669 lineto
closepath gsave 0.500000 setgray  fill grestore
stroke
 grestore  gsave  81.000000 97.250549 translate 0.000000 rotate
 newpath 3.375000 0.000000 moveto  -3.375000 0.000000 lineto
  -3.375000 -97.250549 lineto
  3.375000 -97.250549 lineto
closepath gsave 0.500000 setgray  fill grestore
stroke
 grestore  gsave  40.500000 189.751999 translate 0.000000 rotate
 newpath 3.375000 0.000000 moveto  -3.375000 0.000000 lineto
  -3.375000 -189.751999 lineto
  3.375000 -189.751999 lineto
closepath gsave 0.500000 setgray  fill grestore
stroke
 grestore  gsave  94.500000 97.360458 translate 0.000000 rotate
 newpath 3.375000 0.000000 moveto  -3.375000 0.000000 lineto
  -3.375000 -97.360458 lineto
  3.375000 -97.360458 lineto
closepath gsave 0.500000 setgray  fill grestore
stroke
 grestore  gsave  54.000000 189.180084 translate 0.000000 rotate
 newpath 3.375000 0.000000 moveto  -3.375000 0.000000 lineto
  -3.375000 -189.180084 lineto
  3.375000 -189.180084 lineto
closepath gsave 0.500000 setgray  fill grestore
stroke
 grestore  gsave  108.000000 100.219383 translate 0.000000 rotate
 newpath 3.375000 0.000000 moveto  -3.375000 0.000000 lineto
  -3.375000 -100.219383 lineto
  3.375000 -100.219383 lineto
closepath gsave 0.500000 setgray  fill grestore
stroke
 grestore  gsave  121.500000 104.025955 translate 0.000000 rotate
 newpath 3.375000 0.000000 moveto  -3.375000 0.000000 lineto
  -3.375000 -104.025955 lineto
  3.375000 -104.025955 lineto
closepath gsave 0.500000 setgray  fill grestore
stroke
 grestore  gsave  67.500000 189.180801 translate 0.000000 rotate
 newpath 3.375000 0.000000 moveto  -3.375000 0.000000 lineto
  -3.375000 -189.180801 lineto
  3.375000 -189.180801 lineto
closepath gsave 0.500000 setgray  fill grestore
stroke
 grestore  gsave  135.000000 110.533775 translate 0.000000 rotate
 newpath 3.375000 0.000000 moveto  -3.375000 0.000000 lineto
  -3.375000 -110.533775 lineto
  3.375000 -110.533775 lineto
closepath gsave 0.500000 setgray  fill grestore
stroke
 grestore  gsave  81.000000 189.109467 translate 0.000000 rotate
 newpath 3.375000 0.000000 moveto  -3.375000 0.000000 lineto
  -3.375000 -189.109467 lineto
  3.375000 -189.109467 lineto
closepath gsave 0.500000 setgray  fill grestore
stroke
 grestore  gsave  148.500000 117.634636 translate 0.000000 rotate
 newpath 3.375000 0.000000 moveto  -3.375000 0.000000 lineto
  -3.375000 -117.634636 lineto
  3.375000 -117.634636 lineto
closepath gsave 0.500000 setgray  fill grestore
stroke
 grestore  gsave  162.000000 126.462151 translate 0.000000 rotate
 newpath 3.375000 0.000000 moveto  -3.375000 0.000000 lineto
  -3.375000 -126.462151 lineto
  3.375000 -126.462151 lineto
closepath gsave 0.500000 setgray  fill grestore
stroke
 grestore  gsave  94.500000 190.479095 translate 0.000000 rotate
 newpath 3.375000 0.000000 moveto  -3.375000 0.000000 lineto
  -3.375000 -190.479095 lineto
  3.375000 -190.479095 lineto
closepath gsave 0.500000 setgray  fill grestore
stroke
 grestore  gsave  175.500000 135.642532 translate 0.000000 rotate
 newpath 3.375000 0.000000 moveto  -3.375000 0.000000 lineto
  -3.375000 -135.642532 lineto
  3.375000 -135.642532 lineto
closepath gsave 0.500000 setgray  fill grestore
stroke
 grestore  gsave  108.000000 193.122284 translate 0.000000 rotate
 newpath 3.375000 0.000000 moveto  -3.375000 0.000000 lineto
  -3.375000 -193.122284 lineto
  3.375000 -193.122284 lineto
closepath gsave 0.500000 setgray  fill grestore
stroke
 grestore  gsave  189.000000 144.954041 translate 0.000000 rotate
 newpath 3.375000 0.000000 moveto  -3.375000 0.000000 lineto
  -3.375000 -144.954041 lineto
  3.375000 -144.954041 lineto
closepath gsave 0.500000 setgray  fill grestore
stroke
 grestore  gsave  121.500000 206.846573 translate 0.000000 rotate
 newpath 3.375000 0.000000 moveto  -3.375000 0.000000 lineto
  -3.375000 -206.846573 lineto
  3.375000 -206.846573 lineto
closepath gsave 0.500000 setgray  fill grestore
stroke
 grestore  gsave  202.500000 153.140976 translate 0.000000 rotate
 newpath 3.375000 0.000000 moveto  -3.375000 0.000000 lineto
  -3.375000 -153.140976 lineto
  3.375000 -153.140976 lineto
closepath gsave 0.500000 setgray  fill grestore
stroke
 grestore  gsave  135.000000 216.000000 translate 0.000000 rotate
 newpath 3.375000 0.000000 moveto  -3.375000 0.000000 lineto
  -3.375000 -216.000000 lineto
  3.375000 -216.000000 lineto
closepath gsave 0.500000 setgray  fill grestore
stroke
 grestore  gsave  216.000000 161.865585 translate 0.000000 rotate
 newpath 3.375000 0.000000 moveto  -3.375000 0.000000 lineto
  -3.375000 -161.865585 lineto
  3.375000 -161.865585 lineto
closepath gsave 0.500000 setgray  fill grestore
stroke
 grestore  grestore 
 grestore 
-0.000000 -0.000000 translate
 grestore showpage
%%PageTrailer

%%Trailer
%%Pages: 1
%%EOF
