%!PS-Adobe-3.0
%%Pages: (atend)
%%Creator: jgraph
%%EndComments

%%BeginProlog
%%EndProlog
%%BeginSetup
%%EndSetup

%%Page: 1 1
%%BeginPageSetup
%%EndPageSetup

198.000000 328.000000 translate
1 setlinecap 1 setlinejoin
0.700 setlinewidth
0.00 setgray

/Jrnd { exch cvi exch cvi dup 3 1 roll idiv mul } def
/JDEdict 8 dict def
JDEdict /mtrx matrix put
/JDE {
  JDEdict begin
  /yrad exch def
  /xrad exch def
  /savematrix mtrx currentmatrix def
  xrad yrad scale
  0 0 1 0 360 arc
  savematrix setmatrix
  end
} def
/JSTR {
  gsave 1 eq { gsave 1 setgray fill grestore } if
    exch neg exch neg translate 
    clip                        
    rotate                      
    4 dict begin
      pathbbox  /&top exch def
                /&right exch def
                /&bottom exch def
                &right sub /&width exch def
      newpath
      currentlinewidth mul round dup               
      &bottom exch Jrnd exch &top             
      4 -1 roll currentlinewidth mul setlinewidth  
      { &right exch moveto &width 0 rlineto stroke } for    
    end
  grestore
  newpath
} bind def
 gsave /Times-Roman findfont 9.000000 scalefont setfont
0.000000 0.000000 translate
0.700000 setlinewidth  gsave newpath 0.000000 0.000000 moveto 216.000000 0.000000 lineto stroke
newpath 0.000000 0.000000 moveto 0.000000 -2.000000 lineto stroke
newpath 13.500000 0.000000 moveto 13.500000 -5.000000 lineto stroke
newpath 27.000000 0.000000 moveto 27.000000 -2.000000 lineto stroke
newpath 40.500000 0.000000 moveto 40.500000 -2.000000 lineto stroke
newpath 54.000000 0.000000 moveto 54.000000 -2.000000 lineto stroke
newpath 67.500000 0.000000 moveto 67.500000 -2.000000 lineto stroke
newpath 81.000000 0.000000 moveto 81.000000 -5.000000 lineto stroke
newpath 94.500000 0.000000 moveto 94.500000 -2.000000 lineto stroke
newpath 108.000000 0.000000 moveto 108.000000 -2.000000 lineto stroke
newpath 121.500000 0.000000 moveto 121.500000 -2.000000 lineto stroke
newpath 135.000000 0.000000 moveto 135.000000 -2.000000 lineto stroke
newpath 148.500000 0.000000 moveto 148.500000 -5.000000 lineto stroke
newpath 162.000000 0.000000 moveto 162.000000 -2.000000 lineto stroke
newpath 175.500000 0.000000 moveto 175.500000 -2.000000 lineto stroke
newpath 189.000000 0.000000 moveto 189.000000 -2.000000 lineto stroke
newpath 202.500000 0.000000 moveto 202.500000 -2.000000 lineto stroke
newpath 216.000000 0.000000 moveto 216.000000 -5.000000 lineto stroke
gsave 13.500000 -8.000000 translate 90.000000 rotate
0 -2.700000 translate ( 0) dup stringwidth pop neg 0 moveto
show
grestore
gsave 27.000000 -8.000000 translate 90.000000 rotate
0 -2.700000 translate ( 1) dup stringwidth pop neg 0 moveto
show
grestore
gsave 40.500000 -8.000000 translate 90.000000 rotate
0 -2.700000 translate ( 2) dup stringwidth pop neg 0 moveto
show
grestore
gsave 54.000000 -8.000000 translate 90.000000 rotate
0 -2.700000 translate ( 3) dup stringwidth pop neg 0 moveto
show
grestore
gsave 67.500000 -8.000000 translate 90.000000 rotate
0 -2.700000 translate ( 4) dup stringwidth pop neg 0 moveto
show
grestore
gsave 81.000000 -8.000000 translate 90.000000 rotate
0 -2.700000 translate ( 5) dup stringwidth pop neg 0 moveto
show
grestore
gsave 94.500000 -8.000000 translate 90.000000 rotate
0 -2.700000 translate ( 6) dup stringwidth pop neg 0 moveto
show
grestore
gsave 108.000000 -8.000000 translate 90.000000 rotate
0 -2.700000 translate ( 7) dup stringwidth pop neg 0 moveto
show
grestore
gsave 121.500000 -8.000000 translate 90.000000 rotate
0 -2.700000 translate ( 8) dup stringwidth pop neg 0 moveto
show
grestore
gsave 135.000000 -8.000000 translate 90.000000 rotate
0 -2.700000 translate ( 9) dup stringwidth pop neg 0 moveto
show
grestore
gsave 148.500000 -8.000000 translate 90.000000 rotate
0 -2.700000 translate ( 10) dup stringwidth pop neg 0 moveto
show
grestore
gsave 162.000000 -8.000000 translate 90.000000 rotate
0 -2.700000 translate ( 11) dup stringwidth pop neg 0 moveto
show
grestore
gsave 175.500000 -8.000000 translate 90.000000 rotate
0 -2.700000 translate ( 12) dup stringwidth pop neg 0 moveto
show
grestore
gsave 189.000000 -8.000000 translate 90.000000 rotate
0 -2.700000 translate ( 13) dup stringwidth pop neg 0 moveto
show
grestore
gsave 202.500000 -8.000000 translate 90.000000 rotate
0 -2.700000 translate ( 14) dup stringwidth pop neg 0 moveto
show
grestore
gsave 216.000000 -8.000000 translate 90.000000 rotate
0 -2.700000 translate ( 15) dup stringwidth pop neg 0 moveto
show
grestore
/Times-Bold findfont 10.000000 scalefont setfont
gsave 108.000000 -28.959999 translate 0.000000 rotate
0 -6.000000 translate (Recursion size) dup stringwidth pop 2 div neg 0 moveto
show
grestore
 grestore 
0.700000 setlinewidth  gsave newpath 0.000000 0.000000 moveto 0.000000 216.000000 lineto stroke
newpath 0.000000 0.000000 moveto -5.000000 0.000000 lineto stroke
newpath 0.000000 19.636364 moveto -2.000000 19.636364 lineto stroke
newpath 0.000000 39.272728 moveto -5.000000 39.272728 lineto stroke
newpath 0.000000 58.909092 moveto -2.000000 58.909092 lineto stroke
newpath 0.000000 78.545456 moveto -5.000000 78.545456 lineto stroke
newpath 0.000000 98.181824 moveto -2.000000 98.181824 lineto stroke
newpath 0.000000 117.818184 moveto -5.000000 117.818184 lineto stroke
newpath 0.000000 137.454544 moveto -2.000000 137.454544 lineto stroke
newpath 0.000000 157.090912 moveto -5.000000 157.090912 lineto stroke
newpath 0.000000 176.727280 moveto -2.000000 176.727280 lineto stroke
newpath 0.000000 196.363647 moveto -5.000000 196.363647 lineto stroke
newpath 0.000000 216.000000 moveto -2.000000 216.000000 lineto stroke
/Times-Roman findfont 9.000000 scalefont setfont
gsave -8.000000 0.000000 translate 0.000000 rotate
0 -2.700000 translate (0) dup stringwidth pop neg 0 moveto
show
grestore
gsave -8.000000 39.272728 translate 0.000000 rotate
0 -2.700000 translate (2) dup stringwidth pop neg 0 moveto
show
grestore
gsave -8.000000 78.545456 translate 0.000000 rotate
0 -2.700000 translate (4) dup stringwidth pop neg 0 moveto
show
grestore
gsave -8.000000 117.818184 translate 0.000000 rotate
0 -2.700000 translate (6) dup stringwidth pop neg 0 moveto
show
grestore
gsave -8.000000 157.090912 translate 0.000000 rotate
0 -2.700000 translate (8) dup stringwidth pop neg 0 moveto
show
grestore
gsave -8.000000 196.363647 translate 0.000000 rotate
0 -2.700000 translate (10) dup stringwidth pop neg 0 moveto
show
grestore
/Times-Bold findfont 10.000000 scalefont setfont
gsave -24.639999 108.000000 translate 90.000000 rotate
0 0.000000 translate (Execution time) dup stringwidth pop 2 div neg 0 moveto
show
grestore
 grestore 
/Times-Roman findfont 12.000000 scalefont setfont
gsave 108.000000 -44.959999 translate 0.000000 rotate
0 -7.200000 translate (par2107) dup stringwidth pop 2 div neg 0 moveto
show 0 -14.400000 translate
(Average elapsed execution time \(multisort only\)) dup stringwidth pop 2 div neg 0 moveto
show 0 -14.400000 translate
(Wed Nov 23 08:38:38 PM CET 2022) dup stringwidth pop 2 div neg 0 moveto
show
grestore
 gsave 
 gsave  gsave  27.000000 19.186199 translate 0.000000 rotate
 newpath 3.375000 0.000000 moveto  -3.375000 0.000000 lineto
  -3.375000 -19.186199 lineto
  3.375000 -19.186199 lineto
closepath gsave 0.500000 setgray  fill grestore
stroke
 grestore  gsave  40.500000 11.836447 translate 0.000000 rotate
 newpath 3.375000 0.000000 moveto  -3.375000 0.000000 lineto
  -3.375000 -11.836447 lineto
  3.375000 -11.836447 lineto
closepath gsave 0.500000 setgray  fill grestore
stroke
 grestore  gsave  13.500000 49.387928 translate 0.000000 rotate
 newpath 3.375000 0.000000 moveto  -3.375000 0.000000 lineto
  -3.375000 -49.387928 lineto
  3.375000 -49.387928 lineto
closepath gsave 0.500000 setgray  fill grestore
stroke
 grestore  gsave  54.000000 9.087925 translate 0.000000 rotate
 newpath 3.375000 0.000000 moveto  -3.375000 0.000000 lineto
  -3.375000 -9.087925 lineto
  3.375000 -9.087925 lineto
closepath gsave 0.500000 setgray  fill grestore
stroke
 grestore  gsave  27.000000 19.105474 translate 0.000000 rotate
 newpath 3.375000 0.000000 moveto  -3.375000 0.000000 lineto
  -3.375000 -19.105474 lineto
  3.375000 -19.105474 lineto
closepath gsave 0.500000 setgray  fill grestore
stroke
 grestore  gsave  67.500000 8.487563 translate 0.000000 rotate
 newpath 3.375000 0.000000 moveto  -3.375000 0.000000 lineto
  -3.375000 -8.487563 lineto
  3.375000 -8.487563 lineto
closepath gsave 0.500000 setgray  fill grestore
stroke
 grestore  gsave  40.500000 10.053190 translate 0.000000 rotate
 newpath 3.375000 0.000000 moveto  -3.375000 0.000000 lineto
  -3.375000 -10.053190 lineto
  3.375000 -10.053190 lineto
closepath gsave 0.500000 setgray  fill grestore
stroke
 grestore  gsave  81.000000 8.157555 translate 0.000000 rotate
 newpath 3.375000 0.000000 moveto  -3.375000 0.000000 lineto
  -3.375000 -8.157555 lineto
  3.375000 -8.157555 lineto
closepath gsave 0.500000 setgray  fill grestore
stroke
 grestore  gsave  54.000000 7.402673 translate 0.000000 rotate
 newpath 3.375000 0.000000 moveto  -3.375000 0.000000 lineto
  -3.375000 -7.402673 lineto
  3.375000 -7.402673 lineto
closepath gsave 0.500000 setgray  fill grestore
stroke
 grestore  gsave  94.500000 8.118085 translate 0.000000 rotate
 newpath 3.375000 0.000000 moveto  -3.375000 0.000000 lineto
  -3.375000 -8.118085 lineto
  3.375000 -8.118085 lineto
closepath gsave 0.500000 setgray  fill grestore
stroke
 grestore  gsave  67.500000 6.064828 translate 0.000000 rotate
 newpath 3.375000 0.000000 moveto  -3.375000 0.000000 lineto
  -3.375000 -6.064828 lineto
  3.375000 -6.064828 lineto
closepath gsave 0.500000 setgray  fill grestore
stroke
 grestore  gsave  108.000000 8.214028 translate 0.000000 rotate
 newpath 3.375000 0.000000 moveto  -3.375000 0.000000 lineto
  -3.375000 -8.214028 lineto
  3.375000 -8.214028 lineto
closepath gsave 0.500000 setgray  fill grestore
stroke
 grestore  gsave  81.000000 5.539595 translate 0.000000 rotate
 newpath 3.375000 0.000000 moveto  -3.375000 0.000000 lineto
  -3.375000 -5.539595 lineto
  3.375000 -5.539595 lineto
closepath gsave 0.500000 setgray  fill grestore
stroke
 grestore  gsave  121.500000 8.641120 translate 0.000000 rotate
 newpath 3.375000 0.000000 moveto  -3.375000 0.000000 lineto
  -3.375000 -8.641120 lineto
  3.375000 -8.641120 lineto
closepath gsave 0.500000 setgray  fill grestore
stroke
 grestore  gsave  94.500000 5.485085 translate 0.000000 rotate
 newpath 3.375000 0.000000 moveto  -3.375000 0.000000 lineto
  -3.375000 -5.485085 lineto
  3.375000 -5.485085 lineto
closepath gsave 0.500000 setgray  fill grestore
stroke
 grestore  gsave  135.000000 9.155416 translate 0.000000 rotate
 newpath 3.375000 0.000000 moveto  -3.375000 0.000000 lineto
  -3.375000 -9.155416 lineto
  3.375000 -9.155416 lineto
closepath gsave 0.500000 setgray  fill grestore
stroke
 grestore  gsave  108.000000 5.544151 translate 0.000000 rotate
 newpath 3.375000 0.000000 moveto  -3.375000 0.000000 lineto
  -3.375000 -5.544151 lineto
  3.375000 -5.544151 lineto
closepath gsave 0.500000 setgray  fill grestore
stroke
 grestore  gsave  148.500000 9.879132 translate 0.000000 rotate
 newpath 3.375000 0.000000 moveto  -3.375000 0.000000 lineto
  -3.375000 -9.879132 lineto
  3.375000 -9.879132 lineto
closepath gsave 0.500000 setgray  fill grestore
stroke
 grestore  gsave  121.500000 5.877655 translate 0.000000 rotate
 newpath 3.375000 0.000000 moveto  -3.375000 0.000000 lineto
  -3.375000 -5.877655 lineto
  3.375000 -5.877655 lineto
closepath gsave 0.500000 setgray  fill grestore
stroke
 grestore  gsave  135.000000 216.000000 translate 0.000000 rotate
 newpath 3.375000 0.000000 moveto  -3.375000 0.000000 lineto
  -3.375000 -216.000000 lineto
  3.375000 -216.000000 lineto
closepath gsave 0.500000 setgray  fill grestore
stroke
 grestore  gsave  17.777111 10.737929 translate 0.000000 rotate
 newpath 3.375000 0.000000 moveto  -3.375000 0.000000 lineto
  -3.375000 -10.737929 lineto
  3.375000 -10.737929 lineto
closepath gsave 0.500000 setgray  fill grestore
stroke
 grestore  gsave  148.500000 6.769676 translate 0.000000 rotate
 newpath 3.375000 0.000000 moveto  -3.375000 0.000000 lineto
  -3.375000 -6.769676 lineto
  3.375000 -6.769676 lineto
closepath gsave 0.500000 setgray  fill grestore
stroke
 grestore  gsave  175.500000 11.326491 translate 0.000000 rotate
 newpath 3.375000 0.000000 moveto  -3.375000 0.000000 lineto
  -3.375000 -11.326491 lineto
  3.375000 -11.326491 lineto
closepath gsave 0.500000 setgray  fill grestore
stroke
 grestore  gsave  162.000000 7.190915 translate 0.000000 rotate
 newpath 3.375000 0.000000 moveto  -3.375000 0.000000 lineto
  -3.375000 -7.190915 lineto
  3.375000 -7.190915 lineto
closepath gsave 0.500000 setgray  fill grestore
stroke
 grestore  gsave  189.000000 12.050209 translate 0.000000 rotate
 newpath 3.375000 0.000000 moveto  -3.375000 0.000000 lineto
  -3.375000 -12.050209 lineto
  3.375000 -12.050209 lineto
closepath gsave 0.500000 setgray  fill grestore
stroke
 grestore  gsave  175.500000 7.581501 translate 0.000000 rotate
 newpath 3.375000 0.000000 moveto  -3.375000 0.000000 lineto
  -3.375000 -7.581501 lineto
  3.375000 -7.581501 lineto
closepath gsave 0.500000 setgray  fill grestore
stroke
 grestore  gsave  202.500000 12.815201 translate 0.000000 rotate
 newpath 3.375000 0.000000 moveto  -3.375000 0.000000 lineto
  -3.375000 -12.815201 lineto
  3.375000 -12.815201 lineto
closepath gsave 0.500000 setgray  fill grestore
stroke
 grestore  gsave  189.000000 8.090594 translate 0.000000 rotate
 newpath 3.375000 0.000000 moveto  -3.375000 0.000000 lineto
  -3.375000 -8.090594 lineto
  3.375000 -8.090594 lineto
closepath gsave 0.500000 setgray  fill grestore
stroke
 grestore  gsave  216.000000 13.743137 translate 0.000000 rotate
 newpath 3.375000 0.000000 moveto  -3.375000 0.000000 lineto
  -3.375000 -13.743137 lineto
  3.375000 -13.743137 lineto
closepath gsave 0.500000 setgray  fill grestore
stroke
 grestore  gsave  202.500000 8.562554 translate 0.000000 rotate
 newpath 3.375000 0.000000 moveto  -3.375000 0.000000 lineto
  -3.375000 -8.562554 lineto
  3.375000 -8.562554 lineto
closepath gsave 0.500000 setgray  fill grestore
stroke
 grestore  grestore 
 grestore 
-0.000000 -0.000000 translate
 grestore showpage
%%PageTrailer

%%Trailer
%%Pages: 1
%%EOF
