%!PS-Adobe-3.0
%%Pages: (atend)
%%Creator: jgraph
%%EndComments

%%BeginProlog
%%EndProlog
%%BeginSetup
%%EndSetup

%%Page: 1 1
%%BeginPageSetup
%%EndPageSetup

198.500000 328.000000 translate
1 setlinecap 1 setlinejoin
0.700 setlinewidth
0.00 setgray

/Jrnd { exch cvi exch cvi dup 3 1 roll idiv mul } def
/JDEdict 8 dict def
JDEdict /mtrx matrix put
/JDE {
  JDEdict begin
  /yrad exch def
  /xrad exch def
  /savematrix mtrx currentmatrix def
  xrad yrad scale
  0 0 1 0 360 arc
  savematrix setmatrix
  end
} def
/JSTR {
  gsave 1 eq { gsave 1 setgray fill grestore } if
    exch neg exch neg translate 
    clip                        
    rotate                      
    4 dict begin
      pathbbox  /&top exch def
                /&right exch def
                /&bottom exch def
                &right sub /&width exch def
      newpath
      currentlinewidth mul round dup               
      &bottom exch Jrnd exch &top             
      4 -1 roll currentlinewidth mul setlinewidth  
      { &right exch moveto &width 0 rlineto stroke } for    
    end
  grestore
  newpath
} bind def
 gsave /Times-Roman findfont 9.000000 scalefont setfont
0.000000 0.000000 translate
0.700000 setlinewidth  gsave newpath 0.000000 0.000000 moveto 216.000000 0.000000 lineto stroke
newpath 0.000000 0.000000 moveto 0.000000 -2.000000 lineto stroke
newpath 13.500000 0.000000 moveto 13.500000 -5.000000 lineto stroke
newpath 27.000000 0.000000 moveto 27.000000 -2.000000 lineto stroke
newpath 40.500000 0.000000 moveto 40.500000 -2.000000 lineto stroke
newpath 54.000000 0.000000 moveto 54.000000 -2.000000 lineto stroke
newpath 67.500000 0.000000 moveto 67.500000 -2.000000 lineto stroke
newpath 81.000000 0.000000 moveto 81.000000 -5.000000 lineto stroke
newpath 94.500000 0.000000 moveto 94.500000 -2.000000 lineto stroke
newpath 108.000000 0.000000 moveto 108.000000 -2.000000 lineto stroke
newpath 121.500000 0.000000 moveto 121.500000 -2.000000 lineto stroke
newpath 135.000000 0.000000 moveto 135.000000 -2.000000 lineto stroke
newpath 148.500000 0.000000 moveto 148.500000 -5.000000 lineto stroke
newpath 162.000000 0.000000 moveto 162.000000 -2.000000 lineto stroke
newpath 175.500000 0.000000 moveto 175.500000 -2.000000 lineto stroke
newpath 189.000000 0.000000 moveto 189.000000 -2.000000 lineto stroke
newpath 202.500000 0.000000 moveto 202.500000 -2.000000 lineto stroke
newpath 216.000000 0.000000 moveto 216.000000 -5.000000 lineto stroke
gsave 13.500000 -8.000000 translate 90.000000 rotate
0 -2.700000 translate ( 0) dup stringwidth pop neg 0 moveto
show
grestore
gsave 27.000000 -8.000000 translate 90.000000 rotate
0 -2.700000 translate ( 1) dup stringwidth pop neg 0 moveto
show
grestore
gsave 40.500000 -8.000000 translate 90.000000 rotate
0 -2.700000 translate ( 2) dup stringwidth pop neg 0 moveto
show
grestore
gsave 54.000000 -8.000000 translate 90.000000 rotate
0 -2.700000 translate ( 3) dup stringwidth pop neg 0 moveto
show
grestore
gsave 67.500000 -8.000000 translate 90.000000 rotate
0 -2.700000 translate ( 4) dup stringwidth pop neg 0 moveto
show
grestore
gsave 81.000000 -8.000000 translate 90.000000 rotate
0 -2.700000 translate ( 5) dup stringwidth pop neg 0 moveto
show
grestore
gsave 94.500000 -8.000000 translate 90.000000 rotate
0 -2.700000 translate ( 6) dup stringwidth pop neg 0 moveto
show
grestore
gsave 108.000000 -8.000000 translate 90.000000 rotate
0 -2.700000 translate ( 7) dup stringwidth pop neg 0 moveto
show
grestore
gsave 121.500000 -8.000000 translate 90.000000 rotate
0 -2.700000 translate ( 8) dup stringwidth pop neg 0 moveto
show
grestore
gsave 135.000000 -8.000000 translate 90.000000 rotate
0 -2.700000 translate ( 9) dup stringwidth pop neg 0 moveto
show
grestore
gsave 148.500000 -8.000000 translate 90.000000 rotate
0 -2.700000 translate ( 10) dup stringwidth pop neg 0 moveto
show
grestore
gsave 162.000000 -8.000000 translate 90.000000 rotate
0 -2.700000 translate ( 11) dup stringwidth pop neg 0 moveto
show
grestore
gsave 175.500000 -8.000000 translate 90.000000 rotate
0 -2.700000 translate ( 12) dup stringwidth pop neg 0 moveto
show
grestore
gsave 189.000000 -8.000000 translate 90.000000 rotate
0 -2.700000 translate ( 13) dup stringwidth pop neg 0 moveto
show
grestore
gsave 202.500000 -8.000000 translate 90.000000 rotate
0 -2.700000 translate ( 14) dup stringwidth pop neg 0 moveto
show
grestore
gsave 216.000000 -8.000000 translate 90.000000 rotate
0 -2.700000 translate ( 15) dup stringwidth pop neg 0 moveto
show
grestore
/Times-Bold findfont 10.000000 scalefont setfont
gsave 108.000000 -28.959999 translate 0.000000 rotate
0 -6.000000 translate (Recursion size) dup stringwidth pop 2 div neg 0 moveto
show
grestore
 grestore 
0.700000 setlinewidth  gsave newpath 0.000000 0.000000 moveto 0.000000 216.000000 lineto stroke
newpath 0.000000 0.000000 moveto -5.000000 0.000000 lineto stroke
newpath 0.000000 11.673196 moveto -2.000000 11.673196 lineto stroke
newpath 0.000000 23.346392 moveto -2.000000 23.346392 lineto stroke
newpath 0.000000 35.019588 moveto -2.000000 35.019588 lineto stroke
newpath 0.000000 46.692783 moveto -2.000000 46.692783 lineto stroke
newpath 0.000000 58.365978 moveto -5.000000 58.365978 lineto stroke
newpath 0.000000 70.039177 moveto -2.000000 70.039177 lineto stroke
newpath 0.000000 81.712372 moveto -2.000000 81.712372 lineto stroke
newpath 0.000000 93.385574 moveto -2.000000 93.385574 lineto stroke
newpath 0.000000 105.058769 moveto -2.000000 105.058769 lineto stroke
newpath 0.000000 116.731956 moveto -5.000000 116.731956 lineto stroke
newpath 0.000000 128.405151 moveto -2.000000 128.405151 lineto stroke
newpath 0.000000 140.078354 moveto -2.000000 140.078354 lineto stroke
newpath 0.000000 151.751556 moveto -2.000000 151.751556 lineto stroke
newpath 0.000000 163.424744 moveto -2.000000 163.424744 lineto stroke
newpath 0.000000 175.097931 moveto -5.000000 175.097931 lineto stroke
newpath 0.000000 186.771133 moveto -2.000000 186.771133 lineto stroke
newpath 0.000000 198.444336 moveto -2.000000 198.444336 lineto stroke
newpath 0.000000 210.117523 moveto -2.000000 210.117523 lineto stroke
/Times-Roman findfont 9.000000 scalefont setfont
gsave -8.000000 0.000000 translate 0.000000 rotate
0 -2.700000 translate (0.0) dup stringwidth pop neg 0 moveto
show
grestore
gsave -8.000000 58.365978 translate 0.000000 rotate
0 -2.700000 translate (0.5) dup stringwidth pop neg 0 moveto
show
grestore
gsave -8.000000 116.731956 translate 0.000000 rotate
0 -2.700000 translate (1.0) dup stringwidth pop neg 0 moveto
show
grestore
gsave -8.000000 175.097931 translate 0.000000 rotate
0 -2.700000 translate (1.5) dup stringwidth pop neg 0 moveto
show
grestore
/Times-Bold findfont 10.000000 scalefont setfont
gsave -28.959999 108.000000 translate 90.000000 rotate
0 0.000000 translate (Execution time) dup stringwidth pop 2 div neg 0 moveto
show
grestore
 grestore 
/Times-Roman findfont 12.000000 scalefont setfont
gsave 108.000000 -44.959999 translate 0.000000 rotate
0 -7.200000 translate (par2107) dup stringwidth pop 2 div neg 0 moveto
show 0 -14.400000 translate
(Average elapsed execution time \(multisort only\)) dup stringwidth pop 2 div neg 0 moveto
show 0 -14.400000 translate
(Wed Nov 23 08:28:17 PM CET 2022) dup stringwidth pop 2 div neg 0 moveto
show
grestore
 gsave 
 gsave  gsave  13.500000 216.000000 translate 0.000000 rotate
 newpath 3.375000 0.000000 moveto  -3.375000 0.000000 lineto
  -3.375000 -216.000000 lineto
  3.375000 -216.000000 lineto
closepath gsave 0.500000 setgray  fill grestore
stroke
 grestore  gsave  27.000000 136.787323 translate 0.000000 rotate
 newpath 3.375000 0.000000 moveto  -3.375000 0.000000 lineto
  -3.375000 -136.787323 lineto
  3.375000 -136.787323 lineto
closepath gsave 0.500000 setgray  fill grestore
stroke
 grestore  gsave  40.500000 113.817162 translate 0.000000 rotate
 newpath 3.375000 0.000000 moveto  -3.375000 0.000000 lineto
  -3.375000 -113.817162 lineto
  3.375000 -113.817162 lineto
closepath gsave 0.500000 setgray  fill grestore
stroke
 grestore  gsave  54.000000 93.125725 translate 0.000000 rotate
 newpath 3.375000 0.000000 moveto  -3.375000 0.000000 lineto
  -3.375000 -93.125725 lineto
  3.375000 -93.125725 lineto
closepath gsave 0.500000 setgray  fill grestore
stroke
 grestore  gsave  67.500000 90.688705 translate 0.000000 rotate
 newpath 3.375000 0.000000 moveto  -3.375000 0.000000 lineto
  -3.375000 -90.688705 lineto
  3.375000 -90.688705 lineto
closepath gsave 0.500000 setgray  fill grestore
stroke
 grestore  gsave  81.000000 90.380188 translate 0.000000 rotate
 newpath 3.375000 0.000000 moveto  -3.375000 0.000000 lineto
  -3.375000 -90.380188 lineto
  3.375000 -90.380188 lineto
closepath gsave 0.500000 setgray  fill grestore
stroke
 grestore  gsave  94.500000 92.254433 translate 0.000000 rotate
 newpath 3.375000 0.000000 moveto  -3.375000 0.000000 lineto
  -3.375000 -92.254433 lineto
  3.375000 -92.254433 lineto
closepath gsave 0.500000 setgray  fill grestore
stroke
 grestore  gsave  108.000000 91.807579 translate 0.000000 rotate
 newpath 3.375000 0.000000 moveto  -3.375000 0.000000 lineto
  -3.375000 -91.807579 lineto
  3.375000 -91.807579 lineto
closepath gsave 0.500000 setgray  fill grestore
stroke
 grestore  gsave  121.500000 97.603096 translate 0.000000 rotate
 newpath 3.375000 0.000000 moveto  -3.375000 0.000000 lineto
  -3.375000 -97.603096 lineto
  3.375000 -97.603096 lineto
closepath gsave 0.500000 setgray  fill grestore
stroke
 grestore  gsave  135.000000 106.160362 translate 0.000000 rotate
 newpath 3.375000 0.000000 moveto  -3.375000 0.000000 lineto
  -3.375000 -106.160362 lineto
  3.375000 -106.160362 lineto
closepath gsave 0.500000 setgray  fill grestore
stroke
 grestore  gsave  148.500000 113.222878 translate 0.000000 rotate
 newpath 3.375000 0.000000 moveto  -3.375000 0.000000 lineto
  -3.375000 -113.222878 lineto
  3.375000 -113.222878 lineto
closepath gsave 0.500000 setgray  fill grestore
stroke
 grestore  gsave  162.000000 122.319214 translate 0.000000 rotate
 newpath 3.375000 0.000000 moveto  -3.375000 0.000000 lineto
  -3.375000 -122.319214 lineto
  3.375000 -122.319214 lineto
closepath gsave 0.500000 setgray  fill grestore
stroke
 grestore  gsave  175.500000 130.842514 translate 0.000000 rotate
 newpath 3.375000 0.000000 moveto  -3.375000 0.000000 lineto
  -3.375000 -130.842514 lineto
  3.375000 -130.842514 lineto
closepath gsave 0.500000 setgray  fill grestore
stroke
 grestore  gsave  189.000000 138.440475 translate 0.000000 rotate
 newpath 3.375000 0.000000 moveto  -3.375000 0.000000 lineto
  -3.375000 -138.440475 lineto
  3.375000 -138.440475 lineto
closepath gsave 0.500000 setgray  fill grestore
stroke
 grestore  gsave  202.500000 147.695923 translate 0.000000 rotate
 newpath 3.375000 0.000000 moveto  -3.375000 0.000000 lineto
  -3.375000 -147.695923 lineto
  3.375000 -147.695923 lineto
closepath gsave 0.500000 setgray  fill grestore
stroke
 grestore  gsave  216.000000 156.193893 translate 0.000000 rotate
 newpath 3.375000 0.000000 moveto  -3.375000 0.000000 lineto
  -3.375000 -156.193893 lineto
  3.375000 -156.193893 lineto
closepath gsave 0.500000 setgray  fill grestore
stroke
 grestore  grestore 
 grestore 
-0.000000 -0.000000 translate
 grestore showpage
%%PageTrailer

%%Trailer
%%Pages: 1
%%EOF
