1   1.00856164383561643835
2   1.57908847184986595174
3   1.93750000000000000000
4   2.50638297872340425531
5   2.65315315315315315315
6   2.76525821596244131455
7   2.87317073170731707317
8   2.81818181818181818181
9   2.68949771689497716894
10   2.35600000000000000000
11   2.17343173431734317343
12   2.10357142857142857142
13   2.18959107806691449814
14   1.97651006711409395973
15   1.96333333333333333333
16   1.92483660130718954248
17   1.91856677524429967426
18   1.86392405063291139240
19   1.88178913738019169329
20   1.84639498432601880877
