Overview of whole program execution metrics:
============================================================================================================================================
   Number of processors |          1 |          2 |          4 |          6 |          8 |         10 |         12 |         14 |         16
============================================================================================================================================
Elapsed time (sec)      |       0.21 |       0.23 |       0.19 |       0.20 |       0.22 |       0.22 |       0.25 |       0.28 |       0.25
Speedup                 |       1.00 |       0.90 |       1.09 |       1.07 |       0.97 |       0.95 |       0.85 |       0.76 |       0.83
Efficiency              |       1.00 |       0.45 |       0.27 |       0.18 |       0.12 |       0.09 |       0.07 |       0.05 |       0.05
============================================================================================================================================

Overview of the Efficiency metrics in parallel fraction:
===========================================================================================================================================================
                  Number of processors |          1 |          2 |          4 |          6 |          8 |         10 |         12 |         14 |         16
===========================================================================================================================================================
Parallel fraction                      |     89.15% | 
------------------------------------------------------
Global efficiency                      |     92.14% |     41.05% |     25.56% |     16.75% |     11.30% |      8.74% |      6.48% |      4.91% |      4.74%
-- Parallelization strategy efficiency |     92.14% |     55.79% |     40.34% |     29.00% |     19.39% |     15.65% |     12.55% |     10.99% |     10.08%
   -- Load balancing                   |    100.00% |     98.59% |     92.84% |     64.29% |     41.36% |     30.41% |     22.08% |     15.68% |     14.82%
   -- In execution efficiency          |     92.14% |     56.59% |     43.46% |     45.11% |     46.89% |     51.48% |     56.82% |     70.12% |     68.03%
-- Scalability for computation tasks   |    100.00% |     73.57% |     63.36% |     57.76% |     58.26% |     55.80% |     51.64% |     44.71% |     47.04%
   -- IPC scalability                  |    100.00% |     65.11% |     56.89% |     54.85% |     54.70% |     53.67% |     49.85% |     44.96% |     47.16%
   -- Instruction scalability          |    100.00% |    112.64% |    113.24% |    112.48% |    112.76% |    112.13% |    111.60% |    108.57% |    108.99%
   -- Frequency scalability            |    100.00% |    100.32% |     98.36% |     93.62% |     94.45% |     92.73% |     92.82% |     91.59% |     91.52%
===========================================================================================================================================================

Statistics about explicit tasks in parallel fraction
==================================================================================================================================================================================================================
                            Number of processors |               1 |               2 |               4 |               6 |               8 |              10 |              12 |              14 |              16
==================================================================================================================================================================================================================
Number of explicit tasks executed (total)        |         53248.0 |         53248.0 |         53248.0 |         53248.0 |         53248.0 |         53248.0 |         53248.0 |         53248.0 |         53248.0
LB (number of explicit tasks executed)           |             1.0 |            0.68 |            0.73 |            0.77 |            0.76 |            0.77 |            0.77 |            0.77 |            0.79
LB (time executing explicit tasks)               |             1.0 |             0.8 |            0.81 |            0.82 |            0.79 |             0.8 |             0.8 |            0.84 |            0.87
Time per explicit task (average)                 |            2.73 |            3.48 |            4.09 |            4.25 |            3.97 |            3.98 |            3.99 |            4.02 |            4.08
Overhead per explicit task (synch %)             |            0.86 |            68.4 |          147.57 |          294.83 |          548.91 |          756.78 |         1069.23 |         1442.89 |         1491.63
Overhead per explicit task (sched %)             |            9.28 |           32.16 |           37.79 |            29.7 |           35.21 |           32.18 |           31.67 |           21.21 |           20.57
Number of taskwait/taskgroup (total)             |          2730.0 |          2730.0 |          2730.0 |          2730.0 |          2730.0 |          2730.0 |          2730.0 |          2730.0 |          2730.0
==================================================================================================================================================================================================================

