%!PS-Adobe-3.0
%%Pages: (atend)
%%Creator: jgraph
%%EndComments

%%BeginProlog
%%EndProlog
%%BeginSetup
%%EndSetup

%%Page: 1 1
%%BeginPageSetup
%%EndPageSetup

198.500000 328.000000 translate
1 setlinecap 1 setlinejoin
0.700 setlinewidth
0.00 setgray

/Jrnd { exch cvi exch cvi dup 3 1 roll idiv mul } def
/JDEdict 8 dict def
JDEdict /mtrx matrix put
/JDE {
  JDEdict begin
  /yrad exch def
  /xrad exch def
  /savematrix mtrx currentmatrix def
  xrad yrad scale
  0 0 1 0 360 arc
  savematrix setmatrix
  end
} def
/JSTR {
  gsave 1 eq { gsave 1 setgray fill grestore } if
    exch neg exch neg translate 
    clip                        
    rotate                      
    4 dict begin
      pathbbox  /&top exch def
                /&right exch def
                /&bottom exch def
                &right sub /&width exch def
      newpath
      currentlinewidth mul round dup               
      &bottom exch Jrnd exch &top             
      4 -1 roll currentlinewidth mul setlinewidth  
      { &right exch moveto &width 0 rlineto stroke } for    
    end
  grestore
  newpath
} bind def
 gsave /Times-Roman findfont 9.000000 scalefont setfont
0.000000 0.000000 translate
0.700000 setlinewidth  gsave newpath 0.000000 0.000000 moveto 216.000000 0.000000 lineto stroke
newpath 13.787233 0.000000 moveto 13.787233 -2.000000 lineto stroke
newpath 32.170212 0.000000 moveto 32.170212 -5.000000 lineto stroke
newpath 50.553192 0.000000 moveto 50.553192 -2.000000 lineto stroke
newpath 68.936172 0.000000 moveto 68.936172 -5.000000 lineto stroke
newpath 87.319145 0.000000 moveto 87.319145 -2.000000 lineto stroke
newpath 105.702126 0.000000 moveto 105.702126 -5.000000 lineto stroke
newpath 124.085106 0.000000 moveto 124.085106 -2.000000 lineto stroke
newpath 142.468079 0.000000 moveto 142.468079 -5.000000 lineto stroke
newpath 160.851059 0.000000 moveto 160.851059 -2.000000 lineto stroke
newpath 179.234039 0.000000 moveto 179.234039 -5.000000 lineto stroke
newpath 197.617020 0.000000 moveto 197.617020 -2.000000 lineto stroke
newpath 216.000000 0.000000 moveto 216.000000 -5.000000 lineto stroke
gsave 13.787233 -8.000000 translate 90.000000 rotate
0 -2.700000 translate ( 1) dup stringwidth pop neg 0 moveto
show
grestore
gsave 32.170212 -8.000000 translate 90.000000 rotate
0 -2.700000 translate ( 2) dup stringwidth pop neg 0 moveto
show
grestore
gsave 50.553192 -8.000000 translate 90.000000 rotate
0 -2.700000 translate ( 3) dup stringwidth pop neg 0 moveto
show
grestore
gsave 68.936172 -8.000000 translate 90.000000 rotate
0 -2.700000 translate ( 4) dup stringwidth pop neg 0 moveto
show
grestore
gsave 87.319145 -8.000000 translate 90.000000 rotate
0 -2.700000 translate ( 5) dup stringwidth pop neg 0 moveto
show
grestore
gsave 105.702126 -8.000000 translate 90.000000 rotate
0 -2.700000 translate ( 6) dup stringwidth pop neg 0 moveto
show
grestore
gsave 124.085106 -8.000000 translate 90.000000 rotate
0 -2.700000 translate ( 7) dup stringwidth pop neg 0 moveto
show
grestore
gsave 142.468079 -8.000000 translate 90.000000 rotate
0 -2.700000 translate ( 8) dup stringwidth pop neg 0 moveto
show
grestore
gsave 160.851059 -8.000000 translate 90.000000 rotate
0 -2.700000 translate ( 9) dup stringwidth pop neg 0 moveto
show
grestore
gsave 179.234039 -8.000000 translate 90.000000 rotate
0 -2.700000 translate ( 10) dup stringwidth pop neg 0 moveto
show
grestore
gsave 197.617020 -8.000000 translate 90.000000 rotate
0 -2.700000 translate ( 11) dup stringwidth pop neg 0 moveto
show
grestore
gsave 216.000000 -8.000000 translate 90.000000 rotate
0 -2.700000 translate ( 12) dup stringwidth pop neg 0 moveto
show
grestore
/Times-Bold findfont 10.000000 scalefont setfont
gsave 108.000000 -28.959999 translate 0.000000 rotate
0 -6.000000 translate (Value for user parameter) dup stringwidth pop 2 div neg 0 moveto
show
grestore
 grestore 
0.700000 setlinewidth  gsave newpath 0.000000 0.000000 moveto 0.000000 216.000000 lineto stroke
newpath 0.000000 0.000000 moveto -5.000000 0.000000 lineto stroke
newpath 0.000000 22.268042 moveto -2.000000 22.268042 lineto stroke
newpath 0.000000 44.536083 moveto -5.000000 44.536083 lineto stroke
newpath 0.000000 66.804123 moveto -2.000000 66.804123 lineto stroke
newpath 0.000000 89.072166 moveto -5.000000 89.072166 lineto stroke
newpath 0.000000 111.340202 moveto -2.000000 111.340202 lineto stroke
newpath 0.000000 133.608246 moveto -5.000000 133.608246 lineto stroke
newpath 0.000000 155.876297 moveto -2.000000 155.876297 lineto stroke
newpath 0.000000 178.144333 moveto -5.000000 178.144333 lineto stroke
newpath 0.000000 200.412369 moveto -2.000000 200.412369 lineto stroke
/Times-Roman findfont 9.000000 scalefont setfont
gsave -8.000000 0.000000 translate 0.000000 rotate
0 -2.700000 translate (0.0) dup stringwidth pop neg 0 moveto
show
grestore
gsave -8.000000 44.536083 translate 0.000000 rotate
0 -2.700000 translate (0.2) dup stringwidth pop neg 0 moveto
show
grestore
gsave -8.000000 89.072166 translate 0.000000 rotate
0 -2.700000 translate (0.4) dup stringwidth pop neg 0 moveto
show
grestore
gsave -8.000000 133.608246 translate 0.000000 rotate
0 -2.700000 translate (0.6) dup stringwidth pop neg 0 moveto
show
grestore
gsave -8.000000 178.144333 translate 0.000000 rotate
0 -2.700000 translate (0.8) dup stringwidth pop neg 0 moveto
show
grestore
/Times-Bold findfont 10.000000 scalefont setfont
gsave -28.959999 108.000000 translate 90.000000 rotate
0 0.000000 translate (Execution time) dup stringwidth pop 2 div neg 0 moveto
show
grestore
 grestore 
/Times-Roman findfont 12.000000 scalefont setfont
gsave 108.000000 -44.959999 translate 0.000000 rotate
0 -7.200000 translate (par2107) dup stringwidth pop 2 div neg 0 moveto
show 0 -14.400000 translate
(Average elapsed execution time \(heat difussion\)) dup stringwidth pop 2 div neg 0 moveto
show 0 -14.400000 translate
(Sun Dec 25 07:48:09 PM CET 2022) dup stringwidth pop 2 div neg 0 moveto
show
grestore
 gsave 
 gsave  gsave  68.936172 163.892776 translate 0.000000 rotate
 newpath 4.595745 0.000000 moveto  -4.595745 0.000000 lineto
  -4.595745 -163.892776 lineto
  4.595745 -163.892776 lineto
closepath gsave 0.500000 setgray  fill grestore
stroke
 grestore  gsave  87.319145 149.195877 translate 0.000000 rotate
 newpath 4.595745 0.000000 moveto  -4.595745 0.000000 lineto
  -4.595745 -149.195877 lineto
  4.595745 -149.195877 lineto
closepath gsave 0.500000 setgray  fill grestore
stroke
 grestore  gsave  13.787233 216.000000 translate 0.000000 rotate
 newpath 4.595745 0.000000 moveto  -4.595745 0.000000 lineto
  -4.595745 -216.000000 lineto
  4.595745 -216.000000 lineto
closepath gsave 0.500000 setgray  fill grestore
stroke
 grestore  gsave  105.702126 139.175247 translate 0.000000 rotate
 newpath 4.595745 0.000000 moveto  -4.595745 0.000000 lineto
  -4.595745 -139.175247 lineto
  4.595745 -139.175247 lineto
closepath gsave 0.500000 setgray  fill grestore
stroke
 grestore  gsave  32.170212 160.997925 translate 0.000000 rotate
 newpath 4.595745 0.000000 moveto  -4.595745 0.000000 lineto
  -4.595745 -160.997925 lineto
  4.595745 -160.997925 lineto
closepath gsave 0.500000 setgray  fill grestore
stroke
 grestore  gsave  124.085106 134.053604 translate 0.000000 rotate
 newpath 4.595745 0.000000 moveto  -4.595745 0.000000 lineto
  -4.595745 -134.053604 lineto
  4.595745 -134.053604 lineto
closepath gsave 0.500000 setgray  fill grestore
stroke
 grestore  gsave  50.553192 139.620605 translate 0.000000 rotate
 newpath 4.595745 0.000000 moveto  -4.595745 0.000000 lineto
  -4.595745 -139.620605 lineto
  4.595745 -139.620605 lineto
closepath gsave 0.500000 setgray  fill grestore
stroke
 grestore  gsave  142.468079 130.490723 translate 0.000000 rotate
 newpath 4.595745 0.000000 moveto  -4.595745 0.000000 lineto
  -4.595745 -130.490723 lineto
  4.595745 -130.490723 lineto
closepath gsave 0.500000 setgray  fill grestore
stroke
 grestore  gsave  68.936172 125.146385 translate 0.000000 rotate
 newpath 4.595745 0.000000 moveto  -4.595745 0.000000 lineto
  -4.595745 -125.146385 lineto
  4.595745 -125.146385 lineto
closepath gsave 0.500000 setgray  fill grestore
stroke
 grestore  gsave  160.851059 128.709274 translate 0.000000 rotate
 newpath 4.595745 0.000000 moveto  -4.595745 0.000000 lineto
  -4.595745 -128.709274 lineto
  4.595745 -128.709274 lineto
closepath gsave 0.500000 setgray  fill grestore
stroke
 grestore  gsave  87.319145 116.907204 translate 0.000000 rotate
 newpath 4.595745 0.000000 moveto  -4.595745 0.000000 lineto
  -4.595745 -116.907204 lineto
  4.595745 -116.907204 lineto
closepath gsave 0.500000 setgray  fill grestore
stroke
 grestore  gsave  105.702126 110.894844 translate 0.000000 rotate
 newpath 4.595745 0.000000 moveto  -4.595745 0.000000 lineto
  -4.595745 -110.894844 lineto
  4.595745 -110.894844 lineto
closepath gsave 0.500000 setgray  fill grestore
stroke
 grestore  gsave  179.234039 131.381439 translate 0.000000 rotate
 newpath 4.595745 0.000000 moveto  -4.595745 0.000000 lineto
  -4.595745 -131.381439 lineto
  4.595745 -131.381439 lineto
closepath gsave 0.500000 setgray  fill grestore
stroke
 grestore  gsave  124.085106 112.453606 translate 0.000000 rotate
 newpath 4.595745 0.000000 moveto  -4.595745 0.000000 lineto
  -4.595745 -112.453606 lineto
  4.595745 -112.453606 lineto
closepath gsave 0.500000 setgray  fill grestore
stroke
 grestore  gsave  197.617020 128.709274 translate 0.000000 rotate
 newpath 4.595745 0.000000 moveto  -4.595745 0.000000 lineto
  -4.595745 -128.709274 lineto
  4.595745 -128.709274 lineto
closepath gsave 0.500000 setgray  fill grestore
stroke
 grestore  gsave  142.468079 112.676277 translate 0.000000 rotate
 newpath 4.595745 0.000000 moveto  -4.595745 0.000000 lineto
  -4.595745 -112.676277 lineto
  4.595745 -112.676277 lineto
closepath gsave 0.500000 setgray  fill grestore
stroke
 grestore  gsave  216.000000 127.595879 translate 0.000000 rotate
 newpath 4.595745 0.000000 moveto  -4.595745 0.000000 lineto
  -4.595745 -127.595879 lineto
  4.595745 -127.595879 lineto
closepath gsave 0.500000 setgray  fill grestore
stroke
 grestore  gsave  160.851059 111.340202 translate 0.000000 rotate
 newpath 4.595745 0.000000 moveto  -4.595745 0.000000 lineto
  -4.595745 -111.340202 lineto
  4.595745 -111.340202 lineto
closepath gsave 0.500000 setgray  fill grestore
stroke
 grestore  gsave  179.234039 106.218552 translate 0.000000 rotate
 newpath 4.595745 0.000000 moveto  -4.595745 0.000000 lineto
  -4.595745 -106.218552 lineto
  4.595745 -106.218552 lineto
closepath gsave 0.500000 setgray  fill grestore
stroke
 grestore  gsave  197.617020 111.340202 translate 0.000000 rotate
 newpath 4.595745 0.000000 moveto  -4.595745 0.000000 lineto
  -4.595745 -111.340202 lineto
  4.595745 -111.340202 lineto
closepath gsave 0.500000 setgray  fill grestore
stroke
 grestore  gsave  216.000000 107.777313 translate 0.000000 rotate
 newpath 4.595745 0.000000 moveto  -4.595745 0.000000 lineto
  -4.595745 -107.777313 lineto
  4.595745 -107.777313 lineto
closepath gsave 0.500000 setgray  fill grestore
stroke
 grestore  grestore 
 grestore 
-0.000000 -0.000000 translate
 grestore showpage
%%PageTrailer

%%Trailer
%%Pages: 1
%%EOF
