Overview of whole program execution metrics:
========================================================================================
   Number of processors |          1 |          4 |          8 |         12 |         16
========================================================================================
Elapsed time (sec)      |       1.27 |       0.56 |       0.44 |       0.41 |       0.38
Speedup                 |       1.00 |       2.27 |       2.88 |       3.12 |       3.36
Efficiency              |       1.00 |       0.57 |       0.36 |       0.26 |       0.21
========================================================================================

Overview of the Efficiency metrics in parallel fraction:
=======================================================================================================
                  Number of processors |          1 |          4 |          8 |         12 |         16
=======================================================================================================
Parallel fraction                      |     82.88% | 
------------------------------------------------------
Global efficiency                      |     99.96% |     79.12% |     60.28% |     52.57% |     45.98%
-- Parallelization strategy efficiency |     99.96% |     96.83% |     96.67% |     96.40% |     96.28%
   -- Load balancing                   |    100.00% |     97.37% |     97.85% |     97.69% |     97.42%
   -- In execution efficiency          |     99.96% |     99.44% |     98.80% |     98.68% |     98.83%
-- Scalability for computation tasks   |    100.00% |     81.71% |     62.35% |     54.53% |     47.76%
   -- IPC scalability                  |    100.00% |     81.80% |     66.27% |     60.01% |     52.66%
   -- Instruction scalability          |    100.00% |     99.99% |     99.98% |     99.97% |     99.96%
   -- Frequency scalability            |    100.00% |     99.89% |     94.11% |     90.90% |     90.73%
=======================================================================================================

Statistics about explicit tasks in parallel fraction
==========================================================================================================================================
                            Number of processors |               1 |               4 |               8 |              12 |              16
==========================================================================================================================================
Number of explicit tasks executed (total)        |            70.0 |           280.0 |           560.0 |           840.0 |          1120.0
LB (number of explicit tasks executed)           |             1.0 |            0.92 |            0.95 |            0.95 |            0.71
LB (time executing explicit tasks)               |             1.0 |            0.98 |            0.98 |            0.98 |            0.98
Time per explicit task (average)                 |        15087.56 |         4616.17 |         3024.42 |         2305.27 |         1974.12
Overhead per explicit task (synch %)             |             0.0 |            3.21 |            3.34 |            3.54 |            3.64
Overhead per explicit task (sched %)             |            0.03 |            0.02 |            0.03 |            0.05 |            0.05
Number of taskwait/taskgroup (total)             |             7.0 |             7.0 |             7.0 |             7.0 |             7.0
==========================================================================================================================================

