\relax 
\@writefile{lot}{\contentsline {table}{\numberline {1}{\ignorespaces  Analysis done on Wed Oct 19 05:45:34 PM CEST 2022, par2107}}{1}{}\protected@file@percent }
\@writefile{lot}{\contentsline {table}{\numberline {2}{\ignorespaces  Analysis done on Wed Oct 19 05:45:34 PM CEST 2022, par2107}}{2}{}\protected@file@percent }
\@writefile{lot}{\contentsline {table}{\numberline {3}{\ignorespaces  Analysis done on Wed Oct 19 05:45:34 PM CEST 2022, par2107}}{2}{}\protected@file@percent }
\gdef \@abspage@last{2}
