%!PS-Adobe-3.0
%%Pages: (atend)
%%Creator: jgraph
%%EndComments

%%BeginProlog
%%EndProlog
%%BeginSetup
%%EndSetup

%%Page: 1 1
%%BeginPageSetup
%%EndPageSetup

198.000000 328.000000 translate
1 setlinecap 1 setlinejoin
0.700 setlinewidth
0.00 setgray

/Jrnd { exch cvi exch cvi dup 3 1 roll idiv mul } def
/JDEdict 8 dict def
JDEdict /mtrx matrix put
/JDE {
  JDEdict begin
  /yrad exch def
  /xrad exch def
  /savematrix mtrx currentmatrix def
  xrad yrad scale
  0 0 1 0 360 arc
  savematrix setmatrix
  end
} def
/JSTR {
  gsave 1 eq { gsave 1 setgray fill grestore } if
    exch neg exch neg translate 
    clip                        
    rotate                      
    4 dict begin
      pathbbox  /&top exch def
                /&right exch def
                /&bottom exch def
                &right sub /&width exch def
      newpath
      currentlinewidth mul round dup               
      &bottom exch Jrnd exch &top             
      4 -1 roll currentlinewidth mul setlinewidth  
      { &right exch moveto &width 0 rlineto stroke } for    
    end
  grestore
  newpath
} bind def
 gsave /Times-Roman findfont 9.000000 scalefont setfont
0.000000 0.000000 translate
0.700000 setlinewidth  gsave newpath 0.000000 0.000000 moveto 216.000000 0.000000 lineto stroke
newpath 0.000000 0.000000 moveto 0.000000 -2.000000 lineto stroke
newpath 13.500000 0.000000 moveto 13.500000 -5.000000 lineto stroke
newpath 27.000000 0.000000 moveto 27.000000 -2.000000 lineto stroke
newpath 40.500000 0.000000 moveto 40.500000 -2.000000 lineto stroke
newpath 54.000000 0.000000 moveto 54.000000 -2.000000 lineto stroke
newpath 67.500000 0.000000 moveto 67.500000 -2.000000 lineto stroke
newpath 81.000000 0.000000 moveto 81.000000 -5.000000 lineto stroke
newpath 94.500000 0.000000 moveto 94.500000 -2.000000 lineto stroke
newpath 108.000000 0.000000 moveto 108.000000 -2.000000 lineto stroke
newpath 121.500000 0.000000 moveto 121.500000 -2.000000 lineto stroke
newpath 135.000000 0.000000 moveto 135.000000 -2.000000 lineto stroke
newpath 148.500000 0.000000 moveto 148.500000 -5.000000 lineto stroke
newpath 162.000000 0.000000 moveto 162.000000 -2.000000 lineto stroke
newpath 175.500000 0.000000 moveto 175.500000 -2.000000 lineto stroke
newpath 189.000000 0.000000 moveto 189.000000 -2.000000 lineto stroke
newpath 202.500000 0.000000 moveto 202.500000 -2.000000 lineto stroke
newpath 216.000000 0.000000 moveto 216.000000 -5.000000 lineto stroke
gsave 13.500000 -8.000000 translate 90.000000 rotate
0 -2.700000 translate ( 0) dup stringwidth pop neg 0 moveto
show
grestore
gsave 27.000000 -8.000000 translate 90.000000 rotate
0 -2.700000 translate ( 1) dup stringwidth pop neg 0 moveto
show
grestore
gsave 40.500000 -8.000000 translate 90.000000 rotate
0 -2.700000 translate ( 2) dup stringwidth pop neg 0 moveto
show
grestore
gsave 54.000000 -8.000000 translate 90.000000 rotate
0 -2.700000 translate ( 3) dup stringwidth pop neg 0 moveto
show
grestore
gsave 67.500000 -8.000000 translate 90.000000 rotate
0 -2.700000 translate ( 4) dup stringwidth pop neg 0 moveto
show
grestore
gsave 81.000000 -8.000000 translate 90.000000 rotate
0 -2.700000 translate ( 5) dup stringwidth pop neg 0 moveto
show
grestore
gsave 94.500000 -8.000000 translate 90.000000 rotate
0 -2.700000 translate ( 6) dup stringwidth pop neg 0 moveto
show
grestore
gsave 108.000000 -8.000000 translate 90.000000 rotate
0 -2.700000 translate ( 7) dup stringwidth pop neg 0 moveto
show
grestore
gsave 121.500000 -8.000000 translate 90.000000 rotate
0 -2.700000 translate ( 8) dup stringwidth pop neg 0 moveto
show
grestore
gsave 135.000000 -8.000000 translate 90.000000 rotate
0 -2.700000 translate ( 9) dup stringwidth pop neg 0 moveto
show
grestore
gsave 148.500000 -8.000000 translate 90.000000 rotate
0 -2.700000 translate ( 10) dup stringwidth pop neg 0 moveto
show
grestore
gsave 162.000000 -8.000000 translate 90.000000 rotate
0 -2.700000 translate ( 11) dup stringwidth pop neg 0 moveto
show
grestore
gsave 175.500000 -8.000000 translate 90.000000 rotate
0 -2.700000 translate ( 12) dup stringwidth pop neg 0 moveto
show
grestore
gsave 189.000000 -8.000000 translate 90.000000 rotate
0 -2.700000 translate ( 13) dup stringwidth pop neg 0 moveto
show
grestore
gsave 202.500000 -8.000000 translate 90.000000 rotate
0 -2.700000 translate ( 14) dup stringwidth pop neg 0 moveto
show
grestore
gsave 216.000000 -8.000000 translate 90.000000 rotate
0 -2.700000 translate ( 15) dup stringwidth pop neg 0 moveto
show
grestore
/Times-Bold findfont 10.000000 scalefont setfont
gsave 108.000000 -28.959999 translate 0.000000 rotate
0 -6.000000 translate (Recursion size) dup stringwidth pop 2 div neg 0 moveto
show
grestore
 grestore 
0.700000 setlinewidth  gsave newpath 0.000000 0.000000 moveto 0.000000 216.000000 lineto stroke
newpath 0.000000 0.000000 moveto -5.000000 0.000000 lineto stroke
newpath 0.000000 9.593738 moveto -2.000000 9.593738 lineto stroke
newpath 0.000000 19.187475 moveto -2.000000 19.187475 lineto stroke
newpath 0.000000 28.781212 moveto -2.000000 28.781212 lineto stroke
newpath 0.000000 38.374950 moveto -2.000000 38.374950 lineto stroke
newpath 0.000000 47.968685 moveto -2.000000 47.968685 lineto stroke
newpath 0.000000 57.562424 moveto -2.000000 57.562424 lineto stroke
newpath 0.000000 67.156166 moveto -2.000000 67.156166 lineto stroke
newpath 0.000000 76.749901 moveto -2.000000 76.749901 lineto stroke
newpath 0.000000 86.343643 moveto -2.000000 86.343643 lineto stroke
newpath 0.000000 95.937370 moveto -5.000000 95.937370 lineto stroke
newpath 0.000000 105.531113 moveto -2.000000 105.531113 lineto stroke
newpath 0.000000 115.124847 moveto -2.000000 115.124847 lineto stroke
newpath 0.000000 124.718590 moveto -2.000000 124.718590 lineto stroke
newpath 0.000000 134.312332 moveto -2.000000 134.312332 lineto stroke
newpath 0.000000 143.906067 moveto -2.000000 143.906067 lineto stroke
newpath 0.000000 153.499802 moveto -2.000000 153.499802 lineto stroke
newpath 0.000000 163.093552 moveto -2.000000 163.093552 lineto stroke
newpath 0.000000 172.687286 moveto -2.000000 172.687286 lineto stroke
newpath 0.000000 182.281021 moveto -2.000000 182.281021 lineto stroke
newpath 0.000000 191.874741 moveto -5.000000 191.874741 lineto stroke
newpath 0.000000 201.468475 moveto -2.000000 201.468475 lineto stroke
newpath 0.000000 211.062195 moveto -2.000000 211.062195 lineto stroke
/Times-Roman findfont 9.000000 scalefont setfont
gsave -8.000000 0.000000 translate 0.000000 rotate
0 -2.700000 translate (0) dup stringwidth pop neg 0 moveto
show
grestore
gsave -8.000000 95.937370 translate 0.000000 rotate
0 -2.700000 translate (1) dup stringwidth pop neg 0 moveto
show
grestore
gsave -8.000000 191.874741 translate 0.000000 rotate
0 -2.700000 translate (2) dup stringwidth pop neg 0 moveto
show
grestore
/Times-Bold findfont 10.000000 scalefont setfont
gsave -20.320000 108.000000 translate 90.000000 rotate
0 0.000000 translate (Execution time) dup stringwidth pop 2 div neg 0 moveto
show
grestore
 grestore 
/Times-Roman findfont 12.000000 scalefont setfont
gsave 108.000000 -44.959999 translate 0.000000 rotate
0 -7.200000 translate (par2107) dup stringwidth pop 2 div neg 0 moveto
show 0 -14.400000 translate
(Average elapsed execution time \(multisort only\)) dup stringwidth pop 2 div neg 0 moveto
show 0 -14.400000 translate
(Wed Nov 23 11:34:52 PM CET 2022) dup stringwidth pop 2 div neg 0 moveto
show
grestore
 gsave 
 gsave  gsave  13.500000 216.000000 translate 0.000000 rotate
 newpath 3.375000 0.000000 moveto  -3.375000 0.000000 lineto
  -3.375000 -216.000000 lineto
  3.375000 -216.000000 lineto
closepath gsave 0.500000 setgray  fill grestore
stroke
 grestore  gsave  27.000000 84.726418 translate 0.000000 rotate
 newpath 3.375000 0.000000 moveto  -3.375000 0.000000 lineto
  -3.375000 -84.726418 lineto
  3.375000 -84.726418 lineto
closepath gsave 0.500000 setgray  fill grestore
stroke
 grestore  gsave  40.500000 52.396198 translate 0.000000 rotate
 newpath 3.375000 0.000000 moveto  -3.375000 0.000000 lineto
  -3.375000 -52.396198 lineto
  3.375000 -52.396198 lineto
closepath gsave 0.500000 setgray  fill grestore
stroke
 grestore  gsave  54.000000 34.524117 translate 0.000000 rotate
 newpath 3.375000 0.000000 moveto  -3.375000 0.000000 lineto
  -3.375000 -34.524117 lineto
  3.375000 -34.524117 lineto
closepath gsave 0.500000 setgray  fill grestore
stroke
 grestore  gsave  67.500000 26.734962 translate 0.000000 rotate
 newpath 3.375000 0.000000 moveto  -3.375000 0.000000 lineto
  -3.375000 -26.734962 lineto
  3.375000 -26.734962 lineto
closepath gsave 0.500000 setgray  fill grestore
stroke
 grestore  gsave  81.000000 24.538862 translate 0.000000 rotate
 newpath 3.375000 0.000000 moveto  -3.375000 0.000000 lineto
  -3.375000 -24.538862 lineto
  3.375000 -24.538862 lineto
closepath gsave 0.500000 setgray  fill grestore
stroke
 grestore  gsave  94.500000 24.427958 translate 0.000000 rotate
 newpath 3.375000 0.000000 moveto  -3.375000 0.000000 lineto
  -3.375000 -24.427958 lineto
  3.375000 -24.427958 lineto
closepath gsave 0.500000 setgray  fill grestore
stroke
 grestore  gsave  108.000000 24.361666 translate 0.000000 rotate
 newpath 3.375000 0.000000 moveto  -3.375000 0.000000 lineto
  -3.375000 -24.361666 lineto
  3.375000 -24.361666 lineto
closepath gsave 0.500000 setgray  fill grestore
stroke
 grestore  gsave  121.500000 25.534786 translate 0.000000 rotate
 newpath 3.375000 0.000000 moveto  -3.375000 0.000000 lineto
  -3.375000 -25.534786 lineto
  3.375000 -25.534786 lineto
closepath gsave 0.500000 setgray  fill grestore
stroke
 grestore  gsave  135.000000 27.033905 translate 0.000000 rotate
 newpath 3.375000 0.000000 moveto  -3.375000 0.000000 lineto
  -3.375000 -27.033905 lineto
  3.375000 -27.033905 lineto
closepath gsave 0.500000 setgray  fill grestore
stroke
 grestore  gsave  148.500000 29.055113 translate 0.000000 rotate
 newpath 3.375000 0.000000 moveto  -3.375000 0.000000 lineto
  -3.375000 -29.055113 lineto
  3.375000 -29.055113 lineto
closepath gsave 0.500000 setgray  fill grestore
stroke
 grestore  gsave  162.000000 31.304461 translate 0.000000 rotate
 newpath 3.375000 0.000000 moveto  -3.375000 0.000000 lineto
  -3.375000 -31.304461 lineto
  3.375000 -31.304461 lineto
closepath gsave 0.500000 setgray  fill grestore
stroke
 grestore  gsave  175.500000 33.518406 translate 0.000000 rotate
 newpath 3.375000 0.000000 moveto  -3.375000 0.000000 lineto
  -3.375000 -33.518406 lineto
  3.375000 -33.518406 lineto
closepath gsave 0.500000 setgray  fill grestore
stroke
 grestore  gsave  189.000000 35.410294 translate 0.000000 rotate
 newpath 3.375000 0.000000 moveto  -3.375000 0.000000 lineto
  -3.375000 -35.410294 lineto
  3.375000 -35.410294 lineto
closepath gsave 0.500000 setgray  fill grestore
stroke
 grestore  gsave  202.500000 38.099129 translate 0.000000 rotate
 newpath 3.375000 0.000000 moveto  -3.375000 0.000000 lineto
  -3.375000 -38.099129 lineto
  3.375000 -38.099129 lineto
closepath gsave 0.500000 setgray  fill grestore
stroke
 grestore  gsave  216.000000 40.869991 translate 0.000000 rotate
 newpath 3.375000 0.000000 moveto  -3.375000 0.000000 lineto
  -3.375000 -40.869991 lineto
  3.375000 -40.869991 lineto
closepath gsave 0.500000 setgray  fill grestore
stroke
 grestore  grestore 
 grestore 
-0.000000 -0.000000 translate
 grestore showpage
%%PageTrailer

%%Trailer
%%Pages: 1
%%EOF
