1   1.01344481525574476729
2   1.93973377840813409125
3   2.91423395727412108458
4   3.86191974822974036191
5   4.60675329661588614688
6   5.37056155234544825342
7   6.37233992854842159873
8   7.22018216996493945544
9   8.07178273327519621278
10   8.72607531859733001127
11   9.63454578911856713488
12   10.25523655767187602015
13   10.96632484455098029674
14   11.77651910165968033261
15   12.41327978504048452104
16   13.77916129461022130657
17   14.60554367397313541340
18   15.32323683222524085860
19   16.13552484124019424729
20   16.87895770309126610678
