1   .99901448838812324653
2   1.97144711867730751718
3   2.86643692922532136900
4   3.82658353165440346546
5   4.50091022839877895767
6   5.11804707279964163576
7   6.31167348885654905892
8   7.08542212484393824735
9   7.95200689251297711796
10   8.67057366321043455585
11   9.40238906612529002320
12   10.13578577541904244551
13   11.02301246783163433360
14   11.76989403462594449864
15   12.27027142106931480018
16   13.39815730813041939708
17   14.35186927265483199787
18   15.23653282966992618354
19   16.30453983950411612534
20   16.98664544609056732293
