%!PS-Adobe-3.0
%%Pages: (atend)
%%Creator: jgraph
%%EndComments

%%BeginProlog
%%EndProlog
%%BeginSetup
%%EndSetup

%%Page: 1 1
%%BeginPageSetup
%%EndPageSetup

198.000000 161.500000 translate
1 setlinecap 1 setlinejoin
0.700 setlinewidth
0.00 setgray

/Jrnd { exch cvi exch cvi dup 3 1 roll idiv mul } def
/JDEdict 8 dict def
JDEdict /mtrx matrix put
/JDE {
  JDEdict begin
  /yrad exch def
  /xrad exch def
  /savematrix mtrx currentmatrix def
  xrad yrad scale
  0 0 1 0 360 arc
  savematrix setmatrix
  end
} def
/JSTR {
  gsave 1 eq { gsave 1 setgray fill grestore } if
    exch neg exch neg translate 
    clip                        
    rotate                      
    4 dict begin
      pathbbox  /&top exch def
                /&right exch def
                /&bottom exch def
                &right sub /&width exch def
      newpath
      currentlinewidth mul round dup               
      &bottom exch Jrnd exch &top             
      4 -1 roll currentlinewidth mul setlinewidth  
      { &right exch moveto &width 0 rlineto stroke } for    
    end
  grestore
  newpath
} bind def
 gsave /Times-Roman findfont 9.000000 scalefont setfont
0.000000 324.000000 translate
0.700000 setlinewidth  gsave newpath 0.000000 0.000000 moveto 216.000000 0.000000 lineto stroke
newpath 0.000000 0.000000 moveto 0.000000 -2.000000 lineto stroke
newpath 11.368421 0.000000 moveto 11.368421 -2.000000 lineto stroke
newpath 22.736841 0.000000 moveto 22.736841 -2.000000 lineto stroke
newpath 34.105263 0.000000 moveto 34.105263 -2.000000 lineto stroke
newpath 45.473682 0.000000 moveto 45.473682 -5.000000 lineto stroke
newpath 56.842102 0.000000 moveto 56.842102 -2.000000 lineto stroke
newpath 68.210526 0.000000 moveto 68.210526 -2.000000 lineto stroke
newpath 79.578941 0.000000 moveto 79.578941 -2.000000 lineto stroke
newpath 90.947365 0.000000 moveto 90.947365 -2.000000 lineto stroke
newpath 102.315788 0.000000 moveto 102.315788 -5.000000 lineto stroke
newpath 113.684204 0.000000 moveto 113.684204 -2.000000 lineto stroke
newpath 125.052628 0.000000 moveto 125.052628 -2.000000 lineto stroke
newpath 136.421051 0.000000 moveto 136.421051 -2.000000 lineto stroke
newpath 147.789474 0.000000 moveto 147.789474 -2.000000 lineto stroke
newpath 159.157883 0.000000 moveto 159.157883 -5.000000 lineto stroke
newpath 170.526306 0.000000 moveto 170.526306 -2.000000 lineto stroke
newpath 181.894730 0.000000 moveto 181.894730 -2.000000 lineto stroke
newpath 193.263153 0.000000 moveto 193.263153 -2.000000 lineto stroke
newpath 204.631577 0.000000 moveto 204.631577 -2.000000 lineto stroke
newpath 215.999985 0.000000 moveto 215.999985 -5.000000 lineto stroke
gsave 45.473682 -8.000000 translate 0.000000 rotate
0 -5.400000 translate (5) dup stringwidth pop 2 div neg 0 moveto
show
grestore
gsave 102.315788 -8.000000 translate 0.000000 rotate
0 -5.400000 translate (10) dup stringwidth pop 2 div neg 0 moveto
show
grestore
gsave 159.157883 -8.000000 translate 0.000000 rotate
0 -5.400000 translate (15) dup stringwidth pop 2 div neg 0 moveto
show
grestore
gsave 215.999985 -8.000000 translate 0.000000 rotate
0 -5.400000 translate (20) dup stringwidth pop 2 div neg 0 moveto
show
grestore
/Times-Bold findfont 10.000000 scalefont setfont
gsave 108.000000 -21.400000 translate 0.000000 rotate
0 -6.000000 translate (OMP #threads) dup stringwidth pop 2 div neg 0 moveto
show
grestore
 grestore 
0.700000 setlinewidth  gsave newpath 0.000000 0.000000 moveto 0.000000 216.000000 lineto stroke
newpath 0.000000 0.000000 moveto -5.000000 0.000000 lineto stroke
newpath 0.000000 10.800000 moveto -2.000000 10.800000 lineto stroke
newpath 0.000000 21.600000 moveto -2.000000 21.600000 lineto stroke
newpath 0.000000 32.400002 moveto -2.000000 32.400002 lineto stroke
newpath 0.000000 43.200001 moveto -2.000000 43.200001 lineto stroke
newpath 0.000000 54.000000 moveto -5.000000 54.000000 lineto stroke
newpath 0.000000 64.800003 moveto -2.000000 64.800003 lineto stroke
newpath 0.000000 75.599998 moveto -2.000000 75.599998 lineto stroke
newpath 0.000000 86.400002 moveto -2.000000 86.400002 lineto stroke
newpath 0.000000 97.200005 moveto -2.000000 97.200005 lineto stroke
newpath 0.000000 108.000000 moveto -5.000000 108.000000 lineto stroke
newpath 0.000000 118.800003 moveto -2.000000 118.800003 lineto stroke
newpath 0.000000 129.600006 moveto -2.000000 129.600006 lineto stroke
newpath 0.000000 140.400009 moveto -2.000000 140.400009 lineto stroke
newpath 0.000000 151.199997 moveto -2.000000 151.199997 lineto stroke
newpath 0.000000 162.000000 moveto -5.000000 162.000000 lineto stroke
newpath 0.000000 172.800003 moveto -2.000000 172.800003 lineto stroke
newpath 0.000000 183.600006 moveto -2.000000 183.600006 lineto stroke
newpath 0.000000 194.400009 moveto -2.000000 194.400009 lineto stroke
newpath 0.000000 205.199997 moveto -2.000000 205.199997 lineto stroke
newpath 0.000000 216.000000 moveto -5.000000 216.000000 lineto stroke
/Times-Roman findfont 9.000000 scalefont setfont
gsave -8.000000 0.000000 translate 0.000000 rotate
0 -2.700000 translate (0) dup stringwidth pop neg 0 moveto
show
grestore
gsave -8.000000 54.000000 translate 0.000000 rotate
0 -2.700000 translate (5) dup stringwidth pop neg 0 moveto
show
grestore
gsave -8.000000 108.000000 translate 0.000000 rotate
0 -2.700000 translate (10) dup stringwidth pop neg 0 moveto
show
grestore
gsave -8.000000 162.000000 translate 0.000000 rotate
0 -2.700000 translate (15) dup stringwidth pop neg 0 moveto
show
grestore
gsave -8.000000 216.000000 translate 0.000000 rotate
0 -2.700000 translate (20) dup stringwidth pop neg 0 moveto
show
grestore
/Times-Bold findfont 10.000000 scalefont setfont
gsave -24.639999 108.000000 translate 90.000000 rotate
0 0.000000 translate (Speed-up) dup stringwidth pop 2 div neg 0 moveto
show
grestore
 grestore 
/Times-Roman findfont 12.000000 scalefont setfont
gsave 108.000000 -37.400002 translate 0.000000 rotate
0 -7.200000 translate (par2107) dup stringwidth pop 2 div neg 0 moveto
show 0 -14.400000 translate
(Speed-up wrt sequential time \(complete application\)) dup stringwidth pop 2 div neg 0 moveto
show 0 -14.400000 translate
(Generated by par2107 on Thu Nov 24 02:26:20 AM CET 2022) dup stringwidth pop 2 div neg 0 moveto
show
grestore
 gsave 
 gsave 0.700000 setlinewidth  [4.00000] 0 setdash
0.000000 10.800000 moveto   11.368421 21.600000 lineto
  22.736841 32.400002 lineto
  34.105263 43.200001 lineto
  45.473682 54.000000 lineto
  56.842102 64.800003 lineto
  68.210526 75.599998 lineto
  79.578941 86.400002 lineto
  90.947365 97.200005 lineto
  102.315788 108.000000 lineto
  113.684204 118.800003 lineto
  125.052628 129.600006 lineto
  136.421051 140.400009 lineto
  147.789474 151.199997 lineto
  159.157883 162.000000 lineto
  170.526306 172.800003 lineto
  181.894730 183.600006 lineto
  193.263153 194.400009 lineto
  204.631577 205.199997 lineto
  215.999985 216.000000 lineto
stroke
0.700000 setlinewidth  [] 0 setdash
 grestore 
 gsave 0.700000 setlinewidth  [] 0 setdash
0.000000 10.781695 moveto   11.368421 21.063576 lineto
  22.736841 30.582693 lineto
  34.105263 40.517200 lineto
  45.473682 47.471645 lineto
  56.842102 53.908478 lineto
  68.210526 65.579384 lineto
  79.578941 73.117241 lineto
  90.947365 81.553848 lineto
  102.315788 88.349998 lineto
  113.684204 96.381813 lineto
  125.052628 102.599998 lineto
  136.421051 111.599998 lineto
  147.789474 117.800003 lineto
  159.157883 122.330772 lineto
  170.526306 132.524994 lineto
  181.894730 138.286957 lineto
  193.263153 147.934891 lineto
  204.631577 159.030014 lineto
  215.999985 163.107697 lineto
stroke
0.700000 setlinewidth  [] 0 setdash
 grestore 
 grestore 
-0.000000 -324.000000 translate
0.000000 0.000000 translate
0.700000 setlinewidth  gsave newpath 0.000000 0.000000 moveto 216.000000 0.000000 lineto stroke
newpath 0.000000 0.000000 moveto 0.000000 -2.000000 lineto stroke
newpath 11.368421 0.000000 moveto 11.368421 -2.000000 lineto stroke
newpath 22.736841 0.000000 moveto 22.736841 -2.000000 lineto stroke
newpath 34.105263 0.000000 moveto 34.105263 -2.000000 lineto stroke
newpath 45.473682 0.000000 moveto 45.473682 -5.000000 lineto stroke
newpath 56.842102 0.000000 moveto 56.842102 -2.000000 lineto stroke
newpath 68.210526 0.000000 moveto 68.210526 -2.000000 lineto stroke
newpath 79.578941 0.000000 moveto 79.578941 -2.000000 lineto stroke
newpath 90.947365 0.000000 moveto 90.947365 -2.000000 lineto stroke
newpath 102.315788 0.000000 moveto 102.315788 -5.000000 lineto stroke
newpath 113.684204 0.000000 moveto 113.684204 -2.000000 lineto stroke
newpath 125.052628 0.000000 moveto 125.052628 -2.000000 lineto stroke
newpath 136.421051 0.000000 moveto 136.421051 -2.000000 lineto stroke
newpath 147.789474 0.000000 moveto 147.789474 -2.000000 lineto stroke
newpath 159.157883 0.000000 moveto 159.157883 -5.000000 lineto stroke
newpath 170.526306 0.000000 moveto 170.526306 -2.000000 lineto stroke
newpath 181.894730 0.000000 moveto 181.894730 -2.000000 lineto stroke
newpath 193.263153 0.000000 moveto 193.263153 -2.000000 lineto stroke
newpath 204.631577 0.000000 moveto 204.631577 -2.000000 lineto stroke
newpath 215.999985 0.000000 moveto 215.999985 -5.000000 lineto stroke
/Times-Roman findfont 9.000000 scalefont setfont
gsave 45.473682 -8.000000 translate 0.000000 rotate
0 -5.400000 translate (5) dup stringwidth pop 2 div neg 0 moveto
show
grestore
gsave 102.315788 -8.000000 translate 0.000000 rotate
0 -5.400000 translate (10) dup stringwidth pop 2 div neg 0 moveto
show
grestore
gsave 159.157883 -8.000000 translate 0.000000 rotate
0 -5.400000 translate (15) dup stringwidth pop 2 div neg 0 moveto
show
grestore
gsave 215.999985 -8.000000 translate 0.000000 rotate
0 -5.400000 translate (20) dup stringwidth pop 2 div neg 0 moveto
show
grestore
/Times-Bold findfont 10.000000 scalefont setfont
gsave 108.000000 -21.400000 translate 0.000000 rotate
0 -6.000000 translate (OMP #threads) dup stringwidth pop 2 div neg 0 moveto
show
grestore
 grestore 
0.700000 setlinewidth  gsave newpath 0.000000 0.000000 moveto 0.000000 216.000000 lineto stroke
newpath 0.000000 0.011203 moveto -2.000000 0.011203 lineto stroke
newpath 0.000000 11.379034 moveto -2.000000 11.379034 lineto stroke
newpath 0.000000 22.746866 moveto -2.000000 22.746866 lineto stroke
newpath 0.000000 34.114697 moveto -2.000000 34.114697 lineto stroke
newpath 0.000000 45.482529 moveto -5.000000 45.482529 lineto stroke
newpath 0.000000 56.850361 moveto -2.000000 56.850361 lineto stroke
newpath 0.000000 68.218193 moveto -2.000000 68.218193 lineto stroke
newpath 0.000000 79.586021 moveto -2.000000 79.586021 lineto stroke
newpath 0.000000 90.953850 moveto -2.000000 90.953850 lineto stroke
newpath 0.000000 102.321678 moveto -5.000000 102.321678 lineto stroke
newpath 0.000000 113.689514 moveto -2.000000 113.689514 lineto stroke
newpath 0.000000 125.057343 moveto -2.000000 125.057343 lineto stroke
newpath 0.000000 136.425171 moveto -2.000000 136.425171 lineto stroke
newpath 0.000000 147.792999 moveto -2.000000 147.792999 lineto stroke
newpath 0.000000 159.160843 moveto -5.000000 159.160843 lineto stroke
newpath 0.000000 170.528671 moveto -2.000000 170.528671 lineto stroke
newpath 0.000000 181.896515 moveto -2.000000 181.896515 lineto stroke
newpath 0.000000 193.264343 moveto -2.000000 193.264343 lineto stroke
newpath 0.000000 204.632172 moveto -2.000000 204.632172 lineto stroke
newpath 0.000000 216.000000 moveto -5.000000 216.000000 lineto stroke
/Times-Roman findfont 9.000000 scalefont setfont
gsave -8.000000 45.482529 translate 0.000000 rotate
0 -2.700000 translate (5) dup stringwidth pop neg 0 moveto
show
grestore
gsave -8.000000 102.321678 translate 0.000000 rotate
0 -2.700000 translate (10) dup stringwidth pop neg 0 moveto
show
grestore
gsave -8.000000 159.160843 translate 0.000000 rotate
0 -2.700000 translate (15) dup stringwidth pop neg 0 moveto
show
grestore
gsave -8.000000 216.000000 translate 0.000000 rotate
0 -2.700000 translate (20) dup stringwidth pop neg 0 moveto
show
grestore
/Times-Bold findfont 10.000000 scalefont setfont
gsave -24.639999 108.000000 translate 90.000000 rotate
0 0.000000 translate (Speed-up) dup stringwidth pop 2 div neg 0 moveto
show
grestore
 grestore 
/Times-Roman findfont 12.000000 scalefont setfont
gsave 108.000000 -37.400002 translate 0.000000 rotate
0 -7.200000 translate (par2107) dup stringwidth pop 2 div neg 0 moveto
show 0 -14.400000 translate
(Speed-up wrt sequential time \(multisort funtion only\)) dup stringwidth pop 2 div neg 0 moveto
show 0 -14.400000 translate
(Generated by par2107 on Thu Nov 24 02:26:20 AM CET 2022) dup stringwidth pop 2 div neg 0 moveto
show
grestore
 gsave 
 gsave 0.700000 setlinewidth  [4.00000] 0 setdash
0.000000 0.011203 moveto   11.368421 11.379034 lineto
  22.736841 22.746866 lineto
  34.105263 34.114697 lineto
  45.473682 45.482529 lineto
  56.842102 56.850361 lineto
  68.210526 68.218193 lineto
  79.578941 79.586021 lineto
  90.947365 90.953850 lineto
  102.315788 102.321678 lineto
  113.684204 113.689514 lineto
  125.052628 125.057343 lineto
  136.421051 136.425171 lineto
  147.789474 147.792999 lineto
  159.157883 159.160843 lineto
  170.526306 170.528671 lineto
  181.894730 181.896515 lineto
  193.263153 193.264343 lineto
  204.631577 204.632172 lineto
  215.999985 216.000000 lineto
stroke
0.700000 setlinewidth  [] 0 setdash
 grestore 
 gsave 0.700000 setlinewidth  [] 0 setdash
0.000000 0.000000 moveto   11.368421 11.054450 lineto
  22.736841 21.228544 lineto
  34.105263 32.143326 lineto
  45.473682 39.808960 lineto
  56.842102 46.824471 lineto
  68.210526 60.393414 lineto
  79.578941 69.189255 lineto
  90.947365 79.040443 lineto
  102.315788 87.208984 lineto
  113.684204 95.528145 lineto
  125.052628 103.865273 lineto
  136.421051 113.951111 lineto
  147.789474 122.441536 lineto
  159.157883 128.129745 lineto
  170.526306 140.951355 lineto
  181.894730 151.792999 lineto
  193.263153 161.849701 lineto
  204.631577 173.990631 lineto
  215.999985 181.744675 lineto
stroke
0.700000 setlinewidth  [] 0 setdash
 grestore 
 grestore 
-0.000000 -0.000000 translate
 grestore showpage
%%PageTrailer

%%Trailer
%%Pages: 1
%%EOF
