%!PS-Adobe-3.0
%%Pages: (atend)
%%Creator: jgraph
%%EndComments

%%BeginProlog
%%EndProlog
%%BeginSetup
%%EndSetup

%%Page: 1 1
%%BeginPageSetup
%%EndPageSetup

198.000000 161.500000 translate
1 setlinecap 1 setlinejoin
0.700 setlinewidth
0.00 setgray

/Jrnd { exch cvi exch cvi dup 3 1 roll idiv mul } def
/JDEdict 8 dict def
JDEdict /mtrx matrix put
/JDE {
  JDEdict begin
  /yrad exch def
  /xrad exch def
  /savematrix mtrx currentmatrix def
  xrad yrad scale
  0 0 1 0 360 arc
  savematrix setmatrix
  end
} def
/JSTR {
  gsave 1 eq { gsave 1 setgray fill grestore } if
    exch neg exch neg translate 
    clip                        
    rotate                      
    4 dict begin
      pathbbox  /&top exch def
                /&right exch def
                /&bottom exch def
                &right sub /&width exch def
      newpath
      currentlinewidth mul round dup               
      &bottom exch Jrnd exch &top             
      4 -1 roll currentlinewidth mul setlinewidth  
      { &right exch moveto &width 0 rlineto stroke } for    
    end
  grestore
  newpath
} bind def
 gsave /Times-Roman findfont 9.000000 scalefont setfont
0.000000 324.000000 translate
0.700000 setlinewidth  gsave newpath 0.000000 0.000000 moveto 216.000000 0.000000 lineto stroke
newpath 0.000000 0.000000 moveto 0.000000 -2.000000 lineto stroke
newpath 5.538462 0.000000 moveto 5.538462 -2.000000 lineto stroke
newpath 11.076923 0.000000 moveto 11.076923 -2.000000 lineto stroke
newpath 16.615385 0.000000 moveto 16.615385 -2.000000 lineto stroke
newpath 22.153847 0.000000 moveto 22.153847 -2.000000 lineto stroke
newpath 27.692308 0.000000 moveto 27.692308 -2.000000 lineto stroke
newpath 33.230770 0.000000 moveto 33.230770 -2.000000 lineto stroke
newpath 38.769234 0.000000 moveto 38.769234 -2.000000 lineto stroke
newpath 44.307693 0.000000 moveto 44.307693 -2.000000 lineto stroke
newpath 49.846153 0.000000 moveto 49.846153 -5.000000 lineto stroke
newpath 55.384617 0.000000 moveto 55.384617 -2.000000 lineto stroke
newpath 60.923080 0.000000 moveto 60.923080 -2.000000 lineto stroke
newpath 66.461540 0.000000 moveto 66.461540 -2.000000 lineto stroke
newpath 72.000000 0.000000 moveto 72.000000 -2.000000 lineto stroke
newpath 77.538467 0.000000 moveto 77.538467 -2.000000 lineto stroke
newpath 83.076927 0.000000 moveto 83.076927 -2.000000 lineto stroke
newpath 88.615387 0.000000 moveto 88.615387 -2.000000 lineto stroke
newpath 94.153847 0.000000 moveto 94.153847 -2.000000 lineto stroke
newpath 99.692307 0.000000 moveto 99.692307 -2.000000 lineto stroke
newpath 105.230774 0.000000 moveto 105.230774 -5.000000 lineto stroke
newpath 110.769234 0.000000 moveto 110.769234 -2.000000 lineto stroke
newpath 116.307693 0.000000 moveto 116.307693 -2.000000 lineto stroke
newpath 121.846161 0.000000 moveto 121.846161 -2.000000 lineto stroke
newpath 127.384621 0.000000 moveto 127.384621 -2.000000 lineto stroke
newpath 132.923080 0.000000 moveto 132.923080 -2.000000 lineto stroke
newpath 138.461548 0.000000 moveto 138.461548 -2.000000 lineto stroke
newpath 144.000000 0.000000 moveto 144.000000 -2.000000 lineto stroke
newpath 149.538467 0.000000 moveto 149.538467 -2.000000 lineto stroke
newpath 155.076935 0.000000 moveto 155.076935 -2.000000 lineto stroke
newpath 160.615387 0.000000 moveto 160.615387 -5.000000 lineto stroke
newpath 166.153854 0.000000 moveto 166.153854 -2.000000 lineto stroke
newpath 171.692307 0.000000 moveto 171.692307 -2.000000 lineto stroke
newpath 177.230774 0.000000 moveto 177.230774 -2.000000 lineto stroke
newpath 182.769241 0.000000 moveto 182.769241 -2.000000 lineto stroke
newpath 188.307693 0.000000 moveto 188.307693 -2.000000 lineto stroke
newpath 193.846161 0.000000 moveto 193.846161 -2.000000 lineto stroke
newpath 199.384613 0.000000 moveto 199.384613 -2.000000 lineto stroke
newpath 204.923080 0.000000 moveto 204.923080 -2.000000 lineto stroke
newpath 210.461548 0.000000 moveto 210.461548 -2.000000 lineto stroke
newpath 216.000000 0.000000 moveto 216.000000 -5.000000 lineto stroke
gsave 49.846153 -8.000000 translate 0.000000 rotate
0 -5.400000 translate (10) dup stringwidth pop 2 div neg 0 moveto
show
grestore
gsave 105.230774 -8.000000 translate 0.000000 rotate
0 -5.400000 translate (20) dup stringwidth pop 2 div neg 0 moveto
show
grestore
gsave 160.615387 -8.000000 translate 0.000000 rotate
0 -5.400000 translate (30) dup stringwidth pop 2 div neg 0 moveto
show
grestore
gsave 216.000000 -8.000000 translate 0.000000 rotate
0 -5.400000 translate (40) dup stringwidth pop 2 div neg 0 moveto
show
grestore
/Times-Bold findfont 10.000000 scalefont setfont
gsave 108.000000 -21.400000 translate 0.000000 rotate
0 -6.000000 translate (OMP #threads) dup stringwidth pop 2 div neg 0 moveto
show
grestore
 grestore 
0.700000 setlinewidth  gsave newpath 0.000000 0.000000 moveto 0.000000 216.000000 lineto stroke
newpath 0.000000 0.000000 moveto -5.000000 0.000000 lineto stroke
newpath 0.000000 10.800000 moveto -2.000000 10.800000 lineto stroke
newpath 0.000000 21.600000 moveto -2.000000 21.600000 lineto stroke
newpath 0.000000 32.400002 moveto -2.000000 32.400002 lineto stroke
newpath 0.000000 43.200001 moveto -2.000000 43.200001 lineto stroke
newpath 0.000000 54.000000 moveto -5.000000 54.000000 lineto stroke
newpath 0.000000 64.800003 moveto -2.000000 64.800003 lineto stroke
newpath 0.000000 75.599998 moveto -2.000000 75.599998 lineto stroke
newpath 0.000000 86.400002 moveto -2.000000 86.400002 lineto stroke
newpath 0.000000 97.200005 moveto -2.000000 97.200005 lineto stroke
newpath 0.000000 108.000000 moveto -5.000000 108.000000 lineto stroke
newpath 0.000000 118.800003 moveto -2.000000 118.800003 lineto stroke
newpath 0.000000 129.600006 moveto -2.000000 129.600006 lineto stroke
newpath 0.000000 140.400009 moveto -2.000000 140.400009 lineto stroke
newpath 0.000000 151.199997 moveto -2.000000 151.199997 lineto stroke
newpath 0.000000 162.000000 moveto -5.000000 162.000000 lineto stroke
newpath 0.000000 172.800003 moveto -2.000000 172.800003 lineto stroke
newpath 0.000000 183.600006 moveto -2.000000 183.600006 lineto stroke
newpath 0.000000 194.400009 moveto -2.000000 194.400009 lineto stroke
newpath 0.000000 205.199997 moveto -2.000000 205.199997 lineto stroke
newpath 0.000000 216.000000 moveto -5.000000 216.000000 lineto stroke
/Times-Roman findfont 9.000000 scalefont setfont
gsave -8.000000 0.000000 translate 0.000000 rotate
0 -2.700000 translate (0) dup stringwidth pop neg 0 moveto
show
grestore
gsave -8.000000 54.000000 translate 0.000000 rotate
0 -2.700000 translate (5) dup stringwidth pop neg 0 moveto
show
grestore
gsave -8.000000 108.000000 translate 0.000000 rotate
0 -2.700000 translate (10) dup stringwidth pop neg 0 moveto
show
grestore
gsave -8.000000 162.000000 translate 0.000000 rotate
0 -2.700000 translate (15) dup stringwidth pop neg 0 moveto
show
grestore
gsave -8.000000 216.000000 translate 0.000000 rotate
0 -2.700000 translate (20) dup stringwidth pop neg 0 moveto
show
grestore
/Times-Bold findfont 10.000000 scalefont setfont
gsave -24.639999 108.000000 translate 90.000000 rotate
0 0.000000 translate (Speed-up) dup stringwidth pop 2 div neg 0 moveto
show
grestore
 grestore 
/Times-Roman findfont 12.000000 scalefont setfont
gsave 108.000000 -37.400002 translate 0.000000 rotate
0 -7.200000 translate (par2107) dup stringwidth pop 2 div neg 0 moveto
show 0 -14.400000 translate
(Speed-up wrt sequential time \(complete application\)) dup stringwidth pop 2 div neg 0 moveto
show 0 -14.400000 translate
(Generated by par2107 on Wed Nov 23 11:40:57 PM CET 2022) dup stringwidth pop 2 div neg 0 moveto
show
grestore
 gsave 
 gsave 0.700000 setlinewidth  [4.00000] 0 setdash
0.000000 10.800000 moveto   5.538462 21.600000 lineto
  11.076923 32.400002 lineto
  16.615385 43.200001 lineto
  22.153847 54.000000 lineto
  27.692308 64.800003 lineto
  33.230770 75.599998 lineto
  38.769234 86.400002 lineto
  44.307693 97.200005 lineto
  49.846153 108.000000 lineto
  55.384617 118.800003 lineto
  60.923080 129.600006 lineto
  66.461540 140.400009 lineto
  72.000000 151.199997 lineto
  77.538467 162.000000 lineto
  83.076927 172.800003 lineto
  88.615387 183.600006 lineto
  94.153847 194.400009 lineto
  99.692307 205.199997 lineto
  105.230774 216.000000 lineto
stroke
0.700000 setlinewidth  [] 0 setdash
 grestore 
 gsave 0.700000 setlinewidth  [] 0 setdash
0.000000 10.967298 moveto   5.538462 18.741177 lineto
  11.076923 25.285713 lineto
  16.615385 30.782610 lineto
  22.153847 34.819672 lineto
  27.692308 37.928570 lineto
  33.230770 42.198677 lineto
  38.769234 45.191490 lineto
  44.307693 46.173916 lineto
  49.846153 49.395348 lineto
  55.384617 51.387100 lineto
  60.923080 53.099998 lineto
  66.461540 54.931034 lineto
  72.000000 56.389381 lineto
  77.538467 57.405407 lineto
  83.076927 59.000004 lineto
  88.615387 60.113209 lineto
  94.153847 60.685715 lineto
  99.692307 61.864075 lineto
  105.230774 62.470589 lineto
  110.769234 63.089111 lineto
  116.307693 63.720001 lineto
  121.846161 63.720001 lineto
  127.384621 64.363640 lineto
  132.923080 64.363640 lineto
  138.461548 65.020409 lineto
  144.000000 65.020409 lineto
  149.538467 65.690720 lineto
  155.076935 65.690720 lineto
  160.615387 66.375000 lineto
  166.153854 66.375000 lineto
  171.692307 66.375000 lineto
  177.230774 67.073685 lineto
  182.769241 67.073685 lineto
  188.307693 67.073685 lineto
  193.846161 67.073685 lineto
  199.384613 67.787231 lineto
  204.923080 67.787231 lineto
  210.461548 67.787231 lineto
  216.000000 67.787231 lineto
stroke
0.700000 setlinewidth  [] 0 setdash
 grestore 
 grestore 
-0.000000 -324.000000 translate
0.000000 0.000000 translate
0.700000 setlinewidth  gsave newpath 0.000000 0.000000 moveto 216.000000 0.000000 lineto stroke
newpath 0.000000 0.000000 moveto 0.000000 -2.000000 lineto stroke
newpath 5.538462 0.000000 moveto 5.538462 -2.000000 lineto stroke
newpath 11.076923 0.000000 moveto 11.076923 -2.000000 lineto stroke
newpath 16.615385 0.000000 moveto 16.615385 -2.000000 lineto stroke
newpath 22.153847 0.000000 moveto 22.153847 -2.000000 lineto stroke
newpath 27.692308 0.000000 moveto 27.692308 -2.000000 lineto stroke
newpath 33.230770 0.000000 moveto 33.230770 -2.000000 lineto stroke
newpath 38.769234 0.000000 moveto 38.769234 -2.000000 lineto stroke
newpath 44.307693 0.000000 moveto 44.307693 -2.000000 lineto stroke
newpath 49.846153 0.000000 moveto 49.846153 -5.000000 lineto stroke
newpath 55.384617 0.000000 moveto 55.384617 -2.000000 lineto stroke
newpath 60.923080 0.000000 moveto 60.923080 -2.000000 lineto stroke
newpath 66.461540 0.000000 moveto 66.461540 -2.000000 lineto stroke
newpath 72.000000 0.000000 moveto 72.000000 -2.000000 lineto stroke
newpath 77.538467 0.000000 moveto 77.538467 -2.000000 lineto stroke
newpath 83.076927 0.000000 moveto 83.076927 -2.000000 lineto stroke
newpath 88.615387 0.000000 moveto 88.615387 -2.000000 lineto stroke
newpath 94.153847 0.000000 moveto 94.153847 -2.000000 lineto stroke
newpath 99.692307 0.000000 moveto 99.692307 -2.000000 lineto stroke
newpath 105.230774 0.000000 moveto 105.230774 -5.000000 lineto stroke
newpath 110.769234 0.000000 moveto 110.769234 -2.000000 lineto stroke
newpath 116.307693 0.000000 moveto 116.307693 -2.000000 lineto stroke
newpath 121.846161 0.000000 moveto 121.846161 -2.000000 lineto stroke
newpath 127.384621 0.000000 moveto 127.384621 -2.000000 lineto stroke
newpath 132.923080 0.000000 moveto 132.923080 -2.000000 lineto stroke
newpath 138.461548 0.000000 moveto 138.461548 -2.000000 lineto stroke
newpath 144.000000 0.000000 moveto 144.000000 -2.000000 lineto stroke
newpath 149.538467 0.000000 moveto 149.538467 -2.000000 lineto stroke
newpath 155.076935 0.000000 moveto 155.076935 -2.000000 lineto stroke
newpath 160.615387 0.000000 moveto 160.615387 -5.000000 lineto stroke
newpath 166.153854 0.000000 moveto 166.153854 -2.000000 lineto stroke
newpath 171.692307 0.000000 moveto 171.692307 -2.000000 lineto stroke
newpath 177.230774 0.000000 moveto 177.230774 -2.000000 lineto stroke
newpath 182.769241 0.000000 moveto 182.769241 -2.000000 lineto stroke
newpath 188.307693 0.000000 moveto 188.307693 -2.000000 lineto stroke
newpath 193.846161 0.000000 moveto 193.846161 -2.000000 lineto stroke
newpath 199.384613 0.000000 moveto 199.384613 -2.000000 lineto stroke
newpath 204.923080 0.000000 moveto 204.923080 -2.000000 lineto stroke
newpath 210.461548 0.000000 moveto 210.461548 -2.000000 lineto stroke
newpath 216.000000 0.000000 moveto 216.000000 -5.000000 lineto stroke
/Times-Roman findfont 9.000000 scalefont setfont
gsave 49.846153 -8.000000 translate 0.000000 rotate
0 -5.400000 translate (10) dup stringwidth pop 2 div neg 0 moveto
show
grestore
gsave 105.230774 -8.000000 translate 0.000000 rotate
0 -5.400000 translate (20) dup stringwidth pop 2 div neg 0 moveto
show
grestore
gsave 160.615387 -8.000000 translate 0.000000 rotate
0 -5.400000 translate (30) dup stringwidth pop 2 div neg 0 moveto
show
grestore
gsave 216.000000 -8.000000 translate 0.000000 rotate
0 -5.400000 translate (40) dup stringwidth pop 2 div neg 0 moveto
show
grestore
/Times-Bold findfont 10.000000 scalefont setfont
gsave 108.000000 -21.400000 translate 0.000000 rotate
0 -6.000000 translate (OMP #threads) dup stringwidth pop 2 div neg 0 moveto
show
grestore
 grestore 
0.700000 setlinewidth  gsave newpath 0.000000 0.000000 moveto 0.000000 216.000000 lineto stroke
newpath 0.000000 0.000000 moveto -2.000000 0.000000 lineto stroke
newpath 0.000000 9.297695 moveto -2.000000 9.297695 lineto stroke
newpath 0.000000 18.595390 moveto -2.000000 18.595390 lineto stroke
newpath 0.000000 27.893085 moveto -2.000000 27.893085 lineto stroke
newpath 0.000000 37.190781 moveto -5.000000 37.190781 lineto stroke
newpath 0.000000 46.488476 moveto -2.000000 46.488476 lineto stroke
newpath 0.000000 55.786171 moveto -2.000000 55.786171 lineto stroke
newpath 0.000000 65.083862 moveto -2.000000 65.083862 lineto stroke
newpath 0.000000 74.381561 moveto -2.000000 74.381561 lineto stroke
newpath 0.000000 83.679260 moveto -5.000000 83.679260 lineto stroke
newpath 0.000000 92.976952 moveto -2.000000 92.976952 lineto stroke
newpath 0.000000 102.274643 moveto -2.000000 102.274643 lineto stroke
newpath 0.000000 111.572342 moveto -2.000000 111.572342 lineto stroke
newpath 0.000000 120.870041 moveto -2.000000 120.870041 lineto stroke
newpath 0.000000 130.167725 moveto -5.000000 130.167725 lineto stroke
newpath 0.000000 139.465424 moveto -2.000000 139.465424 lineto stroke
newpath 0.000000 148.763123 moveto -2.000000 148.763123 lineto stroke
newpath 0.000000 158.060822 moveto -2.000000 158.060822 lineto stroke
newpath 0.000000 167.358521 moveto -2.000000 167.358521 lineto stroke
newpath 0.000000 176.656204 moveto -5.000000 176.656204 lineto stroke
newpath 0.000000 185.953903 moveto -2.000000 185.953903 lineto stroke
newpath 0.000000 195.251602 moveto -2.000000 195.251602 lineto stroke
newpath 0.000000 204.549286 moveto -2.000000 204.549286 lineto stroke
newpath 0.000000 213.846985 moveto -2.000000 213.846985 lineto stroke
/Times-Roman findfont 9.000000 scalefont setfont
gsave -8.000000 37.190781 translate 0.000000 rotate
0 -2.700000 translate (5) dup stringwidth pop neg 0 moveto
show
grestore
gsave -8.000000 83.679260 translate 0.000000 rotate
0 -2.700000 translate (10) dup stringwidth pop neg 0 moveto
show
grestore
gsave -8.000000 130.167725 translate 0.000000 rotate
0 -2.700000 translate (15) dup stringwidth pop neg 0 moveto
show
grestore
gsave -8.000000 176.656204 translate 0.000000 rotate
0 -2.700000 translate (20) dup stringwidth pop neg 0 moveto
show
grestore
/Times-Bold findfont 10.000000 scalefont setfont
gsave -24.639999 108.000000 translate 90.000000 rotate
0 0.000000 translate (Speed-up) dup stringwidth pop 2 div neg 0 moveto
show
grestore
 grestore 
/Times-Roman findfont 12.000000 scalefont setfont
gsave 108.000000 -37.400002 translate 0.000000 rotate
0 -7.200000 translate (par2107) dup stringwidth pop 2 div neg 0 moveto
show 0 -14.400000 translate
(Speed-up wrt sequential time \(multisort funtion only\)) dup stringwidth pop 2 div neg 0 moveto
show 0 -14.400000 translate
(Generated by par2107 on Wed Nov 23 11:40:57 PM CET 2022) dup stringwidth pop 2 div neg 0 moveto
show
grestore
 gsave 
 gsave 0.700000 setlinewidth  [4.00000] 0 setdash
0.000000 0.000000 moveto   5.538462 9.297695 lineto
  11.076923 18.595390 lineto
  16.615385 27.893085 lineto
  22.153847 37.190781 lineto
  27.692308 46.488476 lineto
  33.230770 55.786171 lineto
  38.769234 65.083862 lineto
  44.307693 74.381561 lineto
  49.846153 83.679260 lineto
  55.384617 92.976952 lineto
  60.923080 102.274643 lineto
  66.461540 111.572342 lineto
  72.000000 120.870041 lineto
  77.538467 130.167725 lineto
  83.076927 139.465424 lineto
  88.615387 148.763123 lineto
  94.153847 158.060822 lineto
  99.692307 167.358521 lineto
  105.230774 176.656204 lineto
stroke
0.700000 setlinewidth  [] 0 setdash
 grestore 
 gsave 0.700000 setlinewidth  [] 0 setdash
0.000000 0.152080 moveto   5.538462 8.714503 lineto
  11.076923 17.496143 lineto
  16.615385 26.686781 lineto
  22.153847 34.195969 lineto
  27.692308 41.381821 lineto
  33.230770 51.470760 lineto
  38.769234 59.701885 lineto
  44.307693 64.452728 lineto
  49.846153 74.264603 lineto
  55.384617 82.778236 lineto
  60.923080 90.579422 lineto
  66.461540 99.181404 lineto
  72.000000 107.092430 lineto
  77.538467 114.876900 lineto
  83.076927 123.694061 lineto
  88.615387 130.995056 lineto
  94.153847 137.913345 lineto
  99.692307 145.766312 lineto
  105.230774 152.282333 lineto
  110.769234 156.248123 lineto
  116.307693 159.584305 lineto
  121.846161 163.666229 lineto
  127.384621 167.638428 lineto
  132.923080 172.116653 lineto
  138.461548 175.651062 lineto
  144.000000 178.474487 lineto
  149.538467 181.466858 lineto
  155.076935 184.718292 lineto
  160.615387 188.968094 lineto
  166.153854 191.164001 lineto
  171.692307 195.531860 lineto
  177.230774 196.484009 lineto
  182.769241 202.260910 lineto
  188.307693 202.124634 lineto
  193.846161 204.352585 lineto
  199.384613 213.081314 lineto
  204.923080 213.238235 lineto
  210.461548 215.232590 lineto
  216.000000 216.000000 lineto
stroke
0.700000 setlinewidth  [] 0 setdash
 grestore 
 grestore 
-0.000000 -0.000000 translate
 grestore showpage
%%PageTrailer

%%Trailer
%%Pages: 1
%%EOF
