%!PS-Adobe-3.0
%%Pages: (atend)
%%Creator: jgraph
%%EndComments

%%BeginProlog
%%EndProlog
%%BeginSetup
%%EndSetup

%%Page: 1 1
%%BeginPageSetup
%%EndPageSetup

198.000000 161.500000 translate
1 setlinecap 1 setlinejoin
0.700 setlinewidth
0.00 setgray

/Jrnd { exch cvi exch cvi dup 3 1 roll idiv mul } def
/JDEdict 8 dict def
JDEdict /mtrx matrix put
/JDE {
  JDEdict begin
  /yrad exch def
  /xrad exch def
  /savematrix mtrx currentmatrix def
  xrad yrad scale
  0 0 1 0 360 arc
  savematrix setmatrix
  end
} def
/JSTR {
  gsave 1 eq { gsave 1 setgray fill grestore } if
    exch neg exch neg translate 
    clip                        
    rotate                      
    4 dict begin
      pathbbox  /&top exch def
                /&right exch def
                /&bottom exch def
                &right sub /&width exch def
      newpath
      currentlinewidth mul round dup               
      &bottom exch Jrnd exch &top             
      4 -1 roll currentlinewidth mul setlinewidth  
      { &right exch moveto &width 0 rlineto stroke } for    
    end
  grestore
  newpath
} bind def
 gsave /Times-Roman findfont 9.000000 scalefont setfont
0.000000 324.000000 translate
0.700000 setlinewidth  gsave newpath 0.000000 0.000000 moveto 216.000000 0.000000 lineto stroke
newpath 30.857143 0.000000 moveto 30.857143 -2.000000 lineto stroke
newpath 65.142860 0.000000 moveto 65.142860 -5.000000 lineto stroke
newpath 99.428574 0.000000 moveto 99.428574 -2.000000 lineto stroke
newpath 133.714294 0.000000 moveto 133.714294 -5.000000 lineto stroke
newpath 168.000000 0.000000 moveto 168.000000 -2.000000 lineto stroke
newpath 202.285721 0.000000 moveto 202.285721 -5.000000 lineto stroke
gsave 65.142860 -8.000000 translate 0.000000 rotate
0 -5.400000 translate (20) dup stringwidth pop 2 div neg 0 moveto
show
grestore
gsave 133.714294 -8.000000 translate 0.000000 rotate
0 -5.400000 translate (40) dup stringwidth pop 2 div neg 0 moveto
show
grestore
gsave 202.285721 -8.000000 translate 0.000000 rotate
0 -5.400000 translate (60) dup stringwidth pop 2 div neg 0 moveto
show
grestore
/Times-Bold findfont 10.000000 scalefont setfont
gsave 108.000000 -21.400000 translate 0.000000 rotate
0 -6.000000 translate (OMP #threads) dup stringwidth pop 2 div neg 0 moveto
show
grestore
 grestore 
0.700000 setlinewidth  gsave newpath 0.000000 0.000000 moveto 0.000000 216.000000 lineto stroke
newpath 0.000000 0.000000 moveto -5.000000 0.000000 lineto stroke
newpath 0.000000 10.800000 moveto -2.000000 10.800000 lineto stroke
newpath 0.000000 21.600000 moveto -2.000000 21.600000 lineto stroke
newpath 0.000000 32.400002 moveto -2.000000 32.400002 lineto stroke
newpath 0.000000 43.200001 moveto -2.000000 43.200001 lineto stroke
newpath 0.000000 54.000000 moveto -5.000000 54.000000 lineto stroke
newpath 0.000000 64.800003 moveto -2.000000 64.800003 lineto stroke
newpath 0.000000 75.599998 moveto -2.000000 75.599998 lineto stroke
newpath 0.000000 86.400002 moveto -2.000000 86.400002 lineto stroke
newpath 0.000000 97.200005 moveto -2.000000 97.200005 lineto stroke
newpath 0.000000 108.000000 moveto -5.000000 108.000000 lineto stroke
newpath 0.000000 118.800003 moveto -2.000000 118.800003 lineto stroke
newpath 0.000000 129.600006 moveto -2.000000 129.600006 lineto stroke
newpath 0.000000 140.400009 moveto -2.000000 140.400009 lineto stroke
newpath 0.000000 151.199997 moveto -2.000000 151.199997 lineto stroke
newpath 0.000000 162.000000 moveto -5.000000 162.000000 lineto stroke
newpath 0.000000 172.800003 moveto -2.000000 172.800003 lineto stroke
newpath 0.000000 183.600006 moveto -2.000000 183.600006 lineto stroke
newpath 0.000000 194.400009 moveto -2.000000 194.400009 lineto stroke
newpath 0.000000 205.199997 moveto -2.000000 205.199997 lineto stroke
newpath 0.000000 216.000000 moveto -5.000000 216.000000 lineto stroke
/Times-Roman findfont 9.000000 scalefont setfont
gsave -8.000000 0.000000 translate 0.000000 rotate
0 -2.700000 translate (0) dup stringwidth pop neg 0 moveto
show
grestore
gsave -8.000000 54.000000 translate 0.000000 rotate
0 -2.700000 translate (5) dup stringwidth pop neg 0 moveto
show
grestore
gsave -8.000000 108.000000 translate 0.000000 rotate
0 -2.700000 translate (10) dup stringwidth pop neg 0 moveto
show
grestore
gsave -8.000000 162.000000 translate 0.000000 rotate
0 -2.700000 translate (15) dup stringwidth pop neg 0 moveto
show
grestore
gsave -8.000000 216.000000 translate 0.000000 rotate
0 -2.700000 translate (20) dup stringwidth pop neg 0 moveto
show
grestore
/Times-Bold findfont 10.000000 scalefont setfont
gsave -24.639999 108.000000 translate 90.000000 rotate
0 0.000000 translate (Speed-up) dup stringwidth pop 2 div neg 0 moveto
show
grestore
 grestore 
/Times-Roman findfont 12.000000 scalefont setfont
gsave 108.000000 -37.400002 translate 0.000000 rotate
0 -7.200000 translate (par2107) dup stringwidth pop 2 div neg 0 moveto
show 0 -14.400000 translate
(Speed-up wrt sequential time \(complete application\)) dup stringwidth pop 2 div neg 0 moveto
show 0 -14.400000 translate
(Generated by par2107 on Thu Nov 24 01:53:11 AM CET 2022) dup stringwidth pop 2 div neg 0 moveto
show
grestore
 gsave 
 gsave 0.700000 setlinewidth  [4.00000] 0 setdash
0.000000 10.800000 moveto   3.428571 21.600000 lineto
  6.857143 32.400002 lineto
  10.285714 43.200001 lineto
  13.714286 54.000000 lineto
  17.142857 64.800003 lineto
  20.571428 75.599998 lineto
  24.000000 86.400002 lineto
  27.428572 97.200005 lineto
  30.857143 108.000000 lineto
  34.285713 118.800003 lineto
  37.714287 129.600006 lineto
  41.142857 140.400009 lineto
  44.571430 151.199997 lineto
  48.000000 162.000000 lineto
  51.428574 172.800003 lineto
  54.857143 183.600006 lineto
  58.285713 194.400009 lineto
  61.714287 205.199997 lineto
  65.142860 216.000000 lineto
stroke
0.700000 setlinewidth  [] 0 setdash
 grestore 
 gsave 0.700000 setlinewidth  [] 0 setdash
0.000000 10.855290 moveto   3.428571 18.654547 lineto
  6.857143 25.242857 lineto
  10.285714 30.730434 lineto
  13.714286 34.384865 lineto
  17.142857 37.864285 lineto
  20.571428 41.850002 lineto
  24.000000 44.483917 lineto
  27.428572 47.120003 lineto
  30.857143 48.932308 lineto
  34.285713 50.889599 lineto
  37.714287 52.571903 lineto
  41.142857 54.369236 lineto
  44.571430 55.799999 lineto
  48.000000 56.796432 lineto
  51.428574 58.359634 lineto
  54.857143 59.450470 lineto
  58.285713 60.582859 lineto
  61.714287 61.165386 lineto
  65.142860 62.364708 lineto
  68.571426 62.364708 lineto
  72.000000 62.982178 lineto
  75.428574 63.612000 lineto
  78.857147 63.612000 lineto
  82.285713 64.254547 lineto
  85.714287 64.254547 lineto
  89.142860 64.254547 lineto
  92.571426 64.910210 lineto
  96.000000 64.910210 lineto
  99.428574 65.579384 lineto
  102.857147 65.579384 lineto
  106.285713 66.262497 lineto
  109.714287 66.262497 lineto
  113.142860 66.262497 lineto
  116.571426 66.262497 lineto
  120.000000 66.959999 lineto
  123.428574 66.959999 lineto
  126.857147 67.672340 lineto
  130.285721 67.672340 lineto
  133.714294 67.672340 lineto
  137.142853 67.672340 lineto
  140.571426 67.672340 lineto
  144.000000 67.672340 lineto
  147.428574 66.959999 lineto
  150.857147 66.959999 lineto
  154.285721 65.579384 lineto
  157.714294 66.959999 lineto
  161.142853 64.910210 lineto
  164.571426 66.262497 lineto
  168.000000 63.612000 lineto
  171.428574 65.579384 lineto
  174.857147 64.254547 lineto
  178.285721 66.262497 lineto
  181.714294 63.612000 lineto
  185.142853 64.254547 lineto
  188.571426 64.254547 lineto
  192.000000 63.612000 lineto
  195.428574 62.982178 lineto
  198.857147 62.982178 lineto
  202.285721 62.982178 lineto
  205.714294 62.982178 lineto
  209.142853 64.254547 lineto
  212.571426 63.612000 lineto
  216.000000 62.364708 lineto
stroke
0.700000 setlinewidth  [] 0 setdash
 grestore 
 grestore 
-0.000000 -324.000000 translate
0.000000 0.000000 translate
0.700000 setlinewidth  gsave newpath 0.000000 0.000000 moveto 216.000000 0.000000 lineto stroke
newpath 30.857143 0.000000 moveto 30.857143 -2.000000 lineto stroke
newpath 65.142860 0.000000 moveto 65.142860 -5.000000 lineto stroke
newpath 99.428574 0.000000 moveto 99.428574 -2.000000 lineto stroke
newpath 133.714294 0.000000 moveto 133.714294 -5.000000 lineto stroke
newpath 168.000000 0.000000 moveto 168.000000 -2.000000 lineto stroke
newpath 202.285721 0.000000 moveto 202.285721 -5.000000 lineto stroke
/Times-Roman findfont 9.000000 scalefont setfont
gsave 65.142860 -8.000000 translate 0.000000 rotate
0 -5.400000 translate (20) dup stringwidth pop 2 div neg 0 moveto
show
grestore
gsave 133.714294 -8.000000 translate 0.000000 rotate
0 -5.400000 translate (40) dup stringwidth pop 2 div neg 0 moveto
show
grestore
gsave 202.285721 -8.000000 translate 0.000000 rotate
0 -5.400000 translate (60) dup stringwidth pop 2 div neg 0 moveto
show
grestore
/Times-Bold findfont 10.000000 scalefont setfont
gsave 108.000000 -21.400000 translate 0.000000 rotate
0 -6.000000 translate (OMP #threads) dup stringwidth pop 2 div neg 0 moveto
show
grestore
 grestore 
0.700000 setlinewidth  gsave newpath 0.000000 0.000000 moveto 0.000000 216.000000 lineto stroke
newpath 0.000000 0.000000 moveto -2.000000 0.000000 lineto stroke
newpath 0.000000 9.381957 moveto -2.000000 9.381957 lineto stroke
newpath 0.000000 18.763914 moveto -2.000000 18.763914 lineto stroke
newpath 0.000000 28.145870 moveto -2.000000 28.145870 lineto stroke
newpath 0.000000 37.527828 moveto -5.000000 37.527828 lineto stroke
newpath 0.000000 46.909786 moveto -2.000000 46.909786 lineto stroke
newpath 0.000000 56.291740 moveto -2.000000 56.291740 lineto stroke
newpath 0.000000 65.673698 moveto -2.000000 65.673698 lineto stroke
newpath 0.000000 75.055656 moveto -2.000000 75.055656 lineto stroke
newpath 0.000000 84.437614 moveto -5.000000 84.437614 lineto stroke
newpath 0.000000 93.819572 moveto -2.000000 93.819572 lineto stroke
newpath 0.000000 103.201530 moveto -2.000000 103.201530 lineto stroke
newpath 0.000000 112.583481 moveto -2.000000 112.583481 lineto stroke
newpath 0.000000 121.965439 moveto -2.000000 121.965439 lineto stroke
newpath 0.000000 131.347397 moveto -5.000000 131.347397 lineto stroke
newpath 0.000000 140.729355 moveto -2.000000 140.729355 lineto stroke
newpath 0.000000 150.111313 moveto -2.000000 150.111313 lineto stroke
newpath 0.000000 159.493271 moveto -2.000000 159.493271 lineto stroke
newpath 0.000000 168.875229 moveto -2.000000 168.875229 lineto stroke
newpath 0.000000 178.257187 moveto -5.000000 178.257187 lineto stroke
newpath 0.000000 187.639145 moveto -2.000000 187.639145 lineto stroke
newpath 0.000000 197.021103 moveto -2.000000 197.021103 lineto stroke
newpath 0.000000 206.403061 moveto -2.000000 206.403061 lineto stroke
newpath 0.000000 215.785019 moveto -2.000000 215.785019 lineto stroke
/Times-Roman findfont 9.000000 scalefont setfont
gsave -8.000000 37.527828 translate 0.000000 rotate
0 -2.700000 translate (5) dup stringwidth pop neg 0 moveto
show
grestore
gsave -8.000000 84.437614 translate 0.000000 rotate
0 -2.700000 translate (10) dup stringwidth pop neg 0 moveto
show
grestore
gsave -8.000000 131.347397 translate 0.000000 rotate
0 -2.700000 translate (15) dup stringwidth pop neg 0 moveto
show
grestore
gsave -8.000000 178.257187 translate 0.000000 rotate
0 -2.700000 translate (20) dup stringwidth pop neg 0 moveto
show
grestore
/Times-Bold findfont 10.000000 scalefont setfont
gsave -24.639999 108.000000 translate 90.000000 rotate
0 0.000000 translate (Speed-up) dup stringwidth pop 2 div neg 0 moveto
show
grestore
 grestore 
/Times-Roman findfont 12.000000 scalefont setfont
gsave 108.000000 -37.400002 translate 0.000000 rotate
0 -7.200000 translate (par2107) dup stringwidth pop 2 div neg 0 moveto
show 0 -14.400000 translate
(Speed-up wrt sequential time \(multisort funtion only\)) dup stringwidth pop 2 div neg 0 moveto
show 0 -14.400000 translate
(Generated by par2107 on Thu Nov 24 01:53:11 AM CET 2022) dup stringwidth pop 2 div neg 0 moveto
show
grestore
 gsave 
 gsave 0.700000 setlinewidth  [4.00000] 0 setdash
0.000000 0.000000 moveto   3.428571 9.381957 lineto
  6.857143 18.763914 lineto
  10.285714 28.145870 lineto
  13.714286 37.527828 lineto
  17.142857 46.909786 lineto
  20.571428 56.291740 lineto
  24.000000 65.673698 lineto
  27.428572 75.055656 lineto
  30.857143 84.437614 lineto
  34.285713 93.819572 lineto
  37.714287 103.201530 lineto
  41.142857 112.583481 lineto
  44.571430 121.965439 lineto
  48.000000 131.347397 lineto
  51.428574 140.729355 lineto
  54.857143 150.111313 lineto
  58.285713 159.493271 lineto
  61.714287 168.875229 lineto
  65.142860 178.257187 lineto
stroke
0.700000 setlinewidth  [] 0 setdash
 grestore 
 gsave 0.700000 setlinewidth  [] 0 setdash
0.000000 0.074378 moveto   3.428571 8.722793 lineto
  6.857143 17.665131 lineto
  10.285714 26.650421 lineto
  13.714286 33.833466 lineto
  17.142857 41.282932 lineto
  20.571428 51.303307 lineto
  24.000000 58.966820 lineto
  27.428572 66.934097 lineto
  30.857143 73.788422 lineto
  34.285713 81.822166 lineto
  37.714287 89.681358 lineto
  41.142857 97.515442 lineto
  44.571430 106.104141 lineto
  48.000000 113.217270 lineto
  51.428574 121.232933 lineto
  54.857143 128.497238 lineto
  58.285713 137.056030 lineto
  61.714287 144.695801 lineto
  65.142860 152.378494 lineto
  68.571426 154.050613 lineto
  72.000000 158.784943 lineto
  75.428574 162.680634 lineto
  78.857147 164.108627 lineto
  82.285713 169.142853 lineto
  85.714287 170.776611 lineto
  89.142860 174.346085 lineto
  92.571426 177.715424 lineto
  96.000000 180.862686 lineto
  99.428574 183.262039 lineto
  102.857147 186.467056 lineto
  106.285713 193.170914 lineto
  109.714287 194.386276 lineto
  113.142860 196.650818 lineto
  116.571426 199.436539 lineto
  120.000000 204.192825 lineto
  123.428574 208.154800 lineto
  126.857147 210.139923 lineto
  130.285721 213.280685 lineto
  133.714294 216.000000 lineto
  137.142853 214.979630 lineto
  140.571426 210.155777 lineto
  144.000000 210.619247 lineto
  147.428574 202.759064 lineto
  150.857147 202.858978 lineto
  154.285721 186.484406 lineto
  157.714294 202.543808 lineto
  161.142853 178.528885 lineto
  164.571426 194.890900 lineto
  168.000000 166.313385 lineto
  171.428574 188.725723 lineto
  174.857147 176.758606 lineto
  178.285721 191.623169 lineto
  181.714294 170.239319 lineto
  185.142853 177.136734 lineto
  188.571426 171.748215 lineto
  192.000000 167.673004 lineto
  195.428574 161.760269 lineto
  198.857147 164.282593 lineto
  202.285721 163.801788 lineto
  205.714294 162.116104 lineto
  209.142853 175.825638 lineto
  212.571426 164.917038 lineto
  216.000000 159.117996 lineto
stroke
0.700000 setlinewidth  [] 0 setdash
 grestore 
 grestore 
-0.000000 -0.000000 translate
 grestore showpage
%%PageTrailer

%%Trailer
%%Pages: 1
%%EOF
