%!PS-Adobe-3.0
%%Pages: (atend)
%%Creator: jgraph
%%EndComments

%%BeginProlog
%%EndProlog
%%BeginSetup
%%EndSetup

%%Page: 1 1
%%BeginPageSetup
%%EndPageSetup

198.000000 161.500000 translate
1 setlinecap 1 setlinejoin
0.700 setlinewidth
0.00 setgray

/Jrnd { exch cvi exch cvi dup 3 1 roll idiv mul } def
/JDEdict 8 dict def
JDEdict /mtrx matrix put
/JDE {
  JDEdict begin
  /yrad exch def
  /xrad exch def
  /savematrix mtrx currentmatrix def
  xrad yrad scale
  0 0 1 0 360 arc
  savematrix setmatrix
  end
} def
/JSTR {
  gsave 1 eq { gsave 1 setgray fill grestore } if
    exch neg exch neg translate 
    clip                        
    rotate                      
    4 dict begin
      pathbbox  /&top exch def
                /&right exch def
                /&bottom exch def
                &right sub /&width exch def
      newpath
      currentlinewidth mul round dup               
      &bottom exch Jrnd exch &top             
      4 -1 roll currentlinewidth mul setlinewidth  
      { &right exch moveto &width 0 rlineto stroke } for    
    end
  grestore
  newpath
} bind def
 gsave /Times-Roman findfont 9.000000 scalefont setfont
0.000000 324.000000 translate
0.700000 setlinewidth  gsave newpath 0.000000 0.000000 moveto 216.000000 0.000000 lineto stroke
newpath 0.000000 0.000000 moveto 0.000000 -2.000000 lineto stroke
newpath 11.368421 0.000000 moveto 11.368421 -2.000000 lineto stroke
newpath 22.736841 0.000000 moveto 22.736841 -2.000000 lineto stroke
newpath 34.105263 0.000000 moveto 34.105263 -2.000000 lineto stroke
newpath 45.473682 0.000000 moveto 45.473682 -5.000000 lineto stroke
newpath 56.842102 0.000000 moveto 56.842102 -2.000000 lineto stroke
newpath 68.210526 0.000000 moveto 68.210526 -2.000000 lineto stroke
newpath 79.578941 0.000000 moveto 79.578941 -2.000000 lineto stroke
newpath 90.947365 0.000000 moveto 90.947365 -2.000000 lineto stroke
newpath 102.315788 0.000000 moveto 102.315788 -5.000000 lineto stroke
newpath 113.684204 0.000000 moveto 113.684204 -2.000000 lineto stroke
newpath 125.052628 0.000000 moveto 125.052628 -2.000000 lineto stroke
newpath 136.421051 0.000000 moveto 136.421051 -2.000000 lineto stroke
newpath 147.789474 0.000000 moveto 147.789474 -2.000000 lineto stroke
newpath 159.157883 0.000000 moveto 159.157883 -5.000000 lineto stroke
newpath 170.526306 0.000000 moveto 170.526306 -2.000000 lineto stroke
newpath 181.894730 0.000000 moveto 181.894730 -2.000000 lineto stroke
newpath 193.263153 0.000000 moveto 193.263153 -2.000000 lineto stroke
newpath 204.631577 0.000000 moveto 204.631577 -2.000000 lineto stroke
newpath 215.999985 0.000000 moveto 215.999985 -5.000000 lineto stroke
gsave 45.473682 -8.000000 translate 0.000000 rotate
0 -5.400000 translate (5) dup stringwidth pop 2 div neg 0 moveto
show
grestore
gsave 102.315788 -8.000000 translate 0.000000 rotate
0 -5.400000 translate (10) dup stringwidth pop 2 div neg 0 moveto
show
grestore
gsave 159.157883 -8.000000 translate 0.000000 rotate
0 -5.400000 translate (15) dup stringwidth pop 2 div neg 0 moveto
show
grestore
gsave 215.999985 -8.000000 translate 0.000000 rotate
0 -5.400000 translate (20) dup stringwidth pop 2 div neg 0 moveto
show
grestore
/Times-Bold findfont 10.000000 scalefont setfont
gsave 108.000000 -21.400000 translate 0.000000 rotate
0 -6.000000 translate (OMP #threads) dup stringwidth pop 2 div neg 0 moveto
show
grestore
 grestore 
0.700000 setlinewidth  gsave newpath 0.000000 0.000000 moveto 0.000000 216.000000 lineto stroke
newpath 0.000000 0.000000 moveto -5.000000 0.000000 lineto stroke
newpath 0.000000 10.800000 moveto -2.000000 10.800000 lineto stroke
newpath 0.000000 21.600000 moveto -2.000000 21.600000 lineto stroke
newpath 0.000000 32.400002 moveto -2.000000 32.400002 lineto stroke
newpath 0.000000 43.200001 moveto -2.000000 43.200001 lineto stroke
newpath 0.000000 54.000000 moveto -5.000000 54.000000 lineto stroke
newpath 0.000000 64.800003 moveto -2.000000 64.800003 lineto stroke
newpath 0.000000 75.599998 moveto -2.000000 75.599998 lineto stroke
newpath 0.000000 86.400002 moveto -2.000000 86.400002 lineto stroke
newpath 0.000000 97.200005 moveto -2.000000 97.200005 lineto stroke
newpath 0.000000 108.000000 moveto -5.000000 108.000000 lineto stroke
newpath 0.000000 118.800003 moveto -2.000000 118.800003 lineto stroke
newpath 0.000000 129.600006 moveto -2.000000 129.600006 lineto stroke
newpath 0.000000 140.400009 moveto -2.000000 140.400009 lineto stroke
newpath 0.000000 151.199997 moveto -2.000000 151.199997 lineto stroke
newpath 0.000000 162.000000 moveto -5.000000 162.000000 lineto stroke
newpath 0.000000 172.800003 moveto -2.000000 172.800003 lineto stroke
newpath 0.000000 183.600006 moveto -2.000000 183.600006 lineto stroke
newpath 0.000000 194.400009 moveto -2.000000 194.400009 lineto stroke
newpath 0.000000 205.199997 moveto -2.000000 205.199997 lineto stroke
newpath 0.000000 216.000000 moveto -5.000000 216.000000 lineto stroke
/Times-Roman findfont 9.000000 scalefont setfont
gsave -8.000000 0.000000 translate 0.000000 rotate
0 -2.700000 translate (0) dup stringwidth pop neg 0 moveto
show
grestore
gsave -8.000000 54.000000 translate 0.000000 rotate
0 -2.700000 translate (5) dup stringwidth pop neg 0 moveto
show
grestore
gsave -8.000000 108.000000 translate 0.000000 rotate
0 -2.700000 translate (10) dup stringwidth pop neg 0 moveto
show
grestore
gsave -8.000000 162.000000 translate 0.000000 rotate
0 -2.700000 translate (15) dup stringwidth pop neg 0 moveto
show
grestore
gsave -8.000000 216.000000 translate 0.000000 rotate
0 -2.700000 translate (20) dup stringwidth pop neg 0 moveto
show
grestore
/Times-Bold findfont 10.000000 scalefont setfont
gsave -24.639999 108.000000 translate 90.000000 rotate
0 0.000000 translate (Speed-up) dup stringwidth pop 2 div neg 0 moveto
show
grestore
 grestore 
/Times-Roman findfont 12.000000 scalefont setfont
gsave 108.000000 -37.400002 translate 0.000000 rotate
0 -7.200000 translate (par2107) dup stringwidth pop 2 div neg 0 moveto
show 0 -14.400000 translate
(Speed-up wrt sequential time \(complete application\)) dup stringwidth pop 2 div neg 0 moveto
show 0 -14.400000 translate
(Generated by par2107 on Thu Nov 24 01:56:32 AM CET 2022) dup stringwidth pop 2 div neg 0 moveto
show
grestore
 gsave 
 gsave 0.700000 setlinewidth  [4.00000] 0 setdash
0.000000 10.800000 moveto   11.368421 21.600000 lineto
  22.736841 32.400002 lineto
  34.105263 43.200001 lineto
  45.473682 54.000000 lineto
  56.842102 64.800003 lineto
  68.210526 75.599998 lineto
  79.578941 86.400002 lineto
  90.947365 97.200005 lineto
  102.315788 108.000000 lineto
  113.684204 118.800003 lineto
  125.052628 129.600006 lineto
  136.421051 140.400009 lineto
  147.789474 151.199997 lineto
  159.157883 162.000000 lineto
  170.526306 172.800003 lineto
  181.894730 183.600006 lineto
  193.263153 194.400009 lineto
  204.631577 205.199997 lineto
  215.999985 216.000000 lineto
stroke
0.700000 setlinewidth  [] 0 setdash
 grestore 
 gsave 0.700000 setlinewidth  [] 0 setdash
0.000000 10.911340 moveto   11.368421 18.732744 lineto
  22.736841 25.401600 lineto
  34.105263 30.827185 lineto
  45.473682 34.513046 lineto
  56.842102 37.799999 lineto
  68.210526 40.970322 lineto
  79.578941 44.408390 lineto
  90.947365 46.694118 lineto
  102.315788 48.476337 lineto
  113.684204 50.803200 lineto
  125.052628 52.052460 lineto
  136.421051 53.364708 lineto
  147.789474 54.744827 lineto
  159.157883 56.198231 lineto
  170.526306 58.260551 lineto
  181.894730 59.349533 lineto
  193.263153 60.480000 lineto
  204.631577 61.061543 lineto
  215.999985 61.654369 lineto
stroke
0.700000 setlinewidth  [] 0 setdash
 grestore 
 grestore 
-0.000000 -324.000000 translate
0.000000 0.000000 translate
0.700000 setlinewidth  gsave newpath 0.000000 0.000000 moveto 216.000000 0.000000 lineto stroke
newpath 0.000000 0.000000 moveto 0.000000 -2.000000 lineto stroke
newpath 11.368421 0.000000 moveto 11.368421 -2.000000 lineto stroke
newpath 22.736841 0.000000 moveto 22.736841 -2.000000 lineto stroke
newpath 34.105263 0.000000 moveto 34.105263 -2.000000 lineto stroke
newpath 45.473682 0.000000 moveto 45.473682 -5.000000 lineto stroke
newpath 56.842102 0.000000 moveto 56.842102 -2.000000 lineto stroke
newpath 68.210526 0.000000 moveto 68.210526 -2.000000 lineto stroke
newpath 79.578941 0.000000 moveto 79.578941 -2.000000 lineto stroke
newpath 90.947365 0.000000 moveto 90.947365 -2.000000 lineto stroke
newpath 102.315788 0.000000 moveto 102.315788 -5.000000 lineto stroke
newpath 113.684204 0.000000 moveto 113.684204 -2.000000 lineto stroke
newpath 125.052628 0.000000 moveto 125.052628 -2.000000 lineto stroke
newpath 136.421051 0.000000 moveto 136.421051 -2.000000 lineto stroke
newpath 147.789474 0.000000 moveto 147.789474 -2.000000 lineto stroke
newpath 159.157883 0.000000 moveto 159.157883 -5.000000 lineto stroke
newpath 170.526306 0.000000 moveto 170.526306 -2.000000 lineto stroke
newpath 181.894730 0.000000 moveto 181.894730 -2.000000 lineto stroke
newpath 193.263153 0.000000 moveto 193.263153 -2.000000 lineto stroke
newpath 204.631577 0.000000 moveto 204.631577 -2.000000 lineto stroke
newpath 215.999985 0.000000 moveto 215.999985 -5.000000 lineto stroke
/Times-Roman findfont 9.000000 scalefont setfont
gsave 45.473682 -8.000000 translate 0.000000 rotate
0 -5.400000 translate (5) dup stringwidth pop 2 div neg 0 moveto
show
grestore
gsave 102.315788 -8.000000 translate 0.000000 rotate
0 -5.400000 translate (10) dup stringwidth pop 2 div neg 0 moveto
show
grestore
gsave 159.157883 -8.000000 translate 0.000000 rotate
0 -5.400000 translate (15) dup stringwidth pop 2 div neg 0 moveto
show
grestore
gsave 215.999985 -8.000000 translate 0.000000 rotate
0 -5.400000 translate (20) dup stringwidth pop 2 div neg 0 moveto
show
grestore
/Times-Bold findfont 10.000000 scalefont setfont
gsave 108.000000 -21.400000 translate 0.000000 rotate
0 -6.000000 translate (OMP #threads) dup stringwidth pop 2 div neg 0 moveto
show
grestore
 grestore 
0.700000 setlinewidth  gsave newpath 0.000000 0.000000 moveto 0.000000 216.000000 lineto stroke
newpath 0.000000 0.000000 moveto -2.000000 0.000000 lineto stroke
newpath 0.000000 11.368421 moveto -2.000000 11.368421 lineto stroke
newpath 0.000000 22.736841 moveto -2.000000 22.736841 lineto stroke
newpath 0.000000 34.105263 moveto -2.000000 34.105263 lineto stroke
newpath 0.000000 45.473682 moveto -5.000000 45.473682 lineto stroke
newpath 0.000000 56.842102 moveto -2.000000 56.842102 lineto stroke
newpath 0.000000 68.210526 moveto -2.000000 68.210526 lineto stroke
newpath 0.000000 79.578941 moveto -2.000000 79.578941 lineto stroke
newpath 0.000000 90.947365 moveto -2.000000 90.947365 lineto stroke
newpath 0.000000 102.315788 moveto -5.000000 102.315788 lineto stroke
newpath 0.000000 113.684204 moveto -2.000000 113.684204 lineto stroke
newpath 0.000000 125.052628 moveto -2.000000 125.052628 lineto stroke
newpath 0.000000 136.421051 moveto -2.000000 136.421051 lineto stroke
newpath 0.000000 147.789474 moveto -2.000000 147.789474 lineto stroke
newpath 0.000000 159.157883 moveto -5.000000 159.157883 lineto stroke
newpath 0.000000 170.526306 moveto -2.000000 170.526306 lineto stroke
newpath 0.000000 181.894730 moveto -2.000000 181.894730 lineto stroke
newpath 0.000000 193.263153 moveto -2.000000 193.263153 lineto stroke
newpath 0.000000 204.631577 moveto -2.000000 204.631577 lineto stroke
newpath 0.000000 215.999985 moveto -5.000000 215.999985 lineto stroke
/Times-Roman findfont 9.000000 scalefont setfont
gsave -8.000000 45.473682 translate 0.000000 rotate
0 -2.700000 translate (5) dup stringwidth pop neg 0 moveto
show
grestore
gsave -8.000000 102.315788 translate 0.000000 rotate
0 -2.700000 translate (10) dup stringwidth pop neg 0 moveto
show
grestore
gsave -8.000000 159.157883 translate 0.000000 rotate
0 -2.700000 translate (15) dup stringwidth pop neg 0 moveto
show
grestore
gsave -8.000000 215.999985 translate 0.000000 rotate
0 -2.700000 translate (20) dup stringwidth pop neg 0 moveto
show
grestore
/Times-Bold findfont 10.000000 scalefont setfont
gsave -24.639999 108.000000 translate 90.000000 rotate
0 0.000000 translate (Speed-up) dup stringwidth pop 2 div neg 0 moveto
show
grestore
 grestore 
/Times-Roman findfont 12.000000 scalefont setfont
gsave 108.000000 -37.400002 translate 0.000000 rotate
0 -7.200000 translate (par2107) dup stringwidth pop 2 div neg 0 moveto
show 0 -14.400000 translate
(Speed-up wrt sequential time \(multisort funtion only\)) dup stringwidth pop 2 div neg 0 moveto
show 0 -14.400000 translate
(Generated by par2107 on Thu Nov 24 01:56:32 AM CET 2022) dup stringwidth pop 2 div neg 0 moveto
show
grestore
 gsave 
 gsave 0.700000 setlinewidth  [4.00000] 0 setdash
0.000000 0.000000 moveto   11.368421 11.368421 lineto
  22.736841 22.736841 lineto
  34.105263 34.105263 lineto
  45.473682 45.473682 lineto
  56.842102 56.842102 lineto
  68.210526 68.210526 lineto
  79.578941 79.578941 lineto
  90.947365 90.947365 lineto
  102.315788 102.315788 lineto
  113.684204 113.684204 lineto
  125.052628 125.052628 lineto
  136.421051 136.421051 lineto
  147.789474 147.789474 lineto
  159.157883 159.157883 lineto
  170.526306 170.526306 lineto
  181.894730 181.894730 lineto
  193.263153 193.263153 lineto
  204.631577 204.631577 lineto
  215.999985 215.999985 lineto
stroke
0.700000 setlinewidth  [] 0 setdash
 grestore 
 gsave 0.700000 setlinewidth  [] 0 setdash
0.000000 0.152846 moveto   11.368421 10.683289 lineto
  22.736841 21.761816 lineto
  34.105263 32.535507 lineto
  45.473682 41.003090 lineto
  56.842102 49.686382 lineto
  68.210526 61.075016 lineto
  79.578941 70.713646 lineto
  90.947365 80.395004 lineto
  102.315788 87.833275 lineto
  113.684204 98.161140 lineto
  125.052628 105.217422 lineto
  136.421051 113.301369 lineto
  147.789474 122.512001 lineto
  159.157883 129.750961 lineto
  170.526306 145.278885 lineto
  181.894730 154.673553 lineto
  193.263153 162.832581 lineto
  204.631577 172.067017 lineto
  215.999985 180.518677 lineto
stroke
0.700000 setlinewidth  [] 0 setdash
 grestore 
 grestore 
-0.000000 -0.000000 translate
 grestore showpage
%%PageTrailer

%%Trailer
%%Pages: 1
%%EOF
