rm -fr multisort-seq multisort-tareador multisort-omp *.o .tareador_precomputed* *.log
icc  -c -g -std=c99 -Wall -O2 -fp-model precise kernels.c -o kernels.o
icc  -g -std=c99 -Wall -O2 -fp-model precise -fopenmp multisort-omp.c kernels.o -lm -o multisort-omp
Tracing multisort-omp with 1 threads
Welcome to Extrae 4.0.1
Extrae: Detected GOMP version is 4.5
Extrae: Detected and hooked OpenMP runtime: [Intel KMPC] [GNU GOMP]
Extrae: OMP_NUM_THREADS set to 1
Extrae: Parsing the configuration file (/Soft/PAR/extrae.xml) begins
Extrae: Tracing package is located on $EXTRAE_HOME
Extrae: Generating intermediate files for Paraver traces.
Extrae: OpenMP routines will collect HW counters information.
Extrae: User Function routines will collect HW counters information.
Extrae: PAPI domain set to ALL for HWC set 1
Extrae: HWC set 1 contains following counters < PAPI_TOT_CYC (0x8000003b) PAPI_TOT_INS (0x80000032) FP_ARITH:512B_PACKED_DOUBLE (0x40000024) > - never changes
Extrae: Resource usage is disabled at flush buffer.
Extrae: Memory usage is disabled at flush buffer.
Extrae: Tracing buffer can hold 500000 events
Extrae: Circular buffer disabled.
Extrae: Dynamic memory instrumentation is disabled.
Extrae: Basic I/O memory instrumentation is disabled.
Extrae: System calls instrumentation is disabled.
Extrae: Parsing the configuration file (/Soft/PAR/extrae.xml) has ended
Extrae: Intermediate traces will be stored in /scratch/nas/1/par2107/fold/lab4
Extrae: Tracing mode is set to: Detail.
Extrae: Successfully initiated with 1 tasks and 1 threads

*****************************************************************************************
Problem size (in number of elements): N=1024, MIN_SORT_SIZE=256, MIN_MERGE_SIZE=256
Cut-off level:                        CUTOFF=4
Number of threads in OpenMP:          OMP_NUM_THREADS=1
*****************************************************************************************
Initialization time in seconds: 0.022457
Multisort execution time: 0.137277
Check sorted data execution time: 0.000237
Multisort program finished
*****************************************************************************************
Extrae: Intermediate raw trace file created : /scratch/nas/1/par2107/fold/lab4/set-0/TRACE@boada-11.ac.upc.es.0003936587000000000000.mpit
Extrae: Intermediate raw sym file created : /scratch/nas/1/par2107/fold/lab4/set-0/TRACE@boada-11.ac.upc.es.0003936587000000000000.sym
Extrae: Deallocating memory.
Extrae: Application has ended. Tracing has been terminated.
mpi2prv: A total of 3 symbols were imported from TRACE.sym file
mpi2prv: 0 function symbols imported
mpi2prv: 3 HWC counter descriptions imported
merger: Output trace format is: Paraver
merger: Extrae 4.0.1
mpi2prv: Assigned nodes < boada-11.ac.upc.es >
mpi2prv: Assigned size per processor < 1 Mbytes >
mpi2prv: File /scratch/nas/1/par2107/fold/lab4/set-0/TRACE@boada-11.ac.upc.es.0003936587000000000000.mpit is object 1.1.1 on node boada-11.ac.upc.es assigned to processor 0
mpi2prv: Time synchronization has been turned off
mpi2prv: Checking for target directory existence... exists, ok!
mpi2prv: Selected output trace format is Paraver
mpi2prv: Stored trace format is Paraver
mpi2prv: Enabling Time Synchronization (Node).
mpi2prv: Circular buffer enabled at tracing time? NO
mpi2prv: Parsing intermediate files
mpi2prv: Progress 1 of 2 ... 5% 10% 15% 20% 25% 30% 35% 40% 45% 50% 55% 60% 65% 70% 75% 80% 85% 90% 95% done
mpi2prv: Processor 0 succeeded to translate its assigned files
mpi2prv: Elapsed time translating files: 0 hours 0 minutes 0 seconds
mpi2prv: Elapsed time sorting addresses: 0 hours 0 minutes 0 seconds
mpi2prv: Generating tracefile (intermediate buffers of 6710784 events)
         This process can take a while. Please, be patient.
mpi2prv: Progress 2 of 2 ... 5% 10% 15% 20% 25% 30% 35% 40% 45% 50% 55% 60% 65% 70% 75% 80% 85% 90% 95% done
mpi2prv: Elapsed time merge step: 0 hours 0 minutes 0 seconds
mpi2prv: Resulting tracefile occupies 1503986 bytes
mpi2prv: Removing temporal files... done
mpi2prv: Elapsed time removing temporal files: 0 hours 0 minutes 0 seconds
mpi2prv: Congratulations! multisort-omp-strong-extrae/multisort-omp-1-boada-11.prv has been generated.
Tracing multisort-omp with 2 threads
Welcome to Extrae 4.0.1
Extrae: Detected GOMP version is 4.5
Extrae: Detected and hooked OpenMP runtime: [Intel KMPC] [GNU GOMP]
Extrae: OMP_NUM_THREADS set to 2
Extrae: Parsing the configuration file (/Soft/PAR/extrae.xml) begins
Extrae: Tracing package is located on $EXTRAE_HOME
Extrae: Generating intermediate files for Paraver traces.
Extrae: OpenMP routines will collect HW counters information.
Extrae: User Function routines will collect HW counters information.
Extrae: PAPI domain set to ALL for HWC set 1
Extrae: HWC set 1 contains following counters < PAPI_TOT_CYC (0x8000003b) PAPI_TOT_INS (0x80000032) FP_ARITH:512B_PACKED_DOUBLE (0x40000024) > - never changes
Extrae: Resource usage is disabled at flush buffer.
Extrae: Memory usage is disabled at flush buffer.
Extrae: Tracing buffer can hold 500000 events
Extrae: Circular buffer disabled.
Extrae: Dynamic memory instrumentation is disabled.
Extrae: Basic I/O memory instrumentation is disabled.
Extrae: System calls instrumentation is disabled.
Extrae: Parsing the configuration file (/Soft/PAR/extrae.xml) has ended
Extrae: Intermediate traces will be stored in /scratch/nas/1/par2107/fold/lab4
Extrae: Tracing mode is set to: Detail.
Extrae: Successfully initiated with 1 tasks and 2 threads

*****************************************************************************************
Problem size (in number of elements): N=1024, MIN_SORT_SIZE=256, MIN_MERGE_SIZE=256
Cut-off level:                        CUTOFF=4
Number of threads in OpenMP:          OMP_NUM_THREADS=2
*****************************************************************************************
Initialization time in seconds: 0.011876
Multisort execution time: 0.071927
Check sorted data execution time: 0.000514
Multisort program finished
*****************************************************************************************
Extrae: Intermediate raw trace file created : /scratch/nas/1/par2107/fold/lab4/set-0/TRACE@boada-11.ac.upc.es.0003936613000000000000.mpit
Extrae: Intermediate raw sym file created : /scratch/nas/1/par2107/fold/lab4/set-0/TRACE@boada-11.ac.upc.es.0003936613000000000000.sym
Extrae: Intermediate raw trace file created : /scratch/nas/1/par2107/fold/lab4/set-0/TRACE@boada-11.ac.upc.es.0003936613000000000001.mpit
Extrae: Deallocating memory.
Extrae: Application has ended. Tracing has been terminated.
mpi2prv: A total of 3 symbols were imported from TRACE.sym file
mpi2prv: 0 function symbols imported
mpi2prv: 3 HWC counter descriptions imported
merger: Output trace format is: Paraver
merger: Extrae 4.0.1
mpi2prv: Assigned nodes < boada-11.ac.upc.es >
mpi2prv: Assigned size per processor < 1 Mbytes >
mpi2prv: File /scratch/nas/1/par2107/fold/lab4/set-0/TRACE@boada-11.ac.upc.es.0003936613000000000000.mpit is object 1.1.1 on node boada-11.ac.upc.es assigned to processor 0
mpi2prv: File /scratch/nas/1/par2107/fold/lab4/set-0/TRACE@boada-11.ac.upc.es.0003936613000000000001.mpit is object 1.1.2 on node boada-11.ac.upc.es assigned to processor 0
mpi2prv: Time synchronization has been turned off
mpi2prv: Checking for target directory existence... exists, ok!
mpi2prv: Selected output trace format is Paraver
mpi2prv: Stored trace format is Paraver
mpi2prv: Enabling Time Synchronization (Node).
mpi2prv: Circular buffer enabled at tracing time? NO
mpi2prv: Parsing intermediate files
mpi2prv: Progress 1 of 2 ... 5% 10% 15% 20% 25% 30% 35% 40% 45% 50% 55% 60% 65% 70% 75% 80% 85% 90% 95% done
mpi2prv: Processor 0 succeeded to translate its assigned files
mpi2prv: Elapsed time translating files: 0 hours 0 minutes 0 seconds
mpi2prv: Elapsed time sorting addresses: 0 hours 0 minutes 0 seconds
mpi2prv: Generating tracefile (intermediate buffers of 3355392 events)
         This process can take a while. Please, be patient.
mpi2prv: Progress 2 of 2 ... 5% 10% 15% 20% 25% 30% 35% 40% 45% 50% 55% 60% 65% 70% 75% 80% 85% 90% 95% done
mpi2prv: Elapsed time merge step: 0 hours 0 minutes 0 seconds
mpi2prv: Resulting tracefile occupies 1727096 bytes
mpi2prv: Removing temporal files... done
mpi2prv: Elapsed time removing temporal files: 0 hours 0 minutes 0 seconds
mpi2prv: Congratulations! multisort-omp-strong-extrae/multisort-omp-2-boada-11.prv has been generated.
Tracing multisort-omp with 4 threads
Welcome to Extrae 4.0.1
Extrae: Detected GOMP version is 4.5
Extrae: Detected and hooked OpenMP runtime: [Intel KMPC] [GNU GOMP]
Extrae: OMP_NUM_THREADS set to 4
Extrae: Parsing the configuration file (/Soft/PAR/extrae.xml) begins
Extrae: Tracing package is located on $EXTRAE_HOME
Extrae: Generating intermediate files for Paraver traces.
Extrae: OpenMP routines will collect HW counters information.
Extrae: User Function routines will collect HW counters information.
Extrae: PAPI domain set to ALL for HWC set 1
Extrae: HWC set 1 contains following counters < PAPI_TOT_CYC (0x8000003b) PAPI_TOT_INS (0x80000032) FP_ARITH:512B_PACKED_DOUBLE (0x40000024) > - never changes
Extrae: Resource usage is disabled at flush buffer.
Extrae: Memory usage is disabled at flush buffer.
Extrae: Tracing buffer can hold 500000 events
Extrae: Circular buffer disabled.
Extrae: Dynamic memory instrumentation is disabled.
Extrae: Basic I/O memory instrumentation is disabled.
Extrae: System calls instrumentation is disabled.
Extrae: Parsing the configuration file (/Soft/PAR/extrae.xml) has ended
Extrae: Intermediate traces will be stored in /scratch/nas/1/par2107/fold/lab4
Extrae: Tracing mode is set to: Detail.
Extrae: Successfully initiated with 1 tasks and 4 threads

*****************************************************************************************
Problem size (in number of elements): N=1024, MIN_SORT_SIZE=256, MIN_MERGE_SIZE=256
Cut-off level:                        CUTOFF=4
Number of threads in OpenMP:          OMP_NUM_THREADS=4
*****************************************************************************************
Initialization time in seconds: 0.006388
Multisort execution time: 0.038268
Check sorted data execution time: 0.000503
Multisort program finished
*****************************************************************************************
Extrae: Intermediate raw trace file created : /scratch/nas/1/par2107/fold/lab4/set-0/TRACE@boada-11.ac.upc.es.0003936640000000000000.mpit
Extrae: Intermediate raw sym file created : /scratch/nas/1/par2107/fold/lab4/set-0/TRACE@boada-11.ac.upc.es.0003936640000000000000.sym
Extrae: Intermediate raw trace file created : /scratch/nas/1/par2107/fold/lab4/set-0/TRACE@boada-11.ac.upc.es.0003936640000000000001.mpit
Extrae: Intermediate raw trace file created : /scratch/nas/1/par2107/fold/lab4/set-0/TRACE@boada-11.ac.upc.es.0003936640000000000002.mpit
Extrae: Intermediate raw trace file created : /scratch/nas/1/par2107/fold/lab4/set-0/TRACE@boada-11.ac.upc.es.0003936640000000000003.mpit
Extrae: Deallocating memory.
Extrae: Application has ended. Tracing has been terminated.
mpi2prv: A total of 3 symbols were imported from TRACE.sym file
mpi2prv: 0 function symbols imported
mpi2prv: 3 HWC counter descriptions imported
merger: Output trace format is: Paraver
merger: Extrae 4.0.1
mpi2prv: Assigned nodes < boada-11.ac.upc.es >
mpi2prv: Assigned size per processor < 1 Mbytes >
mpi2prv: File /scratch/nas/1/par2107/fold/lab4/set-0/TRACE@boada-11.ac.upc.es.0003936640000000000000.mpit is object 1.1.1 on node boada-11.ac.upc.es assigned to processor 0
mpi2prv: File /scratch/nas/1/par2107/fold/lab4/set-0/TRACE@boada-11.ac.upc.es.0003936640000000000001.mpit is object 1.1.2 on node boada-11.ac.upc.es assigned to processor 0
mpi2prv: File /scratch/nas/1/par2107/fold/lab4/set-0/TRACE@boada-11.ac.upc.es.0003936640000000000002.mpit is object 1.1.3 on node boada-11.ac.upc.es assigned to processor 0
mpi2prv: File /scratch/nas/1/par2107/fold/lab4/set-0/TRACE@boada-11.ac.upc.es.0003936640000000000003.mpit is object 1.1.4 on node boada-11.ac.upc.es assigned to processor 0
mpi2prv: Time synchronization has been turned off
mpi2prv: Checking for target directory existence... exists, ok!
mpi2prv: Selected output trace format is Paraver
mpi2prv: Stored trace format is Paraver
mpi2prv: Enabling Time Synchronization (Node).
mpi2prv: Circular buffer enabled at tracing time? NO
mpi2prv: Parsing intermediate files
mpi2prv: Progress 1 of 2 ... 5% 10% 15% 20% 25% 30% 35% 40% 45% 50% 55% 60% 65% 70% 75% 80% 85% 90% 95% done
mpi2prv: Processor 0 succeeded to translate its assigned files
mpi2prv: Elapsed time translating files: 0 hours 0 minutes 0 seconds
mpi2prv: Elapsed time sorting addresses: 0 hours 0 minutes 0 seconds
mpi2prv: Generating tracefile (intermediate buffers of 1677696 events)
         This process can take a while. Please, be patient.
mpi2prv: Progress 2 of 2 ... 5% 10% 15% 20% 25% 30% 35% 40% 45% 50% 55% 60% 65% 70% 75% 80% 85% 90% 95% done
mpi2prv: Elapsed time merge step: 0 hours 0 minutes 0 seconds
mpi2prv: Resulting tracefile occupies 1742989 bytes
mpi2prv: Removing temporal files... done
mpi2prv: Elapsed time removing temporal files: 0 hours 0 minutes 0 seconds
mpi2prv: Congratulations! multisort-omp-strong-extrae/multisort-omp-4-boada-11.prv has been generated.
Tracing multisort-omp with 6 threads
Welcome to Extrae 4.0.1
Extrae: Detected GOMP version is 4.5
Extrae: Detected and hooked OpenMP runtime: [Intel KMPC] [GNU GOMP]
Extrae: OMP_NUM_THREADS set to 6
Extrae: Parsing the configuration file (/Soft/PAR/extrae.xml) begins
Extrae: Tracing package is located on $EXTRAE_HOME
Extrae: Generating intermediate files for Paraver traces.
Extrae: OpenMP routines will collect HW counters information.
Extrae: User Function routines will collect HW counters information.
Extrae: PAPI domain set to ALL for HWC set 1
Extrae: HWC set 1 contains following counters < PAPI_TOT_CYC (0x8000003b) PAPI_TOT_INS (0x80000032) FP_ARITH:512B_PACKED_DOUBLE (0x40000024) > - never changes
Extrae: Resource usage is disabled at flush buffer.
Extrae: Memory usage is disabled at flush buffer.
Extrae: Tracing buffer can hold 500000 events
Extrae: Circular buffer disabled.
Extrae: Dynamic memory instrumentation is disabled.
Extrae: Basic I/O memory instrumentation is disabled.
Extrae: System calls instrumentation is disabled.
Extrae: Parsing the configuration file (/Soft/PAR/extrae.xml) has ended
Extrae: Intermediate traces will be stored in /scratch/nas/1/par2107/fold/lab4
Extrae: Tracing mode is set to: Detail.
Extrae: Successfully initiated with 1 tasks and 6 threads

*****************************************************************************************
Problem size (in number of elements): N=1024, MIN_SORT_SIZE=256, MIN_MERGE_SIZE=256
Cut-off level:                        CUTOFF=4
Number of threads in OpenMP:          OMP_NUM_THREADS=6
*****************************************************************************************
Initialization time in seconds: 0.004832
Multisort execution time: 0.028226
Check sorted data execution time: 0.000576
Multisort program finished
*****************************************************************************************
Extrae: Intermediate raw trace file created : /scratch/nas/1/par2107/fold/lab4/set-0/TRACE@boada-11.ac.upc.es.0003936669000000000000.mpit
Extrae: Intermediate raw sym file created : /scratch/nas/1/par2107/fold/lab4/set-0/TRACE@boada-11.ac.upc.es.0003936669000000000000.sym
Extrae: Intermediate raw trace file created : /scratch/nas/1/par2107/fold/lab4/set-0/TRACE@boada-11.ac.upc.es.0003936669000000000001.mpit
Extrae: Intermediate raw trace file created : /scratch/nas/1/par2107/fold/lab4/set-0/TRACE@boada-11.ac.upc.es.0003936669000000000002.mpit
Extrae: Intermediate raw trace file created : /scratch/nas/1/par2107/fold/lab4/set-0/TRACE@boada-11.ac.upc.es.0003936669000000000003.mpit
Extrae: Intermediate raw trace file created : /scratch/nas/1/par2107/fold/lab4/set-0/TRACE@boada-11.ac.upc.es.0003936669000000000004.mpit
Extrae: Intermediate raw trace file created : /scratch/nas/1/par2107/fold/lab4/set-0/TRACE@boada-11.ac.upc.es.0003936669000000000005.mpit
Extrae: Deallocating memory.
Extrae: Application has ended. Tracing has been terminated.
mpi2prv: A total of 3 symbols were imported from TRACE.sym file
mpi2prv: 0 function symbols imported
mpi2prv: 3 HWC counter descriptions imported
merger: Output trace format is: Paraver
merger: Extrae 4.0.1
mpi2prv: Assigned nodes < boada-11.ac.upc.es >
mpi2prv: Assigned size per processor < 1 Mbytes >
mpi2prv: File /scratch/nas/1/par2107/fold/lab4/set-0/TRACE@boada-11.ac.upc.es.0003936669000000000000.mpit is object 1.1.1 on node boada-11.ac.upc.es assigned to processor 0
mpi2prv: File /scratch/nas/1/par2107/fold/lab4/set-0/TRACE@boada-11.ac.upc.es.0003936669000000000001.mpit is object 1.1.2 on node boada-11.ac.upc.es assigned to processor 0
mpi2prv: File /scratch/nas/1/par2107/fold/lab4/set-0/TRACE@boada-11.ac.upc.es.0003936669000000000002.mpit is object 1.1.3 on node boada-11.ac.upc.es assigned to processor 0
mpi2prv: File /scratch/nas/1/par2107/fold/lab4/set-0/TRACE@boada-11.ac.upc.es.0003936669000000000003.mpit is object 1.1.4 on node boada-11.ac.upc.es assigned to processor 0
mpi2prv: File /scratch/nas/1/par2107/fold/lab4/set-0/TRACE@boada-11.ac.upc.es.0003936669000000000004.mpit is object 1.1.5 on node boada-11.ac.upc.es assigned to processor 0
mpi2prv: File /scratch/nas/1/par2107/fold/lab4/set-0/TRACE@boada-11.ac.upc.es.0003936669000000000005.mpit is object 1.1.6 on node boada-11.ac.upc.es assigned to processor 0
mpi2prv: Time synchronization has been turned off
mpi2prv: Checking for target directory existence... exists, ok!
mpi2prv: Selected output trace format is Paraver
mpi2prv: Stored trace format is Paraver
mpi2prv: Enabling Time Synchronization (Node).
mpi2prv: Circular buffer enabled at tracing time? NO
mpi2prv: Parsing intermediate files
mpi2prv: Progress 1 of 2 ... 5% 10% 15% 20% 25% 30% 35% 40% 45% 50% 55% 60% 65% 70% 75% 80% 85% 90% 95% done
mpi2prv: Processor 0 succeeded to translate its assigned files
mpi2prv: Elapsed time translating files: 0 hours 0 minutes 0 seconds
mpi2prv: Elapsed time sorting addresses: 0 hours 0 minutes 0 seconds
mpi2prv: Generating tracefile (intermediate buffers of 1118464 events)
         This process can take a while. Please, be patient.
mpi2prv: Progress 2 of 2 ... 5% 10% 15% 20% 25% 30% 35% 40% 45% 50% 55% 60% 65% 70% 75% 80% 85% 90% 95% done
mpi2prv: Elapsed time merge step: 0 hours 0 minutes 0 seconds
mpi2prv: Resulting tracefile occupies 1740258 bytes
mpi2prv: Removing temporal files... done
mpi2prv: Elapsed time removing temporal files: 0 hours 0 minutes 0 seconds
mpi2prv: Congratulations! multisort-omp-strong-extrae/multisort-omp-6-boada-11.prv has been generated.
Tracing multisort-omp with 8 threads
Welcome to Extrae 4.0.1
Extrae: Detected GOMP version is 4.5
Extrae: Detected and hooked OpenMP runtime: [Intel KMPC] [GNU GOMP]
Extrae: OMP_NUM_THREADS set to 8
Extrae: Parsing the configuration file (/Soft/PAR/extrae.xml) begins
Extrae: Tracing package is located on $EXTRAE_HOME
Extrae: Generating intermediate files for Paraver traces.
Extrae: OpenMP routines will collect HW counters information.
Extrae: User Function routines will collect HW counters information.
Extrae: PAPI domain set to ALL for HWC set 1
Extrae: HWC set 1 contains following counters < PAPI_TOT_CYC (0x8000003b) PAPI_TOT_INS (0x80000032) FP_ARITH:512B_PACKED_DOUBLE (0x40000024) > - never changes
Extrae: Resource usage is disabled at flush buffer.
Extrae: Memory usage is disabled at flush buffer.
Extrae: Tracing buffer can hold 500000 events
Extrae: Circular buffer disabled.
Extrae: Dynamic memory instrumentation is disabled.
Extrae: Basic I/O memory instrumentation is disabled.
Extrae: System calls instrumentation is disabled.
Extrae: Parsing the configuration file (/Soft/PAR/extrae.xml) has ended
Extrae: Intermediate traces will be stored in /scratch/nas/1/par2107/fold/lab4
Extrae: Tracing mode is set to: Detail.
Extrae: Successfully initiated with 1 tasks and 8 threads

*****************************************************************************************
Problem size (in number of elements): N=1024, MIN_SORT_SIZE=256, MIN_MERGE_SIZE=256
Cut-off level:                        CUTOFF=4
Number of threads in OpenMP:          OMP_NUM_THREADS=8
*****************************************************************************************
Initialization time in seconds: 0.003821
Multisort execution time: 0.022792
Check sorted data execution time: 0.000593
Multisort program finished
*****************************************************************************************
Extrae: Intermediate raw trace file created : /scratch/nas/1/par2107/fold/lab4/set-0/TRACE@boada-11.ac.upc.es.0003936700000000000000.mpit
Extrae: Intermediate raw sym file created : /scratch/nas/1/par2107/fold/lab4/set-0/TRACE@boada-11.ac.upc.es.0003936700000000000000.sym
Extrae: Intermediate raw trace file created : /scratch/nas/1/par2107/fold/lab4/set-0/TRACE@boada-11.ac.upc.es.0003936700000000000001.mpit
Extrae: Intermediate raw trace file created : /scratch/nas/1/par2107/fold/lab4/set-0/TRACE@boada-11.ac.upc.es.0003936700000000000002.mpit
Extrae: Intermediate raw trace file created : /scratch/nas/1/par2107/fold/lab4/set-0/TRACE@boada-11.ac.upc.es.0003936700000000000003.mpit
Extrae: Intermediate raw trace file created : /scratch/nas/1/par2107/fold/lab4/set-0/TRACE@boada-11.ac.upc.es.0003936700000000000004.mpit
Extrae: Intermediate raw trace file created : /scratch/nas/1/par2107/fold/lab4/set-0/TRACE@boada-11.ac.upc.es.0003936700000000000005.mpit
Extrae: Intermediate raw trace file created : /scratch/nas/1/par2107/fold/lab4/set-0/TRACE@boada-11.ac.upc.es.0003936700000000000006.mpit
Extrae: Intermediate raw trace file created : /scratch/nas/1/par2107/fold/lab4/set-0/TRACE@boada-11.ac.upc.es.0003936700000000000007.mpit
Extrae: Deallocating memory.
Extrae: Application has ended. Tracing has been terminated.
mpi2prv: A total of 3 symbols were imported from TRACE.sym file
mpi2prv: 0 function symbols imported
mpi2prv: 3 HWC counter descriptions imported
merger: Output trace format is: Paraver
merger: Extrae 4.0.1
mpi2prv: Assigned nodes < boada-11.ac.upc.es >
mpi2prv: Assigned size per processor < 1 Mbytes >
mpi2prv: File /scratch/nas/1/par2107/fold/lab4/set-0/TRACE@boada-11.ac.upc.es.0003936700000000000000.mpit is object 1.1.1 on node boada-11.ac.upc.es assigned to processor 0
mpi2prv: File /scratch/nas/1/par2107/fold/lab4/set-0/TRACE@boada-11.ac.upc.es.0003936700000000000001.mpit is object 1.1.2 on node boada-11.ac.upc.es assigned to processor 0
mpi2prv: File /scratch/nas/1/par2107/fold/lab4/set-0/TRACE@boada-11.ac.upc.es.0003936700000000000002.mpit is object 1.1.3 on node boada-11.ac.upc.es assigned to processor 0
mpi2prv: File /scratch/nas/1/par2107/fold/lab4/set-0/TRACE@boada-11.ac.upc.es.0003936700000000000003.mpit is object 1.1.4 on node boada-11.ac.upc.es assigned to processor 0
mpi2prv: File /scratch/nas/1/par2107/fold/lab4/set-0/TRACE@boada-11.ac.upc.es.0003936700000000000004.mpit is object 1.1.5 on node boada-11.ac.upc.es assigned to processor 0
mpi2prv: File /scratch/nas/1/par2107/fold/lab4/set-0/TRACE@boada-11.ac.upc.es.0003936700000000000005.mpit is object 1.1.6 on node boada-11.ac.upc.es assigned to processor 0
mpi2prv: File /scratch/nas/1/par2107/fold/lab4/set-0/TRACE@boada-11.ac.upc.es.0003936700000000000006.mpit is object 1.1.7 on node boada-11.ac.upc.es assigned to processor 0
mpi2prv: File /scratch/nas/1/par2107/fold/lab4/set-0/TRACE@boada-11.ac.upc.es.0003936700000000000007.mpit is object 1.1.8 on node boada-11.ac.upc.es assigned to processor 0
mpi2prv: Time synchronization has been turned off
mpi2prv: Checking for target directory existence... exists, ok!
mpi2prv: Selected output trace format is Paraver
mpi2prv: Stored trace format is Paraver
mpi2prv: Enabling Time Synchronization (Node).
mpi2prv: Circular buffer enabled at tracing time? NO
mpi2prv: Parsing intermediate files
mpi2prv: Progress 1 of 2 ... 5% 10% 15% 20% 25% 30% 35% 40% 45% 50% 55% 60% 65% 70% 75% 80% 85% 90% 95% done
mpi2prv: Processor 0 succeeded to translate its assigned files
mpi2prv: Elapsed time translating files: 0 hours 0 minutes 0 seconds
mpi2prv: Elapsed time sorting addresses: 0 hours 0 minutes 0 seconds
mpi2prv: Generating tracefile (intermediate buffers of 838848 events)
         This process can take a while. Please, be patient.
mpi2prv: Progress 2 of 2 ... 5% 10% 15% 20% 25% 30% 35% 40% 45% 50% 55% 60% 65% 70% 75% 80% 85% 90% 95% done
mpi2prv: Elapsed time merge step: 0 hours 0 minutes 0 seconds
mpi2prv: Resulting tracefile occupies 1769711 bytes
mpi2prv: Removing temporal files... done
mpi2prv: Elapsed time removing temporal files: 0 hours 0 minutes 0 seconds
mpi2prv: Congratulations! multisort-omp-strong-extrae/multisort-omp-8-boada-11.prv has been generated.
Tracing multisort-omp with 10 threads
Welcome to Extrae 4.0.1
Extrae: Detected GOMP version is 4.5
Extrae: Detected and hooked OpenMP runtime: [Intel KMPC] [GNU GOMP]
Extrae: OMP_NUM_THREADS set to 10
Extrae: Parsing the configuration file (/Soft/PAR/extrae.xml) begins
Extrae: Tracing package is located on $EXTRAE_HOME
Extrae: Generating intermediate files for Paraver traces.
Extrae: OpenMP routines will collect HW counters information.
Extrae: User Function routines will collect HW counters information.
Extrae: PAPI domain set to ALL for HWC set 1
Extrae: HWC set 1 contains following counters < PAPI_TOT_CYC (0x8000003b) PAPI_TOT_INS (0x80000032) FP_ARITH:512B_PACKED_DOUBLE (0x40000024) > - never changes
Extrae: Resource usage is disabled at flush buffer.
Extrae: Memory usage is disabled at flush buffer.
Extrae: Tracing buffer can hold 500000 events
Extrae: Circular buffer disabled.
Extrae: Dynamic memory instrumentation is disabled.
Extrae: Basic I/O memory instrumentation is disabled.
Extrae: System calls instrumentation is disabled.
Extrae: Parsing the configuration file (/Soft/PAR/extrae.xml) has ended
Extrae: Intermediate traces will be stored in /scratch/nas/1/par2107/fold/lab4
Extrae: Tracing mode is set to: Detail.
Extrae: Successfully initiated with 1 tasks and 10 threads

*****************************************************************************************
Problem size (in number of elements): N=1024, MIN_SORT_SIZE=256, MIN_MERGE_SIZE=256
Cut-off level:                        CUTOFF=4
Number of threads in OpenMP:          OMP_NUM_THREADS=10
*****************************************************************************************
Initialization time in seconds: 0.003465
Multisort execution time: 0.019332
Check sorted data execution time: 0.000606
Multisort program finished
*****************************************************************************************
Extrae: Intermediate raw trace file created : /scratch/nas/1/par2107/fold/lab4/set-0/TRACE@boada-11.ac.upc.es.0003936733000000000000.mpit
Extrae: Intermediate raw sym file created : /scratch/nas/1/par2107/fold/lab4/set-0/TRACE@boada-11.ac.upc.es.0003936733000000000000.sym
Extrae: Intermediate raw trace file created : /scratch/nas/1/par2107/fold/lab4/set-0/TRACE@boada-11.ac.upc.es.0003936733000000000001.mpit
Extrae: Intermediate raw trace file created : /scratch/nas/1/par2107/fold/lab4/set-0/TRACE@boada-11.ac.upc.es.0003936733000000000002.mpit
Extrae: Intermediate raw trace file created : /scratch/nas/1/par2107/fold/lab4/set-0/TRACE@boada-11.ac.upc.es.0003936733000000000003.mpit
Extrae: Intermediate raw trace file created : /scratch/nas/1/par2107/fold/lab4/set-0/TRACE@boada-11.ac.upc.es.0003936733000000000004.mpit
Extrae: Intermediate raw trace file created : /scratch/nas/1/par2107/fold/lab4/set-0/TRACE@boada-11.ac.upc.es.0003936733000000000005.mpit
Extrae: Intermediate raw trace file created : /scratch/nas/1/par2107/fold/lab4/set-0/TRACE@boada-11.ac.upc.es.0003936733000000000006.mpit
Extrae: Intermediate raw trace file created : /scratch/nas/1/par2107/fold/lab4/set-0/TRACE@boada-11.ac.upc.es.0003936733000000000007.mpit
Extrae: Intermediate raw trace file created : /scratch/nas/1/par2107/fold/lab4/set-0/TRACE@boada-11.ac.upc.es.0003936733000000000008.mpit
Extrae: Intermediate raw trace file created : /scratch/nas/1/par2107/fold/lab4/set-0/TRACE@boada-11.ac.upc.es.0003936733000000000009.mpit
Extrae: Deallocating memory.
Extrae: Application has ended. Tracing has been terminated.
mpi2prv: A total of 3 symbols were imported from TRACE.sym file
mpi2prv: 0 function symbols imported
mpi2prv: 3 HWC counter descriptions imported
merger: Output trace format is: Paraver
merger: Extrae 4.0.1
mpi2prv: Assigned nodes < boada-11.ac.upc.es >
mpi2prv: Assigned size per processor < 2 Mbytes >
mpi2prv: File /scratch/nas/1/par2107/fold/lab4/set-0/TRACE@boada-11.ac.upc.es.0003936733000000000000.mpit is object 1.1.1 on node boada-11.ac.upc.es assigned to processor 0
mpi2prv: File /scratch/nas/1/par2107/fold/lab4/set-0/TRACE@boada-11.ac.upc.es.0003936733000000000001.mpit is object 1.1.2 on node boada-11.ac.upc.es assigned to processor 0
mpi2prv: File /scratch/nas/1/par2107/fold/lab4/set-0/TRACE@boada-11.ac.upc.es.0003936733000000000002.mpit is object 1.1.3 on node boada-11.ac.upc.es assigned to processor 0
mpi2prv: File /scratch/nas/1/par2107/fold/lab4/set-0/TRACE@boada-11.ac.upc.es.0003936733000000000003.mpit is object 1.1.4 on node boada-11.ac.upc.es assigned to processor 0
mpi2prv: File /scratch/nas/1/par2107/fold/lab4/set-0/TRACE@boada-11.ac.upc.es.0003936733000000000004.mpit is object 1.1.5 on node boada-11.ac.upc.es assigned to processor 0
mpi2prv: File /scratch/nas/1/par2107/fold/lab4/set-0/TRACE@boada-11.ac.upc.es.0003936733000000000005.mpit is object 1.1.6 on node boada-11.ac.upc.es assigned to processor 0
mpi2prv: File /scratch/nas/1/par2107/fold/lab4/set-0/TRACE@boada-11.ac.upc.es.0003936733000000000006.mpit is object 1.1.7 on node boada-11.ac.upc.es assigned to processor 0
mpi2prv: File /scratch/nas/1/par2107/fold/lab4/set-0/TRACE@boada-11.ac.upc.es.0003936733000000000007.mpit is object 1.1.8 on node boada-11.ac.upc.es assigned to processor 0
mpi2prv: File /scratch/nas/1/par2107/fold/lab4/set-0/TRACE@boada-11.ac.upc.es.0003936733000000000008.mpit is object 1.1.9 on node boada-11.ac.upc.es assigned to processor 0
mpi2prv: File /scratch/nas/1/par2107/fold/lab4/set-0/TRACE@boada-11.ac.upc.es.0003936733000000000009.mpit is object 1.1.10 on node boada-11.ac.upc.es assigned to processor 0
mpi2prv: Time synchronization has been turned off
mpi2prv: Checking for target directory existence... exists, ok!
mpi2prv: Selected output trace format is Paraver
mpi2prv: Stored trace format is Paraver
mpi2prv: Enabling Time Synchronization (Node).
mpi2prv: Circular buffer enabled at tracing time? NO
mpi2prv: Parsing intermediate files
mpi2prv: Progress 1 of 2 ... 5% 10% 15% 20% 25% 30% 35% 40% 45% 50% 55% 60% 65% 70% 75% 80% 85% 90% 95% done
mpi2prv: Processor 0 succeeded to translate its assigned files
mpi2prv: Elapsed time translating files: 0 hours 0 minutes 0 seconds
mpi2prv: Elapsed time sorting addresses: 0 hours 0 minutes 0 seconds
mpi2prv: Generating tracefile (intermediate buffers of 671078 events)
         This process can take a while. Please, be patient.
mpi2prv: Progress 2 of 2 ... 5% 10% 15% 20% 25% 30% 35% 40% 45% 50% 55% 60% 65% 70% 75% 80% 85% 90% 95% done
mpi2prv: Elapsed time merge step: 0 hours 0 minutes 0 seconds
mpi2prv: Resulting tracefile occupies 1791245 bytes
mpi2prv: Removing temporal files... done
mpi2prv: Elapsed time removing temporal files: 0 hours 0 minutes 0 seconds
mpi2prv: Congratulations! multisort-omp-strong-extrae/multisort-omp-10-boada-11.prv has been generated.
Tracing multisort-omp with 12 threads
Welcome to Extrae 4.0.1
Extrae: Detected GOMP version is 4.5
Extrae: Detected and hooked OpenMP runtime: [Intel KMPC] [GNU GOMP]
Extrae: OMP_NUM_THREADS set to 12
Extrae: Parsing the configuration file (/Soft/PAR/extrae.xml) begins
Extrae: Tracing package is located on $EXTRAE_HOME
Extrae: Generating intermediate files for Paraver traces.
Extrae: OpenMP routines will collect HW counters information.
Extrae: User Function routines will collect HW counters information.
Extrae: PAPI domain set to ALL for HWC set 1
Extrae: HWC set 1 contains following counters < PAPI_TOT_CYC (0x8000003b) PAPI_TOT_INS (0x80000032) FP_ARITH:512B_PACKED_DOUBLE (0x40000024) > - never changes
Extrae: Resource usage is disabled at flush buffer.
Extrae: Memory usage is disabled at flush buffer.
Extrae: Tracing buffer can hold 500000 events
Extrae: Circular buffer disabled.
Extrae: Dynamic memory instrumentation is disabled.
Extrae: Basic I/O memory instrumentation is disabled.
Extrae: System calls instrumentation is disabled.
Extrae: Parsing the configuration file (/Soft/PAR/extrae.xml) has ended
Extrae: Intermediate traces will be stored in /scratch/nas/1/par2107/fold/lab4
Extrae: Tracing mode is set to: Detail.
Extrae: Successfully initiated with 1 tasks and 12 threads

*****************************************************************************************
Problem size (in number of elements): N=1024, MIN_SORT_SIZE=256, MIN_MERGE_SIZE=256
Cut-off level:                        CUTOFF=4
Number of threads in OpenMP:          OMP_NUM_THREADS=12
*****************************************************************************************
Initialization time in seconds: 0.003152
Multisort execution time: 0.017044
Check sorted data execution time: 0.000599
Multisort program finished
*****************************************************************************************
Extrae: Intermediate raw trace file created : /scratch/nas/1/par2107/fold/lab4/set-0/TRACE@boada-11.ac.upc.es.0003936768000000000000.mpit
Extrae: Intermediate raw sym file created : /scratch/nas/1/par2107/fold/lab4/set-0/TRACE@boada-11.ac.upc.es.0003936768000000000000.sym
Extrae: Intermediate raw trace file created : /scratch/nas/1/par2107/fold/lab4/set-0/TRACE@boada-11.ac.upc.es.0003936768000000000001.mpit
Extrae: Intermediate raw trace file created : /scratch/nas/1/par2107/fold/lab4/set-0/TRACE@boada-11.ac.upc.es.0003936768000000000002.mpit
Extrae: Intermediate raw trace file created : /scratch/nas/1/par2107/fold/lab4/set-0/TRACE@boada-11.ac.upc.es.0003936768000000000003.mpit
Extrae: Intermediate raw trace file created : /scratch/nas/1/par2107/fold/lab4/set-0/TRACE@boada-11.ac.upc.es.0003936768000000000004.mpit
Extrae: Intermediate raw trace file created : /scratch/nas/1/par2107/fold/lab4/set-0/TRACE@boada-11.ac.upc.es.0003936768000000000005.mpit
Extrae: Intermediate raw trace file created : /scratch/nas/1/par2107/fold/lab4/set-0/TRACE@boada-11.ac.upc.es.0003936768000000000006.mpit
Extrae: Intermediate raw trace file created : /scratch/nas/1/par2107/fold/lab4/set-0/TRACE@boada-11.ac.upc.es.0003936768000000000007.mpit
Extrae: Intermediate raw trace file created : /scratch/nas/1/par2107/fold/lab4/set-0/TRACE@boada-11.ac.upc.es.0003936768000000000008.mpit
Extrae: Intermediate raw trace file created : /scratch/nas/1/par2107/fold/lab4/set-0/TRACE@boada-11.ac.upc.es.0003936768000000000009.mpit
Extrae: Intermediate raw trace file created : /scratch/nas/1/par2107/fold/lab4/set-0/TRACE@boada-11.ac.upc.es.0003936768000000000010.mpit
Extrae: Intermediate raw trace file created : /scratch/nas/1/par2107/fold/lab4/set-0/TRACE@boada-11.ac.upc.es.0003936768000000000011.mpit
Extrae: Deallocating memory.
Extrae: Application has ended. Tracing has been terminated.
mpi2prv: A total of 3 symbols were imported from TRACE.sym file
mpi2prv: 0 function symbols imported
mpi2prv: 3 HWC counter descriptions imported
merger: Output trace format is: Paraver
merger: Extrae 4.0.1
mpi2prv: Assigned nodes < boada-11.ac.upc.es >
mpi2prv: Assigned size per processor < 2 Mbytes >
mpi2prv: File /scratch/nas/1/par2107/fold/lab4/set-0/TRACE@boada-11.ac.upc.es.0003936768000000000000.mpit is object 1.1.1 on node boada-11.ac.upc.es assigned to processor 0
mpi2prv: File /scratch/nas/1/par2107/fold/lab4/set-0/TRACE@boada-11.ac.upc.es.0003936768000000000001.mpit is object 1.1.2 on node boada-11.ac.upc.es assigned to processor 0
mpi2prv: File /scratch/nas/1/par2107/fold/lab4/set-0/TRACE@boada-11.ac.upc.es.0003936768000000000002.mpit is object 1.1.3 on node boada-11.ac.upc.es assigned to processor 0
mpi2prv: File /scratch/nas/1/par2107/fold/lab4/set-0/TRACE@boada-11.ac.upc.es.0003936768000000000003.mpit is object 1.1.4 on node boada-11.ac.upc.es assigned to processor 0
mpi2prv: File /scratch/nas/1/par2107/fold/lab4/set-0/TRACE@boada-11.ac.upc.es.0003936768000000000004.mpit is object 1.1.5 on node boada-11.ac.upc.es assigned to processor 0
mpi2prv: File /scratch/nas/1/par2107/fold/lab4/set-0/TRACE@boada-11.ac.upc.es.0003936768000000000005.mpit is object 1.1.6 on node boada-11.ac.upc.es assigned to processor 0
mpi2prv: File /scratch/nas/1/par2107/fold/lab4/set-0/TRACE@boada-11.ac.upc.es.0003936768000000000006.mpit is object 1.1.7 on node boada-11.ac.upc.es assigned to processor 0
mpi2prv: File /scratch/nas/1/par2107/fold/lab4/set-0/TRACE@boada-11.ac.upc.es.0003936768000000000007.mpit is object 1.1.8 on node boada-11.ac.upc.es assigned to processor 0
mpi2prv: File /scratch/nas/1/par2107/fold/lab4/set-0/TRACE@boada-11.ac.upc.es.0003936768000000000008.mpit is object 1.1.9 on node boada-11.ac.upc.es assigned to processor 0
mpi2prv: File /scratch/nas/1/par2107/fold/lab4/set-0/TRACE@boada-11.ac.upc.es.0003936768000000000009.mpit is object 1.1.10 on node boada-11.ac.upc.es assigned to processor 0
mpi2prv: File /scratch/nas/1/par2107/fold/lab4/set-0/TRACE@boada-11.ac.upc.es.0003936768000000000010.mpit is object 1.1.11 on node boada-11.ac.upc.es assigned to processor 0
mpi2prv: File /scratch/nas/1/par2107/fold/lab4/set-0/TRACE@boada-11.ac.upc.es.0003936768000000000011.mpit is object 1.1.12 on node boada-11.ac.upc.es assigned to processor 0
mpi2prv: Time synchronization has been turned off
mpi2prv: Checking for target directory existence... exists, ok!
mpi2prv: Selected output trace format is Paraver
mpi2prv: Stored trace format is Paraver
mpi2prv: Enabling Time Synchronization (Node).
mpi2prv: Circular buffer enabled at tracing time? NO
mpi2prv: Parsing intermediate files
mpi2prv: Progress 1 of 2 ... 5% 10% 15% 20% 25% 30% 35% 40% 45% 50% 55% 60% 65% 70% 75% 80% 85% 90% 95% done
mpi2prv: Processor 0 succeeded to translate its assigned files
mpi2prv: Elapsed time translating files: 0 hours 0 minutes 0 seconds
mpi2prv: Elapsed time sorting addresses: 0 hours 0 minutes 0 seconds
mpi2prv: Generating tracefile (intermediate buffers of 559232 events)
         This process can take a while. Please, be patient.
mpi2prv: Progress 2 of 2 ... 5% 10% 15% 20% 25% 30% 35% 40% 45% 50% 55% 60% 65% 70% 75% 80% 85% 90% 95% done
mpi2prv: Elapsed time merge step: 0 hours 0 minutes 0 seconds
mpi2prv: Resulting tracefile occupies 1813347 bytes
mpi2prv: Removing temporal files... done
mpi2prv: Elapsed time removing temporal files: 0 hours 0 minutes 0 seconds
mpi2prv: Congratulations! multisort-omp-strong-extrae/multisort-omp-12-boada-11.prv has been generated.
Tracing multisort-omp with 14 threads
Welcome to Extrae 4.0.1
Extrae: Detected GOMP version is 4.5
Extrae: Detected and hooked OpenMP runtime: [Intel KMPC] [GNU GOMP]
Extrae: OMP_NUM_THREADS set to 14
Extrae: Parsing the configuration file (/Soft/PAR/extrae.xml) begins
Extrae: Tracing package is located on $EXTRAE_HOME
Extrae: Generating intermediate files for Paraver traces.
Extrae: OpenMP routines will collect HW counters information.
Extrae: User Function routines will collect HW counters information.
Extrae: PAPI domain set to ALL for HWC set 1
Extrae: HWC set 1 contains following counters < PAPI_TOT_CYC (0x8000003b) PAPI_TOT_INS (0x80000032) FP_ARITH:512B_PACKED_DOUBLE (0x40000024) > - never changes
Extrae: Resource usage is disabled at flush buffer.
Extrae: Memory usage is disabled at flush buffer.
Extrae: Tracing buffer can hold 500000 events
Extrae: Circular buffer disabled.
Extrae: Dynamic memory instrumentation is disabled.
Extrae: Basic I/O memory instrumentation is disabled.
Extrae: System calls instrumentation is disabled.
Extrae: Parsing the configuration file (/Soft/PAR/extrae.xml) has ended
Extrae: Intermediate traces will be stored in /scratch/nas/1/par2107/fold/lab4
Extrae: Tracing mode is set to: Detail.
Extrae: Successfully initiated with 1 tasks and 14 threads

*****************************************************************************************
Problem size (in number of elements): N=1024, MIN_SORT_SIZE=256, MIN_MERGE_SIZE=256
Cut-off level:                        CUTOFF=4
Number of threads in OpenMP:          OMP_NUM_THREADS=14
*****************************************************************************************
Initialization time in seconds: 0.003000
Multisort execution time: 0.015281
Check sorted data execution time: 0.000592
Multisort program finished
*****************************************************************************************
Extrae: Intermediate raw trace file created : /scratch/nas/1/par2107/fold/lab4/set-0/TRACE@boada-11.ac.upc.es.0003936805000000000000.mpit
Extrae: Intermediate raw sym file created : /scratch/nas/1/par2107/fold/lab4/set-0/TRACE@boada-11.ac.upc.es.0003936805000000000000.sym
Extrae: Intermediate raw trace file created : /scratch/nas/1/par2107/fold/lab4/set-0/TRACE@boada-11.ac.upc.es.0003936805000000000001.mpit
Extrae: Intermediate raw trace file created : /scratch/nas/1/par2107/fold/lab4/set-0/TRACE@boada-11.ac.upc.es.0003936805000000000002.mpit
Extrae: Intermediate raw trace file created : /scratch/nas/1/par2107/fold/lab4/set-0/TRACE@boada-11.ac.upc.es.0003936805000000000003.mpit
Extrae: Intermediate raw trace file created : /scratch/nas/1/par2107/fold/lab4/set-0/TRACE@boada-11.ac.upc.es.0003936805000000000004.mpit
Extrae: Intermediate raw trace file created : /scratch/nas/1/par2107/fold/lab4/set-0/TRACE@boada-11.ac.upc.es.0003936805000000000005.mpit
Extrae: Intermediate raw trace file created : /scratch/nas/1/par2107/fold/lab4/set-0/TRACE@boada-11.ac.upc.es.0003936805000000000006.mpit
Extrae: Intermediate raw trace file created : /scratch/nas/1/par2107/fold/lab4/set-0/TRACE@boada-11.ac.upc.es.0003936805000000000007.mpit
Extrae: Intermediate raw trace file created : /scratch/nas/1/par2107/fold/lab4/set-0/TRACE@boada-11.ac.upc.es.0003936805000000000008.mpit
Extrae: Intermediate raw trace file created : /scratch/nas/1/par2107/fold/lab4/set-0/TRACE@boada-11.ac.upc.es.0003936805000000000009.mpit
Extrae: Intermediate raw trace file created : /scratch/nas/1/par2107/fold/lab4/set-0/TRACE@boada-11.ac.upc.es.0003936805000000000010.mpit
Extrae: Intermediate raw trace file created : /scratch/nas/1/par2107/fold/lab4/set-0/TRACE@boada-11.ac.upc.es.0003936805000000000011.mpit
Extrae: Intermediate raw trace file created : /scratch/nas/1/par2107/fold/lab4/set-0/TRACE@boada-11.ac.upc.es.0003936805000000000012.mpit
Extrae: Intermediate raw trace file created : /scratch/nas/1/par2107/fold/lab4/set-0/TRACE@boada-11.ac.upc.es.0003936805000000000013.mpit
Extrae: Deallocating memory.
Extrae: Application has ended. Tracing has been terminated.
mpi2prv: A total of 3 symbols were imported from TRACE.sym file
mpi2prv: 0 function symbols imported
mpi2prv: 3 HWC counter descriptions imported
merger: Output trace format is: Paraver
merger: Extrae 4.0.1
mpi2prv: Assigned nodes < boada-11.ac.upc.es >
mpi2prv: Assigned size per processor < 2 Mbytes >
mpi2prv: File /scratch/nas/1/par2107/fold/lab4/set-0/TRACE@boada-11.ac.upc.es.0003936805000000000000.mpit is object 1.1.1 on node boada-11.ac.upc.es assigned to processor 0
mpi2prv: File /scratch/nas/1/par2107/fold/lab4/set-0/TRACE@boada-11.ac.upc.es.0003936805000000000001.mpit is object 1.1.2 on node boada-11.ac.upc.es assigned to processor 0
mpi2prv: File /scratch/nas/1/par2107/fold/lab4/set-0/TRACE@boada-11.ac.upc.es.0003936805000000000002.mpit is object 1.1.3 on node boada-11.ac.upc.es assigned to processor 0
mpi2prv: File /scratch/nas/1/par2107/fold/lab4/set-0/TRACE@boada-11.ac.upc.es.0003936805000000000003.mpit is object 1.1.4 on node boada-11.ac.upc.es assigned to processor 0
mpi2prv: File /scratch/nas/1/par2107/fold/lab4/set-0/TRACE@boada-11.ac.upc.es.0003936805000000000004.mpit is object 1.1.5 on node boada-11.ac.upc.es assigned to processor 0
mpi2prv: File /scratch/nas/1/par2107/fold/lab4/set-0/TRACE@boada-11.ac.upc.es.0003936805000000000005.mpit is object 1.1.6 on node boada-11.ac.upc.es assigned to processor 0
mpi2prv: File /scratch/nas/1/par2107/fold/lab4/set-0/TRACE@boada-11.ac.upc.es.0003936805000000000006.mpit is object 1.1.7 on node boada-11.ac.upc.es assigned to processor 0
mpi2prv: File /scratch/nas/1/par2107/fold/lab4/set-0/TRACE@boada-11.ac.upc.es.0003936805000000000007.mpit is object 1.1.8 on node boada-11.ac.upc.es assigned to processor 0
mpi2prv: File /scratch/nas/1/par2107/fold/lab4/set-0/TRACE@boada-11.ac.upc.es.0003936805000000000008.mpit is object 1.1.9 on node boada-11.ac.upc.es assigned to processor 0
mpi2prv: File /scratch/nas/1/par2107/fold/lab4/set-0/TRACE@boada-11.ac.upc.es.0003936805000000000009.mpit is object 1.1.10 on node boada-11.ac.upc.es assigned to processor 0
mpi2prv: File /scratch/nas/1/par2107/fold/lab4/set-0/TRACE@boada-11.ac.upc.es.0003936805000000000010.mpit is object 1.1.11 on node boada-11.ac.upc.es assigned to processor 0
mpi2prv: File /scratch/nas/1/par2107/fold/lab4/set-0/TRACE@boada-11.ac.upc.es.0003936805000000000011.mpit is object 1.1.12 on node boada-11.ac.upc.es assigned to processor 0
mpi2prv: File /scratch/nas/1/par2107/fold/lab4/set-0/TRACE@boada-11.ac.upc.es.0003936805000000000012.mpit is object 1.1.13 on node boada-11.ac.upc.es assigned to processor 0
mpi2prv: File /scratch/nas/1/par2107/fold/lab4/set-0/TRACE@boada-11.ac.upc.es.0003936805000000000013.mpit is object 1.1.14 on node boada-11.ac.upc.es assigned to processor 0
mpi2prv: Time synchronization has been turned off
mpi2prv: Checking for target directory existence... exists, ok!
mpi2prv: Selected output trace format is Paraver
mpi2prv: Stored trace format is Paraver
mpi2prv: Enabling Time Synchronization (Node).
mpi2prv: Circular buffer enabled at tracing time? NO
mpi2prv: Parsing intermediate files
mpi2prv: Progress 1 of 2 ... 5% 10% 15% 20% 25% 30% 35% 40% 45% 50% 55% 60% 65% 70% 75% 80% 85% 90% 95% done
mpi2prv: Processor 0 succeeded to translate its assigned files
mpi2prv: Elapsed time translating files: 0 hours 0 minutes 0 seconds
mpi2prv: Elapsed time sorting addresses: 0 hours 0 minutes 0 seconds
mpi2prv: Generating tracefile (intermediate buffers of 479341 events)
         This process can take a while. Please, be patient.
mpi2prv: Progress 2 of 2 ... 5% 10% 15% 20% 25% 30% 35% 40% 45% 50% 55% 60% 65% 70% 75% 80% 85% 90% 95% done
mpi2prv: Elapsed time merge step: 0 hours 0 minutes 0 seconds
mpi2prv: Resulting tracefile occupies 1833456 bytes
mpi2prv: Removing temporal files... done
mpi2prv: Elapsed time removing temporal files: 0 hours 0 minutes 0 seconds
mpi2prv: Congratulations! multisort-omp-strong-extrae/multisort-omp-14-boada-11.prv has been generated.
Tracing multisort-omp with 16 threads
Welcome to Extrae 4.0.1
Extrae: Detected GOMP version is 4.5
Extrae: Detected and hooked OpenMP runtime: [Intel KMPC] [GNU GOMP]
Extrae: OMP_NUM_THREADS set to 16
Extrae: Parsing the configuration file (/Soft/PAR/extrae.xml) begins
Extrae: Tracing package is located on $EXTRAE_HOME
Extrae: Generating intermediate files for Paraver traces.
Extrae: OpenMP routines will collect HW counters information.
Extrae: User Function routines will collect HW counters information.
Extrae: PAPI domain set to ALL for HWC set 1
Extrae: HWC set 1 contains following counters < PAPI_TOT_CYC (0x8000003b) PAPI_TOT_INS (0x80000032) FP_ARITH:512B_PACKED_DOUBLE (0x40000024) > - never changes
Extrae: Resource usage is disabled at flush buffer.
Extrae: Memory usage is disabled at flush buffer.
Extrae: Tracing buffer can hold 500000 events
Extrae: Circular buffer disabled.
Extrae: Dynamic memory instrumentation is disabled.
Extrae: Basic I/O memory instrumentation is disabled.
Extrae: System calls instrumentation is disabled.
Extrae: Parsing the configuration file (/Soft/PAR/extrae.xml) has ended
Extrae: Intermediate traces will be stored in /scratch/nas/1/par2107/fold/lab4
Extrae: Tracing mode is set to: Detail.
Extrae: Successfully initiated with 1 tasks and 16 threads

*****************************************************************************************
Problem size (in number of elements): N=1024, MIN_SORT_SIZE=256, MIN_MERGE_SIZE=256
Cut-off level:                        CUTOFF=4
Number of threads in OpenMP:          OMP_NUM_THREADS=16
*****************************************************************************************
Initialization time in seconds: 0.003015
Multisort execution time: 0.013958
Check sorted data execution time: 0.000581
Multisort program finished
*****************************************************************************************
Extrae: Intermediate raw trace file created : /scratch/nas/1/par2107/fold/lab4/set-0/TRACE@boada-11.ac.upc.es.0003936844000000000000.mpit
Extrae: Intermediate raw sym file created : /scratch/nas/1/par2107/fold/lab4/set-0/TRACE@boada-11.ac.upc.es.0003936844000000000000.sym
Extrae: Intermediate raw trace file created : /scratch/nas/1/par2107/fold/lab4/set-0/TRACE@boada-11.ac.upc.es.0003936844000000000001.mpit
Extrae: Intermediate raw trace file created : /scratch/nas/1/par2107/fold/lab4/set-0/TRACE@boada-11.ac.upc.es.0003936844000000000002.mpit
Extrae: Intermediate raw trace file created : /scratch/nas/1/par2107/fold/lab4/set-0/TRACE@boada-11.ac.upc.es.0003936844000000000003.mpit
Extrae: Intermediate raw trace file created : /scratch/nas/1/par2107/fold/lab4/set-0/TRACE@boada-11.ac.upc.es.0003936844000000000004.mpit
Extrae: Intermediate raw trace file created : /scratch/nas/1/par2107/fold/lab4/set-0/TRACE@boada-11.ac.upc.es.0003936844000000000005.mpit
Extrae: Intermediate raw trace file created : /scratch/nas/1/par2107/fold/lab4/set-0/TRACE@boada-11.ac.upc.es.0003936844000000000006.mpit
Extrae: Intermediate raw trace file created : /scratch/nas/1/par2107/fold/lab4/set-0/TRACE@boada-11.ac.upc.es.0003936844000000000007.mpit
Extrae: Intermediate raw trace file created : /scratch/nas/1/par2107/fold/lab4/set-0/TRACE@boada-11.ac.upc.es.0003936844000000000008.mpit
Extrae: Intermediate raw trace file created : /scratch/nas/1/par2107/fold/lab4/set-0/TRACE@boada-11.ac.upc.es.0003936844000000000009.mpit
Extrae: Intermediate raw trace file created : /scratch/nas/1/par2107/fold/lab4/set-0/TRACE@boada-11.ac.upc.es.0003936844000000000010.mpit
Extrae: Intermediate raw trace file created : /scratch/nas/1/par2107/fold/lab4/set-0/TRACE@boada-11.ac.upc.es.0003936844000000000011.mpit
Extrae: Intermediate raw trace file created : /scratch/nas/1/par2107/fold/lab4/set-0/TRACE@boada-11.ac.upc.es.0003936844000000000012.mpit
Extrae: Intermediate raw trace file created : /scratch/nas/1/par2107/fold/lab4/set-0/TRACE@boada-11.ac.upc.es.0003936844000000000013.mpit
Extrae: Intermediate raw trace file created : /scratch/nas/1/par2107/fold/lab4/set-0/TRACE@boada-11.ac.upc.es.0003936844000000000014.mpit
Extrae: Intermediate raw trace file created : /scratch/nas/1/par2107/fold/lab4/set-0/TRACE@boada-11.ac.upc.es.0003936844000000000015.mpit
Extrae: Deallocating memory.
Extrae: Application has ended. Tracing has been terminated.
mpi2prv: A total of 3 symbols were imported from TRACE.sym file
mpi2prv: 0 function symbols imported
mpi2prv: 3 HWC counter descriptions imported
merger: Output trace format is: Paraver
merger: Extrae 4.0.1
mpi2prv: Assigned nodes < boada-11.ac.upc.es >
mpi2prv: Assigned size per processor < 2 Mbytes >
mpi2prv: File /scratch/nas/1/par2107/fold/lab4/set-0/TRACE@boada-11.ac.upc.es.0003936844000000000000.mpit is object 1.1.1 on node boada-11.ac.upc.es assigned to processor 0
mpi2prv: File /scratch/nas/1/par2107/fold/lab4/set-0/TRACE@boada-11.ac.upc.es.0003936844000000000001.mpit is object 1.1.2 on node boada-11.ac.upc.es assigned to processor 0
mpi2prv: File /scratch/nas/1/par2107/fold/lab4/set-0/TRACE@boada-11.ac.upc.es.0003936844000000000002.mpit is object 1.1.3 on node boada-11.ac.upc.es assigned to processor 0
mpi2prv: File /scratch/nas/1/par2107/fold/lab4/set-0/TRACE@boada-11.ac.upc.es.0003936844000000000003.mpit is object 1.1.4 on node boada-11.ac.upc.es assigned to processor 0
mpi2prv: File /scratch/nas/1/par2107/fold/lab4/set-0/TRACE@boada-11.ac.upc.es.0003936844000000000004.mpit is object 1.1.5 on node boada-11.ac.upc.es assigned to processor 0
mpi2prv: File /scratch/nas/1/par2107/fold/lab4/set-0/TRACE@boada-11.ac.upc.es.0003936844000000000005.mpit is object 1.1.6 on node boada-11.ac.upc.es assigned to processor 0
mpi2prv: File /scratch/nas/1/par2107/fold/lab4/set-0/TRACE@boada-11.ac.upc.es.0003936844000000000006.mpit is object 1.1.7 on node boada-11.ac.upc.es assigned to processor 0
mpi2prv: File /scratch/nas/1/par2107/fold/lab4/set-0/TRACE@boada-11.ac.upc.es.0003936844000000000007.mpit is object 1.1.8 on node boada-11.ac.upc.es assigned to processor 0
mpi2prv: File /scratch/nas/1/par2107/fold/lab4/set-0/TRACE@boada-11.ac.upc.es.0003936844000000000008.mpit is object 1.1.9 on node boada-11.ac.upc.es assigned to processor 0
mpi2prv: File /scratch/nas/1/par2107/fold/lab4/set-0/TRACE@boada-11.ac.upc.es.0003936844000000000009.mpit is object 1.1.10 on node boada-11.ac.upc.es assigned to processor 0
mpi2prv: File /scratch/nas/1/par2107/fold/lab4/set-0/TRACE@boada-11.ac.upc.es.0003936844000000000010.mpit is object 1.1.11 on node boada-11.ac.upc.es assigned to processor 0
mpi2prv: File /scratch/nas/1/par2107/fold/lab4/set-0/TRACE@boada-11.ac.upc.es.0003936844000000000011.mpit is object 1.1.12 on node boada-11.ac.upc.es assigned to processor 0
mpi2prv: File /scratch/nas/1/par2107/fold/lab4/set-0/TRACE@boada-11.ac.upc.es.0003936844000000000012.mpit is object 1.1.13 on node boada-11.ac.upc.es assigned to processor 0
mpi2prv: File /scratch/nas/1/par2107/fold/lab4/set-0/TRACE@boada-11.ac.upc.es.0003936844000000000013.mpit is object 1.1.14 on node boada-11.ac.upc.es assigned to processor 0
mpi2prv: File /scratch/nas/1/par2107/fold/lab4/set-0/TRACE@boada-11.ac.upc.es.0003936844000000000014.mpit is object 1.1.15 on node boada-11.ac.upc.es assigned to processor 0
mpi2prv: File /scratch/nas/1/par2107/fold/lab4/set-0/TRACE@boada-11.ac.upc.es.0003936844000000000015.mpit is object 1.1.16 on node boada-11.ac.upc.es assigned to processor 0
mpi2prv: Time synchronization has been turned off
mpi2prv: Checking for target directory existence... exists, ok!
mpi2prv: Selected output trace format is Paraver
mpi2prv: Stored trace format is Paraver
mpi2prv: Enabling Time Synchronization (Node).
mpi2prv: Circular buffer enabled at tracing time? NO
mpi2prv: Parsing intermediate files
mpi2prv: Progress 1 of 2 ... 5% 10% 15% 20% 25% 30% 35% 40% 45% 50% 55% 60% 65% 70% 75% 80% 85% 90% 95% done
mpi2prv: Processor 0 succeeded to translate its assigned files
mpi2prv: Elapsed time translating files: 0 hours 0 minutes 0 seconds
mpi2prv: Elapsed time sorting addresses: 0 hours 0 minutes 0 seconds
mpi2prv: Generating tracefile (intermediate buffers of 419424 events)
         This process can take a while. Please, be patient.
mpi2prv: Progress 2 of 2 ... 5% 10% 15% 20% 25% 30% 35% 40% 45% 50% 55% 60% 65% 70% 75% 80% 85% 90% 95% done
mpi2prv: Elapsed time merge step: 0 hours 0 minutes 0 seconds
mpi2prv: Resulting tracefile occupies 1840649 bytes
mpi2prv: Removing temporal files... done
mpi2prv: Elapsed time removing temporal files: 0 hours 0 minutes 0 seconds
mpi2prv: Congratulations! multisort-omp-strong-extrae/multisort-omp-16-boada-11.prv has been generated.
This is pdfTeX, Version 3.141592653-2.6-1.40.22 (TeX Live 2022/dev/Debian) (preloaded format=pdflatex)
 restricted \write18 enabled.
entering extended mode
(../modelfactor-tables.tex
LaTeX2e <2021-11-15> patch level 1
L3 programming layer <2022-01-21>
(/usr/share/texlive/texmf-dist/tex/latex/base/report.cls
Document Class: report 2021/10/04 v1.4n Standard LaTeX document class
(/usr/share/texlive/texmf-dist/tex/latex/base/size10.clo))
(/usr/share/texlive/texmf-dist/tex/latex/base/inputenc.sty)
(/usr/share/texlive/texmf-dist/tex/latex/graphics/graphicx.sty
(/usr/share/texlive/texmf-dist/tex/latex/graphics/keyval.sty)
(/usr/share/texlive/texmf-dist/tex/latex/graphics/graphics.sty
(/usr/share/texlive/texmf-dist/tex/latex/graphics/trig.sty)
(/usr/share/texlive/texmf-dist/tex/latex/graphics-cfg/graphics.cfg)
(/usr/share/texlive/texmf-dist/tex/latex/graphics-def/pdftex.def)))
(/usr/share/texlive/texmf-dist/tex/latex/amsfonts/amssymb.sty
(/usr/share/texlive/texmf-dist/tex/latex/amsfonts/amsfonts.sty))
(/usr/share/texlive/texmf-dist/tex/latex/tools/xspace.sty)
(/usr/share/texlive/texmf-dist/tex/latex/preprint/fullpage.sty)
(/usr/share/texlive/texmf-dist/tex/latex/multirow/multirow.sty)
(/usr/share/texlive/texmf-dist/tex/latex/pdflscape/pdflscape.sty
(/usr/share/texlive/texmf-dist/tex/generic/iftex/iftex.sty)
(/usr/share/texlive/texmf-dist/tex/latex/graphics/lscape.sty))
(/usr/share/texlive/texmf-dist/tex/latex/l3backend/l3backend-pdftex.def)
No file modelfactor-tables.aux.
(/usr/share/texlive/texmf-dist/tex/context/base/mkii/supp-pdf.mkii
[Loading MPS to PDF converter (version 2006.09.02).]
) (/usr/share/texlive/texmf-dist/tex/latex/epstopdf-pkg/epstopdf-base.sty
(/usr/share/texlive/texmf-dist/tex/latex/latexconfig/epstopdf-sys.cfg))
(./table1.tex (/usr/share/texlive/texmf-dist/tex/latex/amsfonts/umsa.fd)
(/usr/share/texlive/texmf-dist/tex/latex/amsfonts/umsb.fd)) [1{/var/lib/texmf/f
onts/map/pdftex/updmap/pdftex.map}] (./table2.tex) (./table3.tex) [2]
(./modelfactor-tables.aux) )</usr/share/texlive/texmf-dist/fonts/type1/public/a
msfonts/cm/cmmi10.pfb></usr/share/texlive/texmf-dist/fonts/type1/public/amsfont
s/cm/cmr10.pfb>
Output written on modelfactor-tables.pdf (2 pages, 34625 bytes).
Transcript written on modelfactor-tables.log.
