%!PS-Adobe-3.0
%%Pages: (atend)
%%Creator: jgraph
%%EndComments

%%BeginProlog
%%EndProlog
%%BeginSetup
%%EndSetup

%%Page: 1 1
%%BeginPageSetup
%%EndPageSetup

198.000000 162.500000 translate
1 setlinecap 1 setlinejoin
0.700 setlinewidth
0.00 setgray

/Jrnd { exch cvi exch cvi dup 3 1 roll idiv mul } def
/JDEdict 8 dict def
JDEdict /mtrx matrix put
/JDE {
  JDEdict begin
  /yrad exch def
  /xrad exch def
  /savematrix mtrx currentmatrix def
  xrad yrad scale
  0 0 1 0 360 arc
  savematrix setmatrix
  end
} def
/JSTR {
  gsave 1 eq { gsave 1 setgray fill grestore } if
    exch neg exch neg translate 
    clip                        
    rotate                      
    4 dict begin
      pathbbox  /&top exch def
                /&right exch def
                /&bottom exch def
                &right sub /&width exch def
      newpath
      currentlinewidth mul round dup               
      &bottom exch Jrnd exch &top             
      4 -1 roll currentlinewidth mul setlinewidth  
      { &right exch moveto &width 0 rlineto stroke } for    
    end
  grestore
  newpath
} bind def
 gsave /Times-Roman findfont 9.000000 scalefont setfont
0.000000 324.000000 translate
0.700000 setlinewidth  gsave newpath 0.000000 0.000000 moveto 216.000000 0.000000 lineto stroke
newpath 0.000000 0.000000 moveto 0.000000 -2.000000 lineto stroke
newpath 11.368421 0.000000 moveto 11.368421 -2.000000 lineto stroke
newpath 22.736841 0.000000 moveto 22.736841 -2.000000 lineto stroke
newpath 34.105263 0.000000 moveto 34.105263 -2.000000 lineto stroke
newpath 45.473682 0.000000 moveto 45.473682 -5.000000 lineto stroke
newpath 56.842102 0.000000 moveto 56.842102 -2.000000 lineto stroke
newpath 68.210526 0.000000 moveto 68.210526 -2.000000 lineto stroke
newpath 79.578941 0.000000 moveto 79.578941 -2.000000 lineto stroke
newpath 90.947365 0.000000 moveto 90.947365 -2.000000 lineto stroke
newpath 102.315788 0.000000 moveto 102.315788 -5.000000 lineto stroke
newpath 113.684204 0.000000 moveto 113.684204 -2.000000 lineto stroke
newpath 125.052628 0.000000 moveto 125.052628 -2.000000 lineto stroke
newpath 136.421051 0.000000 moveto 136.421051 -2.000000 lineto stroke
newpath 147.789474 0.000000 moveto 147.789474 -2.000000 lineto stroke
newpath 159.157883 0.000000 moveto 159.157883 -5.000000 lineto stroke
newpath 170.526306 0.000000 moveto 170.526306 -2.000000 lineto stroke
newpath 181.894730 0.000000 moveto 181.894730 -2.000000 lineto stroke
newpath 193.263153 0.000000 moveto 193.263153 -2.000000 lineto stroke
newpath 204.631577 0.000000 moveto 204.631577 -2.000000 lineto stroke
newpath 215.999985 0.000000 moveto 215.999985 -5.000000 lineto stroke
gsave 45.473682 -8.000000 translate 0.000000 rotate
0 -5.400000 translate (5) dup stringwidth pop 2 div neg 0 moveto
show
grestore
gsave 102.315788 -8.000000 translate 0.000000 rotate
0 -5.400000 translate (10) dup stringwidth pop 2 div neg 0 moveto
show
grestore
gsave 159.157883 -8.000000 translate 0.000000 rotate
0 -5.400000 translate (15) dup stringwidth pop 2 div neg 0 moveto
show
grestore
gsave 215.999985 -8.000000 translate 0.000000 rotate
0 -5.400000 translate (20) dup stringwidth pop 2 div neg 0 moveto
show
grestore
/Times-Bold findfont 10.000000 scalefont setfont
gsave 108.000000 -21.400000 translate 0.000000 rotate
0 -6.000000 translate (OMP #threads) dup stringwidth pop 2 div neg 0 moveto
show
grestore
 grestore 
0.700000 setlinewidth  gsave newpath 0.000000 0.000000 moveto 0.000000 216.000000 lineto stroke
newpath 0.000000 0.000000 moveto -5.000000 0.000000 lineto stroke
newpath 0.000000 3.837953 moveto -2.000000 3.837953 lineto stroke
newpath 0.000000 7.675907 moveto -2.000000 7.675907 lineto stroke
newpath 0.000000 11.513860 moveto -2.000000 11.513860 lineto stroke
newpath 0.000000 15.351813 moveto -2.000000 15.351813 lineto stroke
newpath 0.000000 19.189766 moveto -2.000000 19.189766 lineto stroke
newpath 0.000000 23.027719 moveto -2.000000 23.027719 lineto stroke
newpath 0.000000 26.865675 moveto -2.000000 26.865675 lineto stroke
newpath 0.000000 30.703629 moveto -2.000000 30.703629 lineto stroke
newpath 0.000000 34.541584 moveto -2.000000 34.541584 lineto stroke
newpath 0.000000 38.379532 moveto -5.000000 38.379532 lineto stroke
newpath 0.000000 42.217487 moveto -2.000000 42.217487 lineto stroke
newpath 0.000000 46.055439 moveto -2.000000 46.055439 lineto stroke
newpath 0.000000 49.893394 moveto -2.000000 49.893394 lineto stroke
newpath 0.000000 53.731350 moveto -2.000000 53.731350 lineto stroke
newpath 0.000000 57.569302 moveto -2.000000 57.569302 lineto stroke
newpath 0.000000 61.407257 moveto -2.000000 61.407257 lineto stroke
newpath 0.000000 65.245209 moveto -2.000000 65.245209 lineto stroke
newpath 0.000000 69.083168 moveto -2.000000 69.083168 lineto stroke
newpath 0.000000 72.921120 moveto -2.000000 72.921120 lineto stroke
newpath 0.000000 76.759064 moveto -5.000000 76.759064 lineto stroke
newpath 0.000000 80.597015 moveto -2.000000 80.597015 lineto stroke
newpath 0.000000 84.434959 moveto -2.000000 84.434959 lineto stroke
newpath 0.000000 88.272911 moveto -2.000000 88.272911 lineto stroke
newpath 0.000000 92.110863 moveto -2.000000 92.110863 lineto stroke
newpath 0.000000 95.948814 moveto -2.000000 95.948814 lineto stroke
newpath 0.000000 99.786758 moveto -2.000000 99.786758 lineto stroke
newpath 0.000000 103.624710 moveto -2.000000 103.624710 lineto stroke
newpath 0.000000 107.462662 moveto -2.000000 107.462662 lineto stroke
newpath 0.000000 111.300606 moveto -2.000000 111.300606 lineto stroke
newpath 0.000000 115.138596 moveto -5.000000 115.138596 lineto stroke
newpath 0.000000 118.976547 moveto -2.000000 118.976547 lineto stroke
newpath 0.000000 122.814491 moveto -2.000000 122.814491 lineto stroke
newpath 0.000000 126.652443 moveto -2.000000 126.652443 lineto stroke
newpath 0.000000 130.490387 moveto -2.000000 130.490387 lineto stroke
newpath 0.000000 134.328339 moveto -2.000000 134.328339 lineto stroke
newpath 0.000000 138.166290 moveto -2.000000 138.166290 lineto stroke
newpath 0.000000 142.004242 moveto -2.000000 142.004242 lineto stroke
newpath 0.000000 145.842194 moveto -2.000000 145.842194 lineto stroke
newpath 0.000000 149.680145 moveto -2.000000 149.680145 lineto stroke
newpath 0.000000 153.518127 moveto -5.000000 153.518127 lineto stroke
newpath 0.000000 157.356079 moveto -2.000000 157.356079 lineto stroke
newpath 0.000000 161.194031 moveto -2.000000 161.194031 lineto stroke
newpath 0.000000 165.031982 moveto -2.000000 165.031982 lineto stroke
newpath 0.000000 168.869919 moveto -2.000000 168.869919 lineto stroke
newpath 0.000000 172.707870 moveto -2.000000 172.707870 lineto stroke
newpath 0.000000 176.545822 moveto -2.000000 176.545822 lineto stroke
newpath 0.000000 180.383774 moveto -2.000000 180.383774 lineto stroke
newpath 0.000000 184.221725 moveto -2.000000 184.221725 lineto stroke
newpath 0.000000 188.059677 moveto -2.000000 188.059677 lineto stroke
newpath 0.000000 191.897659 moveto -5.000000 191.897659 lineto stroke
newpath 0.000000 195.735611 moveto -2.000000 195.735611 lineto stroke
newpath 0.000000 199.573563 moveto -2.000000 199.573563 lineto stroke
newpath 0.000000 203.411514 moveto -2.000000 203.411514 lineto stroke
newpath 0.000000 207.249451 moveto -2.000000 207.249451 lineto stroke
newpath 0.000000 211.087402 moveto -2.000000 211.087402 lineto stroke
newpath 0.000000 214.925354 moveto -2.000000 214.925354 lineto stroke
/Times-Roman findfont 9.000000 scalefont setfont
gsave -8.000000 0.000000 translate 0.000000 rotate
0 -2.700000 translate (0) dup stringwidth pop neg 0 moveto
show
grestore
gsave -8.000000 38.379532 translate 0.000000 rotate
0 -2.700000 translate (1) dup stringwidth pop neg 0 moveto
show
grestore
gsave -8.000000 76.759064 translate 0.000000 rotate
0 -2.700000 translate (2) dup stringwidth pop neg 0 moveto
show
grestore
gsave -8.000000 115.138596 translate 0.000000 rotate
0 -2.700000 translate (3) dup stringwidth pop neg 0 moveto
show
grestore
gsave -8.000000 153.518127 translate 0.000000 rotate
0 -2.700000 translate (4) dup stringwidth pop neg 0 moveto
show
grestore
gsave -8.000000 191.897659 translate 0.000000 rotate
0 -2.700000 translate (5) dup stringwidth pop neg 0 moveto
show
grestore
/Times-Bold findfont 10.000000 scalefont setfont
gsave -20.320000 108.000000 translate 90.000000 rotate
0 0.000000 translate (Time) dup stringwidth pop 2 div neg 0 moveto
show
grestore
 grestore 
/Times-Roman findfont 12.000000 scalefont setfont
gsave 108.000000 -37.400002 translate 0.000000 rotate
0 -7.200000 translate (par2107) dup stringwidth pop 2 div neg 0 moveto
show 0 -14.400000 translate
(Min elapsed execution time) dup stringwidth pop 2 div neg 0 moveto
show 0 -14.400000 translate
(Generated by par2107 on Sun Dec 25 11:55:28 PM CET 2022) dup stringwidth pop 2 div neg 0 moveto
show
grestore
 gsave 
 gsave 0.700000 setlinewidth  [] 0 setdash
0.000000 216.000000 moveto   11.368421 110.187637 lineto
  22.736841 71.539444 lineto
  34.105263 48.243069 lineto
  45.473682 37.995735 lineto
  56.842102 31.509594 lineto
  68.210526 27.786779 lineto
  79.578941 25.023455 lineto
  90.947365 23.066099 lineto
  102.315788 21.684435 lineto
  113.684204 20.686567 lineto
  125.052628 19.381664 lineto
  136.421051 18.537313 lineto
  147.789474 17.501066 lineto
  159.157883 17.194031 lineto
  170.526306 16.196161 lineto
  181.894730 16.196161 lineto
  193.263153 15.313433 lineto
  204.631577 14.929638 lineto
  215.999985 14.891259 lineto
stroke
0.700000 setlinewidth  [] 0 setdash
 grestore 
 grestore 
-0.000000 -324.000000 translate
0.000000 0.000000 translate
0.700000 setlinewidth  gsave newpath 0.000000 0.000000 moveto 216.000000 0.000000 lineto stroke
newpath 0.000000 0.000000 moveto 0.000000 -2.000000 lineto stroke
newpath 11.368421 0.000000 moveto 11.368421 -2.000000 lineto stroke
newpath 22.736841 0.000000 moveto 22.736841 -2.000000 lineto stroke
newpath 34.105263 0.000000 moveto 34.105263 -2.000000 lineto stroke
newpath 45.473682 0.000000 moveto 45.473682 -5.000000 lineto stroke
newpath 56.842102 0.000000 moveto 56.842102 -2.000000 lineto stroke
newpath 68.210526 0.000000 moveto 68.210526 -2.000000 lineto stroke
newpath 79.578941 0.000000 moveto 79.578941 -2.000000 lineto stroke
newpath 90.947365 0.000000 moveto 90.947365 -2.000000 lineto stroke
newpath 102.315788 0.000000 moveto 102.315788 -5.000000 lineto stroke
newpath 113.684204 0.000000 moveto 113.684204 -2.000000 lineto stroke
newpath 125.052628 0.000000 moveto 125.052628 -2.000000 lineto stroke
newpath 136.421051 0.000000 moveto 136.421051 -2.000000 lineto stroke
newpath 147.789474 0.000000 moveto 147.789474 -2.000000 lineto stroke
newpath 159.157883 0.000000 moveto 159.157883 -5.000000 lineto stroke
newpath 170.526306 0.000000 moveto 170.526306 -2.000000 lineto stroke
newpath 181.894730 0.000000 moveto 181.894730 -2.000000 lineto stroke
newpath 193.263153 0.000000 moveto 193.263153 -2.000000 lineto stroke
newpath 204.631577 0.000000 moveto 204.631577 -2.000000 lineto stroke
newpath 215.999985 0.000000 moveto 215.999985 -5.000000 lineto stroke
/Times-Roman findfont 9.000000 scalefont setfont
gsave 45.473682 -8.000000 translate 0.000000 rotate
0 -5.400000 translate (5) dup stringwidth pop 2 div neg 0 moveto
show
grestore
gsave 102.315788 -8.000000 translate 0.000000 rotate
0 -5.400000 translate (10) dup stringwidth pop 2 div neg 0 moveto
show
grestore
gsave 159.157883 -8.000000 translate 0.000000 rotate
0 -5.400000 translate (15) dup stringwidth pop 2 div neg 0 moveto
show
grestore
gsave 215.999985 -8.000000 translate 0.000000 rotate
0 -5.400000 translate (20) dup stringwidth pop 2 div neg 0 moveto
show
grestore
/Times-Bold findfont 10.000000 scalefont setfont
gsave 108.000000 -21.400000 translate 0.000000 rotate
0 -6.000000 translate (OMP #threads) dup stringwidth pop 2 div neg 0 moveto
show
grestore
 grestore 
0.700000 setlinewidth  gsave newpath 0.000000 0.000000 moveto 0.000000 216.000000 lineto stroke
newpath 0.000000 0.000000 moveto -2.000000 0.000000 lineto stroke
newpath 0.000000 11.368421 moveto -2.000000 11.368421 lineto stroke
newpath 0.000000 22.736841 moveto -2.000000 22.736841 lineto stroke
newpath 0.000000 34.105263 moveto -2.000000 34.105263 lineto stroke
newpath 0.000000 45.473682 moveto -5.000000 45.473682 lineto stroke
newpath 0.000000 56.842102 moveto -2.000000 56.842102 lineto stroke
newpath 0.000000 68.210526 moveto -2.000000 68.210526 lineto stroke
newpath 0.000000 79.578941 moveto -2.000000 79.578941 lineto stroke
newpath 0.000000 90.947365 moveto -2.000000 90.947365 lineto stroke
newpath 0.000000 102.315788 moveto -5.000000 102.315788 lineto stroke
newpath 0.000000 113.684204 moveto -2.000000 113.684204 lineto stroke
newpath 0.000000 125.052628 moveto -2.000000 125.052628 lineto stroke
newpath 0.000000 136.421051 moveto -2.000000 136.421051 lineto stroke
newpath 0.000000 147.789474 moveto -2.000000 147.789474 lineto stroke
newpath 0.000000 159.157883 moveto -5.000000 159.157883 lineto stroke
newpath 0.000000 170.526306 moveto -2.000000 170.526306 lineto stroke
newpath 0.000000 181.894730 moveto -2.000000 181.894730 lineto stroke
newpath 0.000000 193.263153 moveto -2.000000 193.263153 lineto stroke
newpath 0.000000 204.631577 moveto -2.000000 204.631577 lineto stroke
newpath 0.000000 215.999985 moveto -5.000000 215.999985 lineto stroke
/Times-Roman findfont 9.000000 scalefont setfont
gsave -8.000000 45.473682 translate 0.000000 rotate
0 -2.700000 translate (5) dup stringwidth pop neg 0 moveto
show
grestore
gsave -8.000000 102.315788 translate 0.000000 rotate
0 -2.700000 translate (10) dup stringwidth pop neg 0 moveto
show
grestore
gsave -8.000000 159.157883 translate 0.000000 rotate
0 -2.700000 translate (15) dup stringwidth pop neg 0 moveto
show
grestore
gsave -8.000000 215.999985 translate 0.000000 rotate
0 -2.700000 translate (20) dup stringwidth pop neg 0 moveto
show
grestore
/Times-Bold findfont 10.000000 scalefont setfont
gsave -24.639999 108.000000 translate 90.000000 rotate
0 0.000000 translate (Speed-up) dup stringwidth pop 2 div neg 0 moveto
show
grestore
 grestore 
/Times-Roman findfont 12.000000 scalefont setfont
gsave 108.000000 -37.400002 translate 0.000000 rotate
0 -7.200000 translate (par2107) dup stringwidth pop 2 div neg 0 moveto
show 0 -14.400000 translate
(Speed-up wrt sequential time) dup stringwidth pop 2 div neg 0 moveto
show 0 -14.400000 translate
(Generated by par2107 on Sun Dec 25 11:55:28 PM CET 2022) dup stringwidth pop 2 div neg 0 moveto
show
grestore
 gsave 
 gsave 0.700000 setlinewidth  [4.00000] 0 setdash
0.000000 0.000000 moveto   11.368421 11.368421 lineto
  22.736841 22.736841 lineto
  34.105263 34.105263 lineto
  45.473682 45.473682 lineto
  56.842102 56.842102 lineto
  68.210526 68.210526 lineto
  79.578941 79.578941 lineto
  90.947365 90.947365 lineto
  102.315788 102.315788 lineto
  113.684204 113.684204 lineto
  125.052628 125.052628 lineto
  136.421051 136.421051 lineto
  147.789474 147.789474 lineto
  159.157883 159.157883 lineto
  170.526306 170.526306 lineto
  181.894730 181.894730 lineto
  193.263153 193.263153 lineto
  204.631577 204.631577 lineto
  215.999985 215.999985 lineto
stroke
0.700000 setlinewidth  [] 0 setdash
 grestore 
 gsave 0.700000 setlinewidth  [] 0 setdash
0.000000 2.466390 moveto   11.368421 15.751854 lineto
  22.736841 30.403206 lineto
  34.105263 50.574551 lineto
  45.473682 67.280380 lineto
  56.842102 83.469955 lineto
  68.210526 96.176208 lineto
  79.578941 108.052307 lineto
  90.947365 118.186172 lineto
  102.315788 126.440979 lineto
  113.684204 133.088562 lineto
  125.052628 142.814377 lineto
  136.421051 149.837204 lineto
  147.789474 159.382263 lineto
  159.157883 162.431381 lineto
  170.526306 173.139435 lineto
  181.894730 173.139435 lineto
  193.263153 183.775208 lineto
  204.631577 188.791763 lineto
  215.999985 189.307632 lineto
stroke
0.700000 setlinewidth  [] 0 setdash
 grestore 
 grestore 
-0.000000 -0.000000 translate
 grestore showpage
%%PageTrailer

%%Trailer
%%Pages: 1
%%EOF
