%!PS-Adobe-3.0
%%Pages: (atend)
%%Creator: jgraph
%%EndComments

%%BeginProlog
%%EndProlog
%%BeginSetup
%%EndSetup

%%Page: 1 1
%%BeginPageSetup
%%EndPageSetup

198.000000 327.000000 translate
1 setlinecap 1 setlinejoin
0.700 setlinewidth
0.00 setgray

/Jrnd { exch cvi exch cvi dup 3 1 roll idiv mul } def
/JDEdict 8 dict def
JDEdict /mtrx matrix put
/JDE {
  JDEdict begin
  /yrad exch def
  /xrad exch def
  /savematrix mtrx currentmatrix def
  xrad yrad scale
  0 0 1 0 360 arc
  savematrix setmatrix
  end
} def
/JSTR {
  gsave 1 eq { gsave 1 setgray fill grestore } if
    exch neg exch neg translate 
    clip                        
    rotate                      
    4 dict begin
      pathbbox  /&top exch def
                /&right exch def
                /&bottom exch def
                &right sub /&width exch def
      newpath
      currentlinewidth mul round dup               
      &bottom exch Jrnd exch &top             
      4 -1 roll currentlinewidth mul setlinewidth  
      { &right exch moveto &width 0 rlineto stroke } for    
    end
  grestore
  newpath
} bind def
 gsave /Times-Roman findfont 9.000000 scalefont setfont
0.000000 0.000000 translate
0.700000 setlinewidth  gsave newpath 0.000000 0.000000 moveto 216.000000 0.000000 lineto stroke
newpath 3.256281 0.000000 moveto 3.256281 -2.000000 lineto stroke
newpath 7.597990 0.000000 moveto 7.597990 -2.000000 lineto stroke
newpath 11.939699 0.000000 moveto 11.939699 -2.000000 lineto stroke
newpath 16.281408 0.000000 moveto 16.281408 -2.000000 lineto stroke
newpath 20.623116 0.000000 moveto 20.623116 -2.000000 lineto stroke
newpath 24.964825 0.000000 moveto 24.964825 -2.000000 lineto stroke
newpath 29.306534 0.000000 moveto 29.306534 -2.000000 lineto stroke
newpath 33.648243 0.000000 moveto 33.648243 -2.000000 lineto stroke
newpath 37.989952 0.000000 moveto 37.989952 -2.000000 lineto stroke
newpath 42.331661 0.000000 moveto 42.331661 -5.000000 lineto stroke
newpath 46.673367 0.000000 moveto 46.673367 -2.000000 lineto stroke
newpath 51.015076 0.000000 moveto 51.015076 -2.000000 lineto stroke
newpath 55.356785 0.000000 moveto 55.356785 -2.000000 lineto stroke
newpath 59.698494 0.000000 moveto 59.698494 -2.000000 lineto stroke
newpath 64.040199 0.000000 moveto 64.040199 -2.000000 lineto stroke
newpath 68.381912 0.000000 moveto 68.381912 -2.000000 lineto stroke
newpath 72.723618 0.000000 moveto 72.723618 -2.000000 lineto stroke
newpath 77.065331 0.000000 moveto 77.065331 -2.000000 lineto stroke
newpath 81.407036 0.000000 moveto 81.407036 -2.000000 lineto stroke
newpath 85.748749 0.000000 moveto 85.748749 -5.000000 lineto stroke
newpath 90.090454 0.000000 moveto 90.090454 -2.000000 lineto stroke
newpath 94.432167 0.000000 moveto 94.432167 -2.000000 lineto stroke
newpath 98.773872 0.000000 moveto 98.773872 -2.000000 lineto stroke
newpath 103.115578 0.000000 moveto 103.115578 -2.000000 lineto stroke
newpath 107.457291 0.000000 moveto 107.457291 -2.000000 lineto stroke
newpath 111.798996 0.000000 moveto 111.798996 -2.000000 lineto stroke
newpath 116.140709 0.000000 moveto 116.140709 -2.000000 lineto stroke
newpath 120.482414 0.000000 moveto 120.482414 -2.000000 lineto stroke
newpath 124.824127 0.000000 moveto 124.824127 -2.000000 lineto stroke
newpath 129.165833 0.000000 moveto 129.165833 -5.000000 lineto stroke
newpath 133.507538 0.000000 moveto 133.507538 -2.000000 lineto stroke
newpath 137.849243 0.000000 moveto 137.849243 -2.000000 lineto stroke
newpath 142.190964 0.000000 moveto 142.190964 -2.000000 lineto stroke
newpath 146.532669 0.000000 moveto 146.532669 -2.000000 lineto stroke
newpath 150.874374 0.000000 moveto 150.874374 -2.000000 lineto stroke
newpath 155.216080 0.000000 moveto 155.216080 -2.000000 lineto stroke
newpath 159.557800 0.000000 moveto 159.557800 -2.000000 lineto stroke
newpath 163.899506 0.000000 moveto 163.899506 -2.000000 lineto stroke
newpath 168.241211 0.000000 moveto 168.241211 -2.000000 lineto stroke
newpath 172.582916 0.000000 moveto 172.582916 -5.000000 lineto stroke
newpath 176.924622 0.000000 moveto 176.924622 -2.000000 lineto stroke
newpath 181.266342 0.000000 moveto 181.266342 -2.000000 lineto stroke
newpath 185.608047 0.000000 moveto 185.608047 -2.000000 lineto stroke
newpath 189.949753 0.000000 moveto 189.949753 -2.000000 lineto stroke
newpath 194.291458 0.000000 moveto 194.291458 -2.000000 lineto stroke
newpath 198.633179 0.000000 moveto 198.633179 -2.000000 lineto stroke
newpath 202.974884 0.000000 moveto 202.974884 -2.000000 lineto stroke
newpath 207.316589 0.000000 moveto 207.316589 -2.000000 lineto stroke
newpath 211.658295 0.000000 moveto 211.658295 -2.000000 lineto stroke
newpath 216.000000 0.000000 moveto 216.000000 -5.000000 lineto stroke
gsave 3.256281 -8.000000 translate 90.000000 rotate
0 -2.700000 translate ( 1) dup stringwidth pop neg 0 moveto
show
grestore
gsave 7.597990 -8.000000 translate 90.000000 rotate
0 -2.700000 translate ( 2) dup stringwidth pop neg 0 moveto
show
grestore
gsave 11.939699 -8.000000 translate 90.000000 rotate
0 -2.700000 translate ( 3) dup stringwidth pop neg 0 moveto
show
grestore
gsave 16.281408 -8.000000 translate 90.000000 rotate
0 -2.700000 translate ( 4) dup stringwidth pop neg 0 moveto
show
grestore
gsave 20.623116 -8.000000 translate 90.000000 rotate
0 -2.700000 translate ( 5) dup stringwidth pop neg 0 moveto
show
grestore
gsave 24.964825 -8.000000 translate 90.000000 rotate
0 -2.700000 translate ( 6) dup stringwidth pop neg 0 moveto
show
grestore
gsave 29.306534 -8.000000 translate 90.000000 rotate
0 -2.700000 translate ( 7) dup stringwidth pop neg 0 moveto
show
grestore
gsave 33.648243 -8.000000 translate 90.000000 rotate
0 -2.700000 translate ( 8) dup stringwidth pop neg 0 moveto
show
grestore
gsave 37.989952 -8.000000 translate 90.000000 rotate
0 -2.700000 translate ( 9) dup stringwidth pop neg 0 moveto
show
grestore
gsave 42.331661 -8.000000 translate 90.000000 rotate
0 -2.700000 translate ( 10) dup stringwidth pop neg 0 moveto
show
grestore
gsave 46.673367 -8.000000 translate 90.000000 rotate
0 -2.700000 translate ( 11) dup stringwidth pop neg 0 moveto
show
grestore
gsave 51.015076 -8.000000 translate 90.000000 rotate
0 -2.700000 translate ( 12) dup stringwidth pop neg 0 moveto
show
grestore
gsave 55.356785 -8.000000 translate 90.000000 rotate
0 -2.700000 translate ( 13) dup stringwidth pop neg 0 moveto
show
grestore
gsave 59.698494 -8.000000 translate 90.000000 rotate
0 -2.700000 translate ( 14) dup stringwidth pop neg 0 moveto
show
grestore
gsave 64.040199 -8.000000 translate 90.000000 rotate
0 -2.700000 translate ( 15) dup stringwidth pop neg 0 moveto
show
grestore
gsave 68.381912 -8.000000 translate 90.000000 rotate
0 -2.700000 translate ( 16) dup stringwidth pop neg 0 moveto
show
grestore
gsave 72.723618 -8.000000 translate 90.000000 rotate
0 -2.700000 translate ( 17) dup stringwidth pop neg 0 moveto
show
grestore
gsave 77.065331 -8.000000 translate 90.000000 rotate
0 -2.700000 translate ( 18) dup stringwidth pop neg 0 moveto
show
grestore
gsave 81.407036 -8.000000 translate 90.000000 rotate
0 -2.700000 translate ( 19) dup stringwidth pop neg 0 moveto
show
grestore
gsave 85.748749 -8.000000 translate 90.000000 rotate
0 -2.700000 translate ( 20) dup stringwidth pop neg 0 moveto
show
grestore
gsave 90.090454 -8.000000 translate 90.000000 rotate
0 -2.700000 translate ( 21) dup stringwidth pop neg 0 moveto
show
grestore
gsave 94.432167 -8.000000 translate 90.000000 rotate
0 -2.700000 translate ( 22) dup stringwidth pop neg 0 moveto
show
grestore
gsave 98.773872 -8.000000 translate 90.000000 rotate
0 -2.700000 translate ( 23) dup stringwidth pop neg 0 moveto
show
grestore
gsave 103.115578 -8.000000 translate 90.000000 rotate
0 -2.700000 translate ( 24) dup stringwidth pop neg 0 moveto
show
grestore
gsave 107.457291 -8.000000 translate 90.000000 rotate
0 -2.700000 translate ( 25) dup stringwidth pop neg 0 moveto
show
grestore
gsave 111.798996 -8.000000 translate 90.000000 rotate
0 -2.700000 translate ( 26) dup stringwidth pop neg 0 moveto
show
grestore
gsave 116.140709 -8.000000 translate 90.000000 rotate
0 -2.700000 translate ( 27) dup stringwidth pop neg 0 moveto
show
grestore
gsave 120.482414 -8.000000 translate 90.000000 rotate
0 -2.700000 translate ( 28) dup stringwidth pop neg 0 moveto
show
grestore
gsave 124.824127 -8.000000 translate 90.000000 rotate
0 -2.700000 translate ( 29) dup stringwidth pop neg 0 moveto
show
grestore
gsave 129.165833 -8.000000 translate 90.000000 rotate
0 -2.700000 translate ( 30) dup stringwidth pop neg 0 moveto
show
grestore
gsave 133.507538 -8.000000 translate 90.000000 rotate
0 -2.700000 translate ( 31) dup stringwidth pop neg 0 moveto
show
grestore
gsave 137.849243 -8.000000 translate 90.000000 rotate
0 -2.700000 translate ( 32) dup stringwidth pop neg 0 moveto
show
grestore
gsave 142.190964 -8.000000 translate 90.000000 rotate
0 -2.700000 translate ( 33) dup stringwidth pop neg 0 moveto
show
grestore
gsave 146.532669 -8.000000 translate 90.000000 rotate
0 -2.700000 translate ( 34) dup stringwidth pop neg 0 moveto
show
grestore
gsave 150.874374 -8.000000 translate 90.000000 rotate
0 -2.700000 translate ( 35) dup stringwidth pop neg 0 moveto
show
grestore
gsave 155.216080 -8.000000 translate 90.000000 rotate
0 -2.700000 translate ( 36) dup stringwidth pop neg 0 moveto
show
grestore
gsave 159.557800 -8.000000 translate 90.000000 rotate
0 -2.700000 translate ( 37) dup stringwidth pop neg 0 moveto
show
grestore
gsave 163.899506 -8.000000 translate 90.000000 rotate
0 -2.700000 translate ( 38) dup stringwidth pop neg 0 moveto
show
grestore
gsave 168.241211 -8.000000 translate 90.000000 rotate
0 -2.700000 translate ( 39) dup stringwidth pop neg 0 moveto
show
grestore
gsave 172.582916 -8.000000 translate 90.000000 rotate
0 -2.700000 translate ( 40) dup stringwidth pop neg 0 moveto
show
grestore
gsave 176.924622 -8.000000 translate 90.000000 rotate
0 -2.700000 translate ( 41) dup stringwidth pop neg 0 moveto
show
grestore
gsave 181.266342 -8.000000 translate 90.000000 rotate
0 -2.700000 translate ( 42) dup stringwidth pop neg 0 moveto
show
grestore
gsave 185.608047 -8.000000 translate 90.000000 rotate
0 -2.700000 translate ( 43) dup stringwidth pop neg 0 moveto
show
grestore
gsave 189.949753 -8.000000 translate 90.000000 rotate
0 -2.700000 translate ( 44) dup stringwidth pop neg 0 moveto
show
grestore
gsave 194.291458 -8.000000 translate 90.000000 rotate
0 -2.700000 translate ( 45) dup stringwidth pop neg 0 moveto
show
grestore
gsave 198.633179 -8.000000 translate 90.000000 rotate
0 -2.700000 translate ( 46) dup stringwidth pop neg 0 moveto
show
grestore
gsave 202.974884 -8.000000 translate 90.000000 rotate
0 -2.700000 translate ( 47) dup stringwidth pop neg 0 moveto
show
grestore
gsave 207.316589 -8.000000 translate 90.000000 rotate
0 -2.700000 translate ( 48) dup stringwidth pop neg 0 moveto
show
grestore
gsave 211.658295 -8.000000 translate 90.000000 rotate
0 -2.700000 translate ( 49) dup stringwidth pop neg 0 moveto
show
grestore
gsave 216.000000 -8.000000 translate 90.000000 rotate
0 -2.700000 translate ( 50) dup stringwidth pop neg 0 moveto
show
grestore
/Times-Bold findfont 10.000000 scalefont setfont
gsave 108.000000 -28.959999 translate 0.000000 rotate
0 -6.000000 translate (Value for user parameter) dup stringwidth pop 2 div neg 0 moveto
show
grestore
 grestore 
0.700000 setlinewidth  gsave newpath 0.000000 0.000000 moveto 0.000000 216.000000 lineto stroke
newpath 0.000000 0.000000 moveto -5.000000 0.000000 lineto stroke
newpath 0.000000 7.200000 moveto -2.000000 7.200000 lineto stroke
newpath 0.000000 14.400000 moveto -2.000000 14.400000 lineto stroke
newpath 0.000000 21.599998 moveto -2.000000 21.599998 lineto stroke
newpath 0.000000 28.799999 moveto -2.000000 28.799999 lineto stroke
newpath 0.000000 36.000000 moveto -2.000000 36.000000 lineto stroke
newpath 0.000000 43.199997 moveto -2.000000 43.199997 lineto stroke
newpath 0.000000 50.399998 moveto -2.000000 50.399998 lineto stroke
newpath 0.000000 57.599998 moveto -2.000000 57.599998 lineto stroke
newpath 0.000000 64.799995 moveto -2.000000 64.799995 lineto stroke
newpath 0.000000 72.000000 moveto -5.000000 72.000000 lineto stroke
newpath 0.000000 79.199997 moveto -2.000000 79.199997 lineto stroke
newpath 0.000000 86.399994 moveto -2.000000 86.399994 lineto stroke
newpath 0.000000 93.599998 moveto -2.000000 93.599998 lineto stroke
newpath 0.000000 100.799995 moveto -2.000000 100.799995 lineto stroke
newpath 0.000000 108.000000 moveto -2.000000 108.000000 lineto stroke
newpath 0.000000 115.199997 moveto -2.000000 115.199997 lineto stroke
newpath 0.000000 122.399994 moveto -2.000000 122.399994 lineto stroke
newpath 0.000000 129.599991 moveto -2.000000 129.599991 lineto stroke
newpath 0.000000 136.800003 moveto -2.000000 136.800003 lineto stroke
newpath 0.000000 144.000000 moveto -5.000000 144.000000 lineto stroke
newpath 0.000000 151.199997 moveto -2.000000 151.199997 lineto stroke
newpath 0.000000 158.399994 moveto -2.000000 158.399994 lineto stroke
newpath 0.000000 165.599991 moveto -2.000000 165.599991 lineto stroke
newpath 0.000000 172.799988 moveto -2.000000 172.799988 lineto stroke
newpath 0.000000 180.000000 moveto -2.000000 180.000000 lineto stroke
newpath 0.000000 187.199997 moveto -2.000000 187.199997 lineto stroke
newpath 0.000000 194.399994 moveto -2.000000 194.399994 lineto stroke
newpath 0.000000 201.599991 moveto -2.000000 201.599991 lineto stroke
newpath 0.000000 208.799988 moveto -2.000000 208.799988 lineto stroke
newpath 0.000000 216.000000 moveto -5.000000 216.000000 lineto stroke
/Times-Roman findfont 9.000000 scalefont setfont
gsave -8.000000 0.000000 translate 0.000000 rotate
0 -2.700000 translate (0) dup stringwidth pop neg 0 moveto
show
grestore
gsave -8.000000 72.000000 translate 0.000000 rotate
0 -2.700000 translate (10) dup stringwidth pop neg 0 moveto
show
grestore
gsave -8.000000 144.000000 translate 0.000000 rotate
0 -2.700000 translate (20) dup stringwidth pop neg 0 moveto
show
grestore
gsave -8.000000 216.000000 translate 0.000000 rotate
0 -2.700000 translate (30) dup stringwidth pop neg 0 moveto
show
grestore
/Times-Bold findfont 10.000000 scalefont setfont
gsave -24.639999 108.000000 translate 90.000000 rotate
0 0.000000 translate (Execution time) dup stringwidth pop 2 div neg 0 moveto
show
grestore
 grestore 
/Times-Roman findfont 12.000000 scalefont setfont
gsave 108.000000 -44.959999 translate 0.000000 rotate
0 -7.200000 translate (par2107) dup stringwidth pop 2 div neg 0 moveto
show 0 -14.400000 translate
(Average elapsed execution time \(heat difussion\)) dup stringwidth pop 2 div neg 0 moveto
show 0 -14.400000 translate
(Sun Dec 25 08:29:46 PM CET 2022) dup stringwidth pop 2 div neg 0 moveto
show
grestore
 gsave 
 gsave  gsave  24.964825 3.636000 translate 0.000000 rotate
 newpath 1.085427 0.000000 moveto  -1.085427 0.000000 lineto
  -1.085427 -3.636000 lineto
  1.085427 -3.636000 lineto
closepath gsave 0.500000 setgray  fill grestore
stroke
 grestore  gsave  29.306534 3.643200 translate 0.000000 rotate
 newpath 1.085427 0.000000 moveto  -1.085427 0.000000 lineto
  -1.085427 -3.643200 lineto
  1.085427 -3.643200 lineto
closepath gsave 0.500000 setgray  fill grestore
stroke
 grestore  gsave  3.256281 9.050400 translate 0.000000 rotate
 newpath 1.085427 0.000000 moveto  -1.085427 0.000000 lineto
  -1.085427 -9.050400 lineto
  1.085427 -9.050400 lineto
closepath gsave 0.500000 setgray  fill grestore
stroke
 grestore  gsave  33.648243 3.736800 translate 0.000000 rotate
 newpath 1.085427 0.000000 moveto  -1.085427 0.000000 lineto
  -1.085427 -3.736800 lineto
  1.085427 -3.736800 lineto
closepath gsave 0.500000 setgray  fill grestore
stroke
 grestore  gsave  7.597990 6.688800 translate 0.000000 rotate
 newpath 1.085427 0.000000 moveto  -1.085427 0.000000 lineto
  -1.085427 -6.688800 lineto
  1.085427 -6.688800 lineto
closepath gsave 0.500000 setgray  fill grestore
stroke
 grestore  gsave  37.989952 3.636000 translate 0.000000 rotate
 newpath 1.085427 0.000000 moveto  -1.085427 0.000000 lineto
  -1.085427 -3.636000 lineto
  1.085427 -3.636000 lineto
closepath gsave 0.500000 setgray  fill grestore
stroke
 grestore  gsave  42.331661 3.765600 translate 0.000000 rotate
 newpath 1.085427 0.000000 moveto  -1.085427 0.000000 lineto
  -1.085427 -3.765600 lineto
  1.085427 -3.765600 lineto
closepath gsave 0.500000 setgray  fill grestore
stroke
 grestore  gsave  11.939699 5.796000 translate 0.000000 rotate
 newpath 1.085427 0.000000 moveto  -1.085427 0.000000 lineto
  -1.085427 -5.796000 lineto
  1.085427 -5.796000 lineto
closepath gsave 0.500000 setgray  fill grestore
stroke
 grestore  gsave  46.673367 3.441600 translate 0.000000 rotate
 newpath 1.085427 0.000000 moveto  -1.085427 0.000000 lineto
  -1.085427 -3.441600 lineto
  1.085427 -3.441600 lineto
closepath gsave 0.500000 setgray  fill grestore
stroke
 grestore  gsave  16.281408 5.299200 translate 0.000000 rotate
 newpath 1.085427 0.000000 moveto  -1.085427 0.000000 lineto
  -1.085427 -5.299200 lineto
  1.085427 -5.299200 lineto
closepath gsave 0.500000 setgray  fill grestore
stroke
 grestore  gsave  51.015076 3.506400 translate 0.000000 rotate
 newpath 1.085427 0.000000 moveto  -1.085427 0.000000 lineto
  -1.085427 -3.506400 lineto
  1.085427 -3.506400 lineto
closepath gsave 0.500000 setgray  fill grestore
stroke
 grestore  gsave  20.623116 93.599998 translate 0.000000 rotate
 newpath 1.085427 0.000000 moveto  -1.085427 0.000000 lineto
  -1.085427 -93.599998 lineto
  1.085427 -93.599998 lineto
closepath gsave 0.500000 setgray  fill grestore
stroke
 grestore  gsave  1.840885 3.556800 translate 0.000000 rotate
 newpath 1.085427 0.000000 moveto  -1.085427 0.000000 lineto
  -1.085427 -3.556800 lineto
  1.085427 -3.556800 lineto
closepath gsave 0.500000 setgray  fill grestore
stroke
 grestore  gsave  59.698494 3.556800 translate 0.000000 rotate
 newpath 1.085427 0.000000 moveto  -1.085427 0.000000 lineto
  -1.085427 -3.556800 lineto
  1.085427 -3.556800 lineto
closepath gsave 0.500000 setgray  fill grestore
stroke
 grestore  gsave  24.964825 4.471200 translate 0.000000 rotate
 newpath 1.085427 0.000000 moveto  -1.085427 0.000000 lineto
  -1.085427 -4.471200 lineto
  1.085427 -4.471200 lineto
closepath gsave 0.500000 setgray  fill grestore
stroke
 grestore  gsave  64.040199 3.708000 translate 0.000000 rotate
 newpath 1.085427 0.000000 moveto  -1.085427 0.000000 lineto
  -1.085427 -3.708000 lineto
  1.085427 -3.708000 lineto
closepath gsave 0.500000 setgray  fill grestore
stroke
 grestore  gsave  29.306534 4.305600 translate 0.000000 rotate
 newpath 1.085427 0.000000 moveto  -1.085427 0.000000 lineto
  -1.085427 -4.305600 lineto
  1.085427 -4.305600 lineto
closepath gsave 0.500000 setgray  fill grestore
stroke
 grestore  gsave  68.381912 3.744000 translate 0.000000 rotate
 newpath 1.085427 0.000000 moveto  -1.085427 0.000000 lineto
  -1.085427 -3.744000 lineto
  1.085427 -3.744000 lineto
closepath gsave 0.500000 setgray  fill grestore
stroke
 grestore  gsave  33.648243 4.240800 translate 0.000000 rotate
 newpath 1.085427 0.000000 moveto  -1.085427 0.000000 lineto
  -1.085427 -4.240800 lineto
  1.085427 -4.240800 lineto
closepath gsave 0.500000 setgray  fill grestore
stroke
 grestore  gsave  72.723618 3.744000 translate 0.000000 rotate
 newpath 1.085427 0.000000 moveto  -1.085427 0.000000 lineto
  -1.085427 -3.744000 lineto
  1.085427 -3.744000 lineto
closepath gsave 0.500000 setgray  fill grestore
stroke
 grestore  gsave  37.989952 4.204800 translate 0.000000 rotate
 newpath 1.085427 0.000000 moveto  -1.085427 0.000000 lineto
  -1.085427 -4.204800 lineto
  1.085427 -4.204800 lineto
closepath gsave 0.500000 setgray  fill grestore
stroke
 grestore  gsave  77.065331 3.708000 translate 0.000000 rotate
 newpath 1.085427 0.000000 moveto  -1.085427 0.000000 lineto
  -1.085427 -3.708000 lineto
  1.085427 -3.708000 lineto
closepath gsave 0.500000 setgray  fill grestore
stroke
 grestore  gsave  42.331661 4.183200 translate 0.000000 rotate
 newpath 1.085427 0.000000 moveto  -1.085427 0.000000 lineto
  -1.085427 -4.183200 lineto
  1.085427 -4.183200 lineto
closepath gsave 0.500000 setgray  fill grestore
stroke
 grestore  gsave  81.407036 3.801600 translate 0.000000 rotate
 newpath 1.085427 0.000000 moveto  -1.085427 0.000000 lineto
  -1.085427 -3.801600 lineto
  1.085427 -3.801600 lineto
closepath gsave 0.500000 setgray  fill grestore
stroke
 grestore  gsave  46.673367 4.176000 translate 0.000000 rotate
 newpath 1.085427 0.000000 moveto  -1.085427 0.000000 lineto
  -1.085427 -4.176000 lineto
  1.085427 -4.176000 lineto
closepath gsave 0.500000 setgray  fill grestore
stroke
 grestore  gsave  85.748749 4.125600 translate 0.000000 rotate
 newpath 1.085427 0.000000 moveto  -1.085427 0.000000 lineto
  -1.085427 -4.125600 lineto
  1.085427 -4.125600 lineto
closepath gsave 0.500000 setgray  fill grestore
stroke
 grestore  gsave  51.015076 4.053600 translate 0.000000 rotate
 newpath 1.085427 0.000000 moveto  -1.085427 0.000000 lineto
  -1.085427 -4.053600 lineto
  1.085427 -4.053600 lineto
closepath gsave 0.500000 setgray  fill grestore
stroke
 grestore  gsave  90.090454 4.024800 translate 0.000000 rotate
 newpath 1.085427 0.000000 moveto  -1.085427 0.000000 lineto
  -1.085427 -4.024800 lineto
  1.085427 -4.024800 lineto
closepath gsave 0.500000 setgray  fill grestore
stroke
 grestore  gsave  55.356785 4.183200 translate 0.000000 rotate
 newpath 1.085427 0.000000 moveto  -1.085427 0.000000 lineto
  -1.085427 -4.183200 lineto
  1.085427 -4.183200 lineto
closepath gsave 0.500000 setgray  fill grestore
stroke
 grestore  gsave  94.432167 4.233600 translate 0.000000 rotate
 newpath 1.085427 0.000000 moveto  -1.085427 0.000000 lineto
  -1.085427 -4.233600 lineto
  1.085427 -4.233600 lineto
closepath gsave 0.500000 setgray  fill grestore
stroke
 grestore  gsave  59.698494 4.096800 translate 0.000000 rotate
 newpath 1.085427 0.000000 moveto  -1.085427 0.000000 lineto
  -1.085427 -4.096800 lineto
  1.085427 -4.096800 lineto
closepath gsave 0.500000 setgray  fill grestore
stroke
 grestore  gsave  98.773872 4.327200 translate 0.000000 rotate
 newpath 1.085427 0.000000 moveto  -1.085427 0.000000 lineto
  -1.085427 -4.327200 lineto
  1.085427 -4.327200 lineto
closepath gsave 0.500000 setgray  fill grestore
stroke
 grestore  gsave  64.040199 4.161600 translate 0.000000 rotate
 newpath 1.085427 0.000000 moveto  -1.085427 0.000000 lineto
  -1.085427 -4.161600 lineto
  1.085427 -4.161600 lineto
closepath gsave 0.500000 setgray  fill grestore
stroke
 grestore  gsave  103.115578 4.384800 translate 0.000000 rotate
 newpath 1.085427 0.000000 moveto  -1.085427 0.000000 lineto
  -1.085427 -4.384800 lineto
  1.085427 -4.384800 lineto
closepath gsave 0.500000 setgray  fill grestore
stroke
 grestore  gsave  68.381912 3.880800 translate 0.000000 rotate
 newpath 1.085427 0.000000 moveto  -1.085427 0.000000 lineto
  -1.085427 -3.880800 lineto
  1.085427 -3.880800 lineto
closepath gsave 0.500000 setgray  fill grestore
stroke
 grestore  gsave  107.457291 4.615200 translate 0.000000 rotate
 newpath 1.085427 0.000000 moveto  -1.085427 0.000000 lineto
  -1.085427 -4.615200 lineto
  1.085427 -4.615200 lineto
closepath gsave 0.500000 setgray  fill grestore
stroke
 grestore  gsave  72.723618 4.032000 translate 0.000000 rotate
 newpath 1.085427 0.000000 moveto  -1.085427 0.000000 lineto
  -1.085427 -4.032000 lineto
  1.085427 -4.032000 lineto
closepath gsave 0.500000 setgray  fill grestore
stroke
 grestore  gsave  111.798996 4.298400 translate 0.000000 rotate
 newpath 1.085427 0.000000 moveto  -1.085427 0.000000 lineto
  -1.085427 -4.298400 lineto
  1.085427 -4.298400 lineto
closepath gsave 0.500000 setgray  fill grestore
stroke
 grestore  gsave  77.065331 3.837600 translate 0.000000 rotate
 newpath 1.085427 0.000000 moveto  -1.085427 0.000000 lineto
  -1.085427 -3.837600 lineto
  1.085427 -3.837600 lineto
closepath gsave 0.500000 setgray  fill grestore
stroke
 grestore  gsave  116.140709 4.600800 translate 0.000000 rotate
 newpath 1.085427 0.000000 moveto  -1.085427 0.000000 lineto
  -1.085427 -4.600800 lineto
  1.085427 -4.600800 lineto
closepath gsave 0.500000 setgray  fill grestore
stroke
 grestore  gsave  81.407036 4.060800 translate 0.000000 rotate
 newpath 1.085427 0.000000 moveto  -1.085427 0.000000 lineto
  -1.085427 -4.060800 lineto
  1.085427 -4.060800 lineto
closepath gsave 0.500000 setgray  fill grestore
stroke
 grestore  gsave  120.482414 144.000000 translate 0.000000 rotate
 newpath 1.085427 0.000000 moveto  -1.085427 0.000000 lineto
  -1.085427 -144.000000 lineto
  1.085427 -144.000000 lineto
closepath gsave 0.500000 setgray  fill grestore
stroke
 grestore  gsave  1.719317 4.053600 translate 0.000000 rotate
 newpath 1.085427 0.000000 moveto  -1.085427 0.000000 lineto
  -1.085427 -4.053600 lineto
  1.085427 -4.053600 lineto
closepath gsave 0.500000 setgray  fill grestore
stroke
 grestore  gsave  90.090454 4.039200 translate 0.000000 rotate
 newpath 1.085427 0.000000 moveto  -1.085427 0.000000 lineto
  -1.085427 -4.039200 lineto
  1.085427 -4.039200 lineto
closepath gsave 0.500000 setgray  fill grestore
stroke
 grestore  gsave  124.824127 4.514400 translate 0.000000 rotate
 newpath 1.085427 0.000000 moveto  -1.085427 0.000000 lineto
  -1.085427 -4.514400 lineto
  1.085427 -4.514400 lineto
closepath gsave 0.500000 setgray  fill grestore
stroke
 grestore  gsave  94.432167 216.000000 translate 0.000000 rotate
 newpath 1.085427 0.000000 moveto  -1.085427 0.000000 lineto
  -1.085427 -216.000000 lineto
  1.085427 -216.000000 lineto
closepath gsave 0.500000 setgray  fill grestore
stroke
 grestore  gsave  1.415397 4.658400 translate 0.000000 rotate
 newpath 1.085427 0.000000 moveto  -1.085427 0.000000 lineto
  -1.085427 -4.658400 lineto
  1.085427 -4.658400 lineto
closepath gsave 0.500000 setgray  fill grestore
stroke
 grestore  gsave  98.773872 4.413599 translate 0.000000 rotate
 newpath 1.085427 0.000000 moveto  -1.085427 0.000000 lineto
  -1.085427 -4.413599 lineto
  1.085427 -4.413599 lineto
closepath gsave 0.500000 setgray  fill grestore
stroke
 grestore  gsave  133.507538 4.816800 translate 0.000000 rotate
 newpath 1.085427 0.000000 moveto  -1.085427 0.000000 lineto
  -1.085427 -4.816800 lineto
  1.085427 -4.816800 lineto
closepath gsave 0.500000 setgray  fill grestore
stroke
 grestore  gsave  103.115578 4.204800 translate 0.000000 rotate
 newpath 1.085427 0.000000 moveto  -1.085427 0.000000 lineto
  -1.085427 -4.204800 lineto
  1.085427 -4.204800 lineto
closepath gsave 0.500000 setgray  fill grestore
stroke
 grestore  gsave  137.849243 5.205600 translate 0.000000 rotate
 newpath 1.085427 0.000000 moveto  -1.085427 0.000000 lineto
  -1.085427 -5.205600 lineto
  1.085427 -5.205600 lineto
closepath gsave 0.500000 setgray  fill grestore
stroke
 grestore  gsave  107.457291 4.161600 translate 0.000000 rotate
 newpath 1.085427 0.000000 moveto  -1.085427 0.000000 lineto
  -1.085427 -4.161600 lineto
  1.085427 -4.161600 lineto
closepath gsave 0.500000 setgray  fill grestore
stroke
 grestore  gsave  142.190964 5.356800 translate 0.000000 rotate
 newpath 1.085427 0.000000 moveto  -1.085427 0.000000 lineto
  -1.085427 -5.356800 lineto
  1.085427 -5.356800 lineto
closepath gsave 0.500000 setgray  fill grestore
stroke
 grestore  gsave  111.798996 4.212000 translate 0.000000 rotate
 newpath 1.085427 0.000000 moveto  -1.085427 0.000000 lineto
  -1.085427 -4.212000 lineto
  1.085427 -4.212000 lineto
closepath gsave 0.500000 setgray  fill grestore
stroke
 grestore  gsave  146.532669 5.090400 translate 0.000000 rotate
 newpath 1.085427 0.000000 moveto  -1.085427 0.000000 lineto
  -1.085427 -5.090400 lineto
  1.085427 -5.090400 lineto
closepath gsave 0.500000 setgray  fill grestore
stroke
 grestore  gsave  116.140709 4.370400 translate 0.000000 rotate
 newpath 1.085427 0.000000 moveto  -1.085427 0.000000 lineto
  -1.085427 -4.370400 lineto
  1.085427 -4.370400 lineto
closepath gsave 0.500000 setgray  fill grestore
stroke
 grestore  gsave  150.874374 5.205600 translate 0.000000 rotate
 newpath 1.085427 0.000000 moveto  -1.085427 0.000000 lineto
  -1.085427 -5.205600 lineto
  1.085427 -5.205600 lineto
closepath gsave 0.500000 setgray  fill grestore
stroke
 grestore  gsave  120.482414 4.557600 translate 0.000000 rotate
 newpath 1.085427 0.000000 moveto  -1.085427 0.000000 lineto
  -1.085427 -4.557600 lineto
  1.085427 -4.557600 lineto
closepath gsave 0.500000 setgray  fill grestore
stroke
 grestore  gsave  124.824127 4.428000 translate 0.000000 rotate
 newpath 1.085427 0.000000 moveto  -1.085427 0.000000 lineto
  -1.085427 -4.428000 lineto
  1.085427 -4.428000 lineto
closepath gsave 0.500000 setgray  fill grestore
stroke
 grestore  gsave  155.216080 5.313600 translate 0.000000 rotate
 newpath 1.085427 0.000000 moveto  -1.085427 0.000000 lineto
  -1.085427 -5.313600 lineto
  1.085427 -5.313600 lineto
closepath gsave 0.500000 setgray  fill grestore
stroke
 grestore  gsave  129.165833 4.384800 translate 0.000000 rotate
 newpath 1.085427 0.000000 moveto  -1.085427 0.000000 lineto
  -1.085427 -4.384800 lineto
  1.085427 -4.384800 lineto
closepath gsave 0.500000 setgray  fill grestore
stroke
 grestore  gsave  159.557800 6.069600 translate 0.000000 rotate
 newpath 1.085427 0.000000 moveto  -1.085427 0.000000 lineto
  -1.085427 -6.069600 lineto
  1.085427 -6.069600 lineto
closepath gsave 0.500000 setgray  fill grestore
stroke
 grestore  gsave  133.507538 4.600800 translate 0.000000 rotate
 newpath 1.085427 0.000000 moveto  -1.085427 0.000000 lineto
  -1.085427 -4.600800 lineto
  1.085427 -4.600800 lineto
closepath gsave 0.500000 setgray  fill grestore
stroke
 grestore  gsave  163.899506 6.134400 translate 0.000000 rotate
 newpath 1.085427 0.000000 moveto  -1.085427 0.000000 lineto
  -1.085427 -6.134400 lineto
  1.085427 -6.134400 lineto
closepath gsave 0.500000 setgray  fill grestore
stroke
 grestore  gsave  137.849243 4.629600 translate 0.000000 rotate
 newpath 1.085427 0.000000 moveto  -1.085427 0.000000 lineto
  -1.085427 -4.629600 lineto
  1.085427 -4.629600 lineto
closepath gsave 0.500000 setgray  fill grestore
stroke
 grestore  gsave  168.241211 5.637600 translate 0.000000 rotate
 newpath 1.085427 0.000000 moveto  -1.085427 0.000000 lineto
  -1.085427 -5.637600 lineto
  1.085427 -5.637600 lineto
closepath gsave 0.500000 setgray  fill grestore
stroke
 grestore  gsave  142.190964 4.816800 translate 0.000000 rotate
 newpath 1.085427 0.000000 moveto  -1.085427 0.000000 lineto
  -1.085427 -4.816800 lineto
  1.085427 -4.816800 lineto
closepath gsave 0.500000 setgray  fill grestore
stroke
 grestore  gsave  172.582916 5.680799 translate 0.000000 rotate
 newpath 1.085427 0.000000 moveto  -1.085427 0.000000 lineto
  -1.085427 -5.680799 lineto
  1.085427 -5.680799 lineto
closepath gsave 0.500000 setgray  fill grestore
stroke
 grestore  gsave  146.532669 4.672800 translate 0.000000 rotate
 newpath 1.085427 0.000000 moveto  -1.085427 0.000000 lineto
  -1.085427 -4.672800 lineto
  1.085427 -4.672800 lineto
closepath gsave 0.500000 setgray  fill grestore
stroke
 grestore  gsave  150.874374 4.860000 translate 0.000000 rotate
 newpath 1.085427 0.000000 moveto  -1.085427 0.000000 lineto
  -1.085427 -4.860000 lineto
  1.085427 -4.860000 lineto
closepath gsave 0.500000 setgray  fill grestore
stroke
 grestore  gsave  176.924622 5.889600 translate 0.000000 rotate
 newpath 1.085427 0.000000 moveto  -1.085427 0.000000 lineto
  -1.085427 -5.889600 lineto
  1.085427 -5.889600 lineto
closepath gsave 0.500000 setgray  fill grestore
stroke
 grestore  gsave  155.216080 4.644000 translate 0.000000 rotate
 newpath 1.085427 0.000000 moveto  -1.085427 0.000000 lineto
  -1.085427 -4.644000 lineto
  1.085427 -4.644000 lineto
closepath gsave 0.500000 setgray  fill grestore
stroke
 grestore  gsave  181.266342 6.040800 translate 0.000000 rotate
 newpath 1.085427 0.000000 moveto  -1.085427 0.000000 lineto
  -1.085427 -6.040800 lineto
  1.085427 -6.040800 lineto
closepath gsave 0.500000 setgray  fill grestore
stroke
 grestore  gsave  159.557800 4.752000 translate 0.000000 rotate
 newpath 1.085427 0.000000 moveto  -1.085427 0.000000 lineto
  -1.085427 -4.752000 lineto
  1.085427 -4.752000 lineto
closepath gsave 0.500000 setgray  fill grestore
stroke
 grestore  gsave  185.608047 6.148799 translate 0.000000 rotate
 newpath 1.085427 0.000000 moveto  -1.085427 0.000000 lineto
  -1.085427 -6.148799 lineto
  1.085427 -6.148799 lineto
closepath gsave 0.500000 setgray  fill grestore
stroke
 grestore  gsave  163.899506 4.860000 translate 0.000000 rotate
 newpath 1.085427 0.000000 moveto  -1.085427 0.000000 lineto
  -1.085427 -4.860000 lineto
  1.085427 -4.860000 lineto
closepath gsave 0.500000 setgray  fill grestore
stroke
 grestore  gsave  189.949753 6.343200 translate 0.000000 rotate
 newpath 1.085427 0.000000 moveto  -1.085427 0.000000 lineto
  -1.085427 -6.343200 lineto
  1.085427 -6.343200 lineto
closepath gsave 0.500000 setgray  fill grestore
stroke
 grestore  gsave  168.241211 4.939200 translate 0.000000 rotate
 newpath 1.085427 0.000000 moveto  -1.085427 0.000000 lineto
  -1.085427 -4.939200 lineto
  1.085427 -4.939200 lineto
closepath gsave 0.500000 setgray  fill grestore
stroke
 grestore  gsave  172.582916 4.960800 translate 0.000000 rotate
 newpath 1.085427 0.000000 moveto  -1.085427 0.000000 lineto
  -1.085427 -4.960800 lineto
  1.085427 -4.960800 lineto
closepath gsave 0.500000 setgray  fill grestore
stroke
 grestore  gsave  194.291458 6.465600 translate 0.000000 rotate
 newpath 1.085427 0.000000 moveto  -1.085427 0.000000 lineto
  -1.085427 -6.465600 lineto
  1.085427 -6.465600 lineto
closepath gsave 0.500000 setgray  fill grestore
stroke
 grestore  gsave  176.924622 5.666400 translate 0.000000 rotate
 newpath 1.085427 0.000000 moveto  -1.085427 0.000000 lineto
  -1.085427 -5.666400 lineto
  1.085427 -5.666400 lineto
closepath gsave 0.500000 setgray  fill grestore
stroke
 grestore  gsave  198.633179 6.480000 translate 0.000000 rotate
 newpath 1.085427 0.000000 moveto  -1.085427 0.000000 lineto
  -1.085427 -6.480000 lineto
  1.085427 -6.480000 lineto
closepath gsave 0.500000 setgray  fill grestore
stroke
 grestore  gsave  181.266342 5.104800 translate 0.000000 rotate
 newpath 1.085427 0.000000 moveto  -1.085427 0.000000 lineto
  -1.085427 -5.104800 lineto
  1.085427 -5.104800 lineto
closepath gsave 0.500000 setgray  fill grestore
stroke
 grestore  gsave  202.974884 6.616800 translate 0.000000 rotate
 newpath 1.085427 0.000000 moveto  -1.085427 0.000000 lineto
  -1.085427 -6.616800 lineto
  1.085427 -6.616800 lineto
closepath gsave 0.500000 setgray  fill grestore
stroke
 grestore  gsave  185.608047 5.601600 translate 0.000000 rotate
 newpath 1.085427 0.000000 moveto  -1.085427 0.000000 lineto
  -1.085427 -5.601600 lineto
  1.085427 -5.601600 lineto
closepath gsave 0.500000 setgray  fill grestore
stroke
 grestore  gsave  207.316589 7.833600 translate 0.000000 rotate
 newpath 1.085427 0.000000 moveto  -1.085427 0.000000 lineto
  -1.085427 -7.833600 lineto
  1.085427 -7.833600 lineto
closepath gsave 0.500000 setgray  fill grestore
stroke
 grestore  gsave  189.949753 5.479200 translate 0.000000 rotate
 newpath 1.085427 0.000000 moveto  -1.085427 0.000000 lineto
  -1.085427 -5.479200 lineto
  1.085427 -5.479200 lineto
closepath gsave 0.500000 setgray  fill grestore
stroke
 grestore  gsave  194.291458 5.529600 translate 0.000000 rotate
 newpath 1.085427 0.000000 moveto  -1.085427 0.000000 lineto
  -1.085427 -5.529600 lineto
  1.085427 -5.529600 lineto
closepath gsave 0.500000 setgray  fill grestore
stroke
 grestore  gsave  211.658295 7.243200 translate 0.000000 rotate
 newpath 1.085427 0.000000 moveto  -1.085427 0.000000 lineto
  -1.085427 -7.243200 lineto
  1.085427 -7.243200 lineto
closepath gsave 0.500000 setgray  fill grestore
stroke
 grestore  gsave  198.633179 5.623200 translate 0.000000 rotate
 newpath 1.085427 0.000000 moveto  -1.085427 0.000000 lineto
  -1.085427 -5.623200 lineto
  1.085427 -5.623200 lineto
closepath gsave 0.500000 setgray  fill grestore
stroke
 grestore  gsave  216.000000 7.027200 translate 0.000000 rotate
 newpath 1.085427 0.000000 moveto  -1.085427 0.000000 lineto
  -1.085427 -7.027200 lineto
  1.085427 -7.027200 lineto
closepath gsave 0.500000 setgray  fill grestore
stroke
 grestore  gsave  202.974884 5.724000 translate 0.000000 rotate
 newpath 1.085427 0.000000 moveto  -1.085427 0.000000 lineto
  -1.085427 -5.724000 lineto
  1.085427 -5.724000 lineto
closepath gsave 0.500000 setgray  fill grestore
stroke
 grestore  gsave  207.316589 6.184800 translate 0.000000 rotate
 newpath 1.085427 0.000000 moveto  -1.085427 0.000000 lineto
  -1.085427 -6.184800 lineto
  1.085427 -6.184800 lineto
closepath gsave 0.500000 setgray  fill grestore
stroke
 grestore  gsave  211.658295 5.947200 translate 0.000000 rotate
 newpath 1.085427 0.000000 moveto  -1.085427 0.000000 lineto
  -1.085427 -5.947200 lineto
  1.085427 -5.947200 lineto
closepath gsave 0.500000 setgray  fill grestore
stroke
 grestore  gsave  216.000000 6.271200 translate 0.000000 rotate
 newpath 1.085427 0.000000 moveto  -1.085427 0.000000 lineto
  -1.085427 -6.271200 lineto
  1.085427 -6.271200 lineto
closepath gsave 0.500000 setgray  fill grestore
stroke
 grestore  grestore 
 grestore 
-0.000000 -0.000000 translate
 grestore showpage
%%PageTrailer

%%Trailer
%%Pages: 1
%%EOF
