1   .98409892752752703377
2   1.79864278497111991217
3   2.68789526728553551673
4   3.56549768258373870074
5   4.31123612968428331473
6   5.03189022970665838894
7   5.86476702156405847044
8   6.75634929008040241584
9   7.46597168348951983983
10   8.15831193076104034588
11   8.97741314679118193744
12   9.76137920392617348628
13   10.57878400398085437455
14   11.36398987000127063132
15   12.16496525652480822492
16   12.94569435605635208824
17   13.71892116336208150516
18   14.49145700285511546176
19   15.24947010386258271818
20   16.01796869451366565691
