%!PS-Adobe-3.0
%%Pages: (atend)
%%Creator: jgraph
%%EndComments

%%BeginProlog
%%EndProlog
%%BeginSetup
%%EndSetup

%%Page: 1 1
%%BeginPageSetup
%%EndPageSetup

198.000000 324.500000 translate
1 setlinecap 1 setlinejoin
0.700 setlinewidth
0.00 setgray

/Jrnd { exch cvi exch cvi dup 3 1 roll idiv mul } def
/JDEdict 8 dict def
JDEdict /mtrx matrix put
/JDE {
  JDEdict begin
  /yrad exch def
  /xrad exch def
  /savematrix mtrx currentmatrix def
  xrad yrad scale
  0 0 1 0 360 arc
  savematrix setmatrix
  end
} def
/JSTR {
  gsave 1 eq { gsave 1 setgray fill grestore } if
    exch neg exch neg translate 
    clip                        
    rotate                      
    4 dict begin
      pathbbox  /&top exch def
                /&right exch def
                /&bottom exch def
                &right sub /&width exch def
      newpath
      currentlinewidth mul round dup               
      &bottom exch Jrnd exch &top             
      4 -1 roll currentlinewidth mul setlinewidth  
      { &right exch moveto &width 0 rlineto stroke } for    
    end
  grestore
  newpath
} bind def
 gsave /Times-Roman findfont 9.000000 scalefont setfont
0.000000 0.000000 translate
0.700000 setlinewidth  gsave newpath 0.000000 0.000000 moveto 216.000000 0.000000 lineto stroke
newpath 0.000000 0.000000 moveto 0.000000 -2.000000 lineto stroke
newpath 11.368421 0.000000 moveto 11.368421 -2.000000 lineto stroke
newpath 22.736841 0.000000 moveto 22.736841 -2.000000 lineto stroke
newpath 34.105263 0.000000 moveto 34.105263 -2.000000 lineto stroke
newpath 45.473682 0.000000 moveto 45.473682 -5.000000 lineto stroke
newpath 56.842102 0.000000 moveto 56.842102 -2.000000 lineto stroke
newpath 68.210526 0.000000 moveto 68.210526 -2.000000 lineto stroke
newpath 79.578941 0.000000 moveto 79.578941 -2.000000 lineto stroke
newpath 90.947365 0.000000 moveto 90.947365 -2.000000 lineto stroke
newpath 102.315788 0.000000 moveto 102.315788 -5.000000 lineto stroke
newpath 113.684204 0.000000 moveto 113.684204 -2.000000 lineto stroke
newpath 125.052628 0.000000 moveto 125.052628 -2.000000 lineto stroke
newpath 136.421051 0.000000 moveto 136.421051 -2.000000 lineto stroke
newpath 147.789474 0.000000 moveto 147.789474 -2.000000 lineto stroke
newpath 159.157883 0.000000 moveto 159.157883 -5.000000 lineto stroke
newpath 170.526306 0.000000 moveto 170.526306 -2.000000 lineto stroke
newpath 181.894730 0.000000 moveto 181.894730 -2.000000 lineto stroke
newpath 193.263153 0.000000 moveto 193.263153 -2.000000 lineto stroke
newpath 204.631577 0.000000 moveto 204.631577 -2.000000 lineto stroke
newpath 215.999985 0.000000 moveto 215.999985 -5.000000 lineto stroke
gsave 45.473682 -8.000000 translate 0.000000 rotate
0 -5.400000 translate (5) dup stringwidth pop 2 div neg 0 moveto
show
grestore
gsave 102.315788 -8.000000 translate 0.000000 rotate
0 -5.400000 translate (10) dup stringwidth pop 2 div neg 0 moveto
show
grestore
gsave 159.157883 -8.000000 translate 0.000000 rotate
0 -5.400000 translate (15) dup stringwidth pop 2 div neg 0 moveto
show
grestore
gsave 215.999985 -8.000000 translate 0.000000 rotate
0 -5.400000 translate (20) dup stringwidth pop 2 div neg 0 moveto
show
grestore
/Times-Bold findfont 10.000000 scalefont setfont
gsave 108.000000 -21.400000 translate 0.000000 rotate
0 -6.000000 translate (OMP #threads) dup stringwidth pop 2 div neg 0 moveto
show
grestore
 grestore 
0.700000 setlinewidth  gsave newpath 0.000000 0.000000 moveto 0.000000 216.000000 lineto stroke
newpath 0.000000 0.000000 moveto -5.000000 0.000000 lineto stroke
newpath 0.000000 8.703229 moveto -2.000000 8.703229 lineto stroke
newpath 0.000000 17.406458 moveto -2.000000 17.406458 lineto stroke
newpath 0.000000 26.109688 moveto -2.000000 26.109688 lineto stroke
newpath 0.000000 34.812916 moveto -2.000000 34.812916 lineto stroke
newpath 0.000000 43.516148 moveto -5.000000 43.516148 lineto stroke
newpath 0.000000 52.219379 moveto -2.000000 52.219379 lineto stroke
newpath 0.000000 60.922607 moveto -2.000000 60.922607 lineto stroke
newpath 0.000000 69.625832 moveto -2.000000 69.625832 lineto stroke
newpath 0.000000 78.329063 moveto -2.000000 78.329063 lineto stroke
newpath 0.000000 87.032295 moveto -5.000000 87.032295 lineto stroke
newpath 0.000000 95.735519 moveto -2.000000 95.735519 lineto stroke
newpath 0.000000 104.438751 moveto -2.000000 104.438751 lineto stroke
newpath 0.000000 113.141975 moveto -2.000000 113.141975 lineto stroke
newpath 0.000000 121.845215 moveto -2.000000 121.845215 lineto stroke
newpath 0.000000 130.548447 moveto -5.000000 130.548447 lineto stroke
newpath 0.000000 139.251678 moveto -2.000000 139.251678 lineto stroke
newpath 0.000000 147.954910 moveto -2.000000 147.954910 lineto stroke
newpath 0.000000 156.658142 moveto -2.000000 156.658142 lineto stroke
newpath 0.000000 165.361389 moveto -2.000000 165.361389 lineto stroke
newpath 0.000000 174.064590 moveto -5.000000 174.064590 lineto stroke
newpath 0.000000 182.767822 moveto -2.000000 182.767822 lineto stroke
newpath 0.000000 191.471054 moveto -2.000000 191.471054 lineto stroke
newpath 0.000000 200.174286 moveto -2.000000 200.174286 lineto stroke
newpath 0.000000 208.877533 moveto -2.000000 208.877533 lineto stroke
/Times-Roman findfont 9.000000 scalefont setfont
gsave -8.000000 0.000000 translate 0.000000 rotate
0 -2.700000 translate (0.0) dup stringwidth pop neg 0 moveto
show
grestore
gsave -8.000000 43.516148 translate 0.000000 rotate
0 -2.700000 translate (0.2) dup stringwidth pop neg 0 moveto
show
grestore
gsave -8.000000 87.032295 translate 0.000000 rotate
0 -2.700000 translate (0.4) dup stringwidth pop neg 0 moveto
show
grestore
gsave -8.000000 130.548447 translate 0.000000 rotate
0 -2.700000 translate (0.6) dup stringwidth pop neg 0 moveto
show
grestore
gsave -8.000000 174.064590 translate 0.000000 rotate
0 -2.700000 translate (0.8) dup stringwidth pop neg 0 moveto
show
grestore
/Times-Bold findfont 10.000000 scalefont setfont
gsave -28.959999 108.000000 translate 90.000000 rotate
0 0.000000 translate (Parallel Efficiency) dup stringwidth pop 2 div neg 0 moveto
show
grestore
 grestore 
/Times-Roman findfont 12.000000 scalefont setfont
gsave 108.000000 -37.400002 translate 0.000000 rotate
0 -7.200000 translate (par2107) dup stringwidth pop 2 div neg 0 moveto
show 0 -14.400000 translate
(Parallel Efficiency w.r.t. one thread \(weak scaling\)) dup stringwidth pop 2 div neg 0 moveto
show 0 -14.400000 translate
(Wed Sep  7 12:26:34 PM CEST 2022) dup stringwidth pop 2 div neg 0 moveto
show
grestore
 gsave 
 gsave 0.700000 setlinewidth  [] 0 setdash
0.000000 216.000000 moveto   11.368421 211.392700 lineto
  22.736841 207.681778 lineto
  34.105263 208.565735 lineto
  45.473682 201.628723 lineto
  56.842102 199.102707 lineto
  68.210526 199.182632 lineto
  79.578941 196.678177 lineto
  90.947365 193.603500 lineto
  102.315788 193.395966 lineto
  113.684204 192.904861 lineto
  125.052628 193.891953 lineto
  136.421051 191.665939 lineto
  147.789474 192.150757 lineto
  159.157883 191.135239 lineto
  170.526306 189.120285 lineto
  181.894730 180.035934 lineto
  193.263153 180.609390 lineto
  204.631577 179.563538 lineto
  215.999985 178.718628 lineto
stroke
0.700000 setlinewidth  [] 0 setdash
 grestore 
 grestore 
-0.000000 -0.000000 translate
 grestore showpage
%%PageTrailer

%%Trailer
%%Pages: 1
%%EOF
