%!PS-Adobe-3.0
%%Pages: (atend)
%%Creator: jgraph
%%EndComments

%%BeginProlog
%%EndProlog
%%BeginSetup
%%EndSetup

%%Page: 1 1
%%BeginPageSetup
%%EndPageSetup

198.500000 328.000000 translate
1 setlinecap 1 setlinejoin
0.700 setlinewidth
0.00 setgray

/Jrnd { exch cvi exch cvi dup 3 1 roll idiv mul } def
/JDEdict 8 dict def
JDEdict /mtrx matrix put
/JDE {
  JDEdict begin
  /yrad exch def
  /xrad exch def
  /savematrix mtrx currentmatrix def
  xrad yrad scale
  0 0 1 0 360 arc
  savematrix setmatrix
  end
} def
/JSTR {
  gsave 1 eq { gsave 1 setgray fill grestore } if
    exch neg exch neg translate 
    clip                        
    rotate                      
    4 dict begin
      pathbbox  /&top exch def
                /&right exch def
                /&bottom exch def
                &right sub /&width exch def
      newpath
      currentlinewidth mul round dup               
      &bottom exch Jrnd exch &top             
      4 -1 roll currentlinewidth mul setlinewidth  
      { &right exch moveto &width 0 rlineto stroke } for    
    end
  grestore
  newpath
} bind def
 gsave /Times-Roman findfont 9.000000 scalefont setfont
0.000000 0.000000 translate
0.700000 setlinewidth  gsave newpath 0.000000 0.000000 moveto 216.000000 0.000000 lineto stroke
newpath 18.514286 0.000000 moveto 18.514286 -2.000000 lineto stroke
newpath 43.200001 0.000000 moveto 43.200001 -5.000000 lineto stroke
newpath 67.885712 0.000000 moveto 67.885712 -2.000000 lineto stroke
newpath 92.571426 0.000000 moveto 92.571426 -5.000000 lineto stroke
newpath 117.257141 0.000000 moveto 117.257141 -2.000000 lineto stroke
newpath 141.942856 0.000000 moveto 141.942856 -5.000000 lineto stroke
newpath 166.628571 0.000000 moveto 166.628571 -2.000000 lineto stroke
newpath 191.314285 0.000000 moveto 191.314285 -5.000000 lineto stroke
newpath 216.000000 0.000000 moveto 216.000000 -2.000000 lineto stroke
gsave 18.514286 -8.000000 translate 90.000000 rotate
0 -2.700000 translate ( 6) dup stringwidth pop neg 0 moveto
show
grestore
gsave 43.200001 -8.000000 translate 90.000000 rotate
0 -2.700000 translate ( 7) dup stringwidth pop neg 0 moveto
show
grestore
gsave 67.885712 -8.000000 translate 90.000000 rotate
0 -2.700000 translate ( 8) dup stringwidth pop neg 0 moveto
show
grestore
gsave 92.571426 -8.000000 translate 90.000000 rotate
0 -2.700000 translate ( 9) dup stringwidth pop neg 0 moveto
show
grestore
gsave 117.257141 -8.000000 translate 90.000000 rotate
0 -2.700000 translate ( 10) dup stringwidth pop neg 0 moveto
show
grestore
gsave 141.942856 -8.000000 translate 90.000000 rotate
0 -2.700000 translate ( 11) dup stringwidth pop neg 0 moveto
show
grestore
gsave 166.628571 -8.000000 translate 90.000000 rotate
0 -2.700000 translate ( 12) dup stringwidth pop neg 0 moveto
show
grestore
gsave 191.314285 -8.000000 translate 90.000000 rotate
0 -2.700000 translate ( 13) dup stringwidth pop neg 0 moveto
show
grestore
gsave 216.000000 -8.000000 translate 90.000000 rotate
0 -2.700000 translate ( 14) dup stringwidth pop neg 0 moveto
show
grestore
/Times-Bold findfont 10.000000 scalefont setfont
gsave 108.000000 -28.959999 translate 0.000000 rotate
0 -6.000000 translate (Value for user parameter) dup stringwidth pop 2 div neg 0 moveto
show
grestore
 grestore 
0.700000 setlinewidth  gsave newpath 0.000000 0.000000 moveto 0.000000 216.000000 lineto stroke
newpath 0.000000 0.000000 moveto -5.000000 0.000000 lineto stroke
newpath 0.000000 36.486488 moveto -2.000000 36.486488 lineto stroke
newpath 0.000000 72.972977 moveto -5.000000 72.972977 lineto stroke
newpath 0.000000 109.459465 moveto -2.000000 109.459465 lineto stroke
newpath 0.000000 145.945953 moveto -5.000000 145.945953 lineto stroke
newpath 0.000000 182.432434 moveto -2.000000 182.432434 lineto stroke
/Times-Roman findfont 9.000000 scalefont setfont
gsave -8.000000 0.000000 translate 0.000000 rotate
0 -2.700000 translate (0.0) dup stringwidth pop neg 0 moveto
show
grestore
gsave -8.000000 72.972977 translate 0.000000 rotate
0 -2.700000 translate (0.2) dup stringwidth pop neg 0 moveto
show
grestore
gsave -8.000000 145.945953 translate 0.000000 rotate
0 -2.700000 translate (0.4) dup stringwidth pop neg 0 moveto
show
grestore
/Times-Bold findfont 10.000000 scalefont setfont
gsave -28.959999 108.000000 translate 90.000000 rotate
0 0.000000 translate (Execution time) dup stringwidth pop 2 div neg 0 moveto
show
grestore
 grestore 
/Times-Roman findfont 12.000000 scalefont setfont
gsave 108.000000 -44.959999 translate 0.000000 rotate
0 -7.200000 translate (par2107) dup stringwidth pop 2 div neg 0 moveto
show 0 -14.400000 translate
(Average elapsed execution time \(heat difussion\)) dup stringwidth pop 2 div neg 0 moveto
show 0 -14.400000 translate
(Sun Dec 25 11:38:12 PM CET 2022) dup stringwidth pop 2 div neg 0 moveto
show
grestore
 gsave 
 gsave  gsave  141.942856 216.000000 translate 0.000000 rotate
 newpath 6.171429 0.000000 moveto  -6.171429 0.000000 lineto
  -6.171429 -216.000000 lineto
  6.171429 -216.000000 lineto
closepath gsave 0.500000 setgray  fill grestore
stroke
 grestore  gsave  18.514286 182.067581 translate 0.000000 rotate
 newpath 6.171429 0.000000 moveto  -6.171429 0.000000 lineto
  -6.171429 -182.067581 lineto
  6.171429 -182.067581 lineto
closepath gsave 0.500000 setgray  fill grestore
stroke
 grestore  gsave  166.628571 211.986481 translate 0.000000 rotate
 newpath 6.171429 0.000000 moveto  -6.171429 0.000000 lineto
  -6.171429 -211.986481 lineto
  6.171429 -211.986481 lineto
closepath gsave 0.500000 setgray  fill grestore
stroke
 grestore  gsave  43.200001 180.243240 translate 0.000000 rotate
 newpath 6.171429 0.000000 moveto  -6.171429 0.000000 lineto
  -6.171429 -180.243240 lineto
  6.171429 -180.243240 lineto
closepath gsave 0.500000 setgray  fill grestore
stroke
 grestore  gsave  191.314285 207.608109 translate 0.000000 rotate
 newpath 6.171429 0.000000 moveto  -6.171429 0.000000 lineto
  -6.171429 -207.608109 lineto
  6.171429 -207.608109 lineto
closepath gsave 0.500000 setgray  fill grestore
stroke
 grestore  gsave  67.885712 182.797287 translate 0.000000 rotate
 newpath 6.171429 0.000000 moveto  -6.171429 0.000000 lineto
  -6.171429 -182.797287 lineto
  6.171429 -182.797287 lineto
closepath gsave 0.500000 setgray  fill grestore
stroke
 grestore  gsave  216.000000 205.054047 translate 0.000000 rotate
 newpath 6.171429 0.000000 moveto  -6.171429 0.000000 lineto
  -6.171429 -205.054047 lineto
  6.171429 -205.054047 lineto
closepath gsave 0.500000 setgray  fill grestore
stroke
 grestore  gsave  92.571426 184.621613 translate 0.000000 rotate
 newpath 6.171429 0.000000 moveto  -6.171429 0.000000 lineto
  -6.171429 -184.621613 lineto
  6.171429 -184.621613 lineto
closepath gsave 0.500000 setgray  fill grestore
stroke
 grestore  grestore 
 grestore 
-0.000000 -0.000000 translate
 grestore showpage
%%PageTrailer

%%Trailer
%%Pages: 1
%%EOF
