1   1.00856164383561643835
2   1.57908847184986595174
3   1.93750000000000000000
4   2.49576271186440677966
5   2.66515837104072398190
6   2.76525821596244131455
7   2.85922330097087378640
8   2.83173076923076923076
9   2.68949771689497716894
10   2.37500000000000000000
11   2.17343173431734317343
12   2.11111111111111111111
13   2.18959107806691449814
14   1.98316498316498316498
15   1.95681063122923588039
16   1.91233766233766233766
17   1.93114754098360655737
18   1.86984126984126984126
19   1.88782051282051282051
20   1.85804416403785488958
