icc  -g -std=c99 -Wall -O2 -fp-model precise -fopenmp multisort-omp.c kernels.o -lm -o multisort-omp
::::::::::::::
multisort-omp_2_boada-11.times.txt
::::::::::::::
*****************************************************************************************
Problem size (in number of elements): N=32768, MIN_SORT_SIZE=1024, MIN_MERGE_SIZE=1024
Cut-off level:                        CUTOFF=50
Number of threads in OpenMP:          OMP_NUM_THREADS=2
*****************************************************************************************
Initialization time in seconds: 0.680166
Multisort execution time: 5.233895
Check sorted data execution time: 0.011312
Multisort program finished
*****************************************************************************************
