\relax 
\@writefile{lot}{\contentsline {table}{\numberline {1}{\ignorespaces  Analysis done on Sun Dec 25 05:42:26 PM CET 2022, par2107}}{1}{}\protected@file@percent }
\@writefile{lot}{\contentsline {table}{\numberline {2}{\ignorespaces  Analysis done on Sun Dec 25 05:42:26 PM CET 2022, par2107}}{2}{}\protected@file@percent }
\@writefile{lot}{\contentsline {table}{\numberline {3}{\ignorespaces  Analysis done on Sun Dec 25 05:42:26 PM CET 2022, par2107}}{2}{}\protected@file@percent }
\gdef \@abspage@last{2}
