digraph G {
ranksep=2.5; nodesep=2.5 penwidth=7
subgraph cluster0 {
label="MAIN_TAREADOR\nID=0\ninst=1263265436"
color="#0000FF"; style=filled; fillcolor="#0000FF40"
	 task_0__0 [fontsize=5, height=1,width=1, fixedsize=true,shape=triangle,color="#0000FF",label="MAIN_TAREADOR\nID=0__0\ninst=4300\nnesting=0\nchildren_pot_tasks=80",style=filled]
	 task_0__1 [fontsize=5, height=1,width=1, fixedsize=true,shape=triangle,color="#0000FF",label="MAIN_TAREADOR\nID=0__1\ninst=0\nnesting=0\nchildren_pot_tasks=80",style=filled]
	 task_1 [fontsize=31.2739639632643, height=6.25479279265286,width=6.25479279265286, fixedsize=true,shape=ellipse,color="#00FF00",label="basicsort\nID=1\ninst=79220671\nnesting=1\nchildren_pot_tasks=0",style=filled]
	 task_2 [fontsize=31.21281672674009, height=6.242563345348018,width=6.242563345348018, fixedsize=true,shape=ellipse,color="#00FF00",label="basicsort\nID=2\ninst=78257746\nnesting=1\nchildren_pot_tasks=0",style=filled]
	 task_3 [fontsize=31.226249412049878, height=6.245249882409976,width=6.245249882409976, fixedsize=true,shape=ellipse,color="#00FF00",label="basicsort\nID=3\ninst=78468271\nnesting=1\nchildren_pot_tasks=0",style=filled]
	 task_4 [fontsize=31.27563622685498, height=6.255127245370996,width=6.255127245370996, fixedsize=true,shape=ellipse,color="#00FF00",label="basicsort\nID=4\ninst=79247171\nnesting=1\nchildren_pot_tasks=0",style=filled]
	 task_5 [fontsize=5, height=1,width=1, fixedsize=true,shape=trapezium,color="#FF0000",label="basicmerge\nID=5\ninst=81981\nnesting=1\nchildren_pot_tasks=0",style=filled]
	 task_6 [fontsize=5, height=1,width=1, fixedsize=true,shape=trapezium,color="#FF0000",label="basicmerge\nID=6\ninst=83142\nnesting=1\nchildren_pot_tasks=0",style=filled]
	 task_7 [fontsize=5, height=1,width=1, fixedsize=true,shape=trapezium,color="#FF0000",label="basicmerge\nID=7\ninst=81981\nnesting=1\nchildren_pot_tasks=0",style=filled]
	 task_8 [fontsize=5, height=1,width=1, fixedsize=true,shape=trapezium,color="#FF0000",label="basicmerge\nID=8\ninst=83290\nnesting=1\nchildren_pot_tasks=0",style=filled]
	 task_9 [fontsize=5, height=1,width=1, fixedsize=true,shape=trapezium,color="#FF0000",label="basicmerge\nID=9\ninst=81981\nnesting=1\nchildren_pot_tasks=0",style=filled]
	 task_10 [fontsize=5, height=1,width=1, fixedsize=true,shape=trapezium,color="#FF0000",label="basicmerge\nID=10\ninst=83312\nnesting=1\nchildren_pot_tasks=0",style=filled]
	 task_11 [fontsize=5, height=1,width=1, fixedsize=true,shape=trapezium,color="#FF0000",label="basicmerge\nID=11\ninst=83446\nnesting=1\nchildren_pot_tasks=0",style=filled]
	 task_12 [fontsize=5, height=1,width=1, fixedsize=true,shape=trapezium,color="#FF0000",label="basicmerge\nID=12\ninst=83163\nnesting=1\nchildren_pot_tasks=0",style=filled]
	 task_13 [fontsize=31.24491793688054, height=6.248983587376108,width=6.248983587376108, fixedsize=true,shape=ellipse,color="#00FF00",label="basicsort\nID=13\ninst=78761796\nnesting=1\nchildren_pot_tasks=0",style=filled]
	 task_14 [fontsize=31.254321963517032, height=6.250864392703407,width=6.250864392703407, fixedsize=true,shape=ellipse,color="#00FF00",label="basicsort\nID=14\ninst=78910071\nnesting=1\nchildren_pot_tasks=0",style=filled]
	 task_15 [fontsize=31.19368942602948, height=6.238737885205896,width=6.238737885205896, fixedsize=true,shape=ellipse,color="#00FF00",label="basicsort\nID=15\ninst=77958946\nnesting=1\nchildren_pot_tasks=0",style=filled]
	 task_16 [fontsize=31.212241670721976, height=6.242448334144395,width=6.242448334144395, fixedsize=true,shape=ellipse,color="#00FF00",label="basicsort\nID=16\ninst=78248746\nnesting=1\nchildren_pot_tasks=0",style=filled]
	 task_17 [fontsize=5, height=1,width=1, fixedsize=true,shape=trapezium,color="#FF0000",label="basicmerge\nID=17\ninst=81981\nnesting=1\nchildren_pot_tasks=0",style=filled]
	 task_18 [fontsize=5, height=1,width=1, fixedsize=true,shape=trapezium,color="#FF0000",label="basicmerge\nID=18\ninst=83170\nnesting=1\nchildren_pot_tasks=0",style=filled]
	 task_19 [fontsize=5, height=1,width=1, fixedsize=true,shape=trapezium,color="#FF0000",label="basicmerge\nID=19\ninst=81981\nnesting=1\nchildren_pot_tasks=0",style=filled]
	 task_20 [fontsize=5, height=1,width=1, fixedsize=true,shape=trapezium,color="#FF0000",label="basicmerge\nID=20\ninst=82776\nnesting=1\nchildren_pot_tasks=0",style=filled]
	 task_21 [fontsize=5, height=1,width=1, fixedsize=true,shape=trapezium,color="#FF0000",label="basicmerge\nID=21\ninst=81981\nnesting=1\nchildren_pot_tasks=0",style=filled]
	 task_22 [fontsize=5, height=1,width=1, fixedsize=true,shape=trapezium,color="#FF0000",label="basicmerge\nID=22\ninst=83322\nnesting=1\nchildren_pot_tasks=0",style=filled]
	 task_23 [fontsize=5, height=1,width=1, fixedsize=true,shape=trapezium,color="#FF0000",label="basicmerge\nID=23\ninst=83436\nnesting=1\nchildren_pot_tasks=0",style=filled]
	 task_24 [fontsize=5, height=1,width=1, fixedsize=true,shape=trapezium,color="#FF0000",label="basicmerge\nID=24\ninst=83306\nnesting=1\nchildren_pot_tasks=0",style=filled]
	 task_25 [fontsize=31.231239385007537, height=6.246247877001507,width=6.246247877001507, fixedsize=true,shape=ellipse,color="#00FF00",label="basicsort\nID=25\ninst=78546621\nnesting=1\nchildren_pot_tasks=0",style=filled]
	 task_26 [fontsize=31.206569034128858, height=6.241313806825771,width=6.241313806825771, fixedsize=true,shape=ellipse,color="#00FF00",label="basicsort\nID=26\ninst=78160021\nnesting=1\nchildren_pot_tasks=0",style=filled]
	 task_27 [fontsize=31.26258404007725, height=6.25251680801545,width=6.25251680801545, fixedsize=true,shape=ellipse,color="#00FF00",label="basicsort\nID=27\ninst=79040571\nnesting=1\nchildren_pot_tasks=0",style=filled]
	 task_28 [fontsize=31.29621286149606, height=6.259242572299212,width=6.259242572299212, fixedsize=true,shape=ellipse,color="#00FF00",label="basicsort\nID=28\ninst=79573971\nnesting=1\nchildren_pot_tasks=0",style=filled]
	 task_29 [fontsize=5, height=1,width=1, fixedsize=true,shape=trapezium,color="#FF0000",label="basicmerge\nID=29\ninst=81981\nnesting=1\nchildren_pot_tasks=0",style=filled]
	 task_30 [fontsize=5, height=1,width=1, fixedsize=true,shape=trapezium,color="#FF0000",label="basicmerge\nID=30\ninst=83051\nnesting=1\nchildren_pot_tasks=0",style=filled]
	 task_31 [fontsize=5, height=1,width=1, fixedsize=true,shape=trapezium,color="#FF0000",label="basicmerge\nID=31\ninst=81981\nnesting=1\nchildren_pot_tasks=0",style=filled]
	 task_32 [fontsize=5, height=1,width=1, fixedsize=true,shape=trapezium,color="#FF0000",label="basicmerge\nID=32\ninst=83018\nnesting=1\nchildren_pot_tasks=0",style=filled]
	 task_33 [fontsize=5, height=1,width=1, fixedsize=true,shape=trapezium,color="#FF0000",label="basicmerge\nID=33\ninst=81981\nnesting=1\nchildren_pot_tasks=0",style=filled]
	 task_34 [fontsize=5, height=1,width=1, fixedsize=true,shape=trapezium,color="#FF0000",label="basicmerge\nID=34\ninst=83312\nnesting=1\nchildren_pot_tasks=0",style=filled]
	 task_35 [fontsize=5, height=1,width=1, fixedsize=true,shape=trapezium,color="#FF0000",label="basicmerge\nID=35\ninst=83436\nnesting=1\nchildren_pot_tasks=0",style=filled]
	 task_36 [fontsize=5, height=1,width=1, fixedsize=true,shape=trapezium,color="#FF0000",label="basicmerge\nID=36\ninst=83290\nnesting=1\nchildren_pot_tasks=0",style=filled]
	 task_37 [fontsize=31.212417389300114, height=6.242483477860023,width=6.242483477860023, fixedsize=true,shape=ellipse,color="#00FF00",label="basicsort\nID=37\ninst=78251496\nnesting=1\nchildren_pot_tasks=0",style=filled]
	 task_38 [fontsize=31.25319555455289, height=6.250639110910578,width=6.250639110910578, fixedsize=true,shape=ellipse,color="#00FF00",label="basicsort\nID=38\ninst=78892296\nnesting=1\nchildren_pot_tasks=0",style=filled]
	 task_39 [fontsize=31.217258402885232, height=6.243451680577047,width=6.243451680577047, fixedsize=true,shape=ellipse,color="#00FF00",label="basicsort\nID=39\ninst=78327296\nnesting=1\nchildren_pot_tasks=0",style=filled]
	 task_40 [fontsize=31.201749671578412, height=6.240349934315683,width=6.240349934315683, fixedsize=true,shape=ellipse,color="#00FF00",label="basicsort\nID=40\ninst=78084721\nnesting=1\nchildren_pot_tasks=0",style=filled]
	 task_41 [fontsize=5, height=1,width=1, fixedsize=true,shape=trapezium,color="#FF0000",label="basicmerge\nID=41\ninst=81981\nnesting=1\nchildren_pot_tasks=0",style=filled]
	 task_42 [fontsize=5, height=1,width=1, fixedsize=true,shape=trapezium,color="#FF0000",label="basicmerge\nID=42\ninst=83280\nnesting=1\nchildren_pot_tasks=0",style=filled]
	 task_43 [fontsize=5, height=1,width=1, fixedsize=true,shape=trapezium,color="#FF0000",label="basicmerge\nID=43\ninst=81981\nnesting=1\nchildren_pot_tasks=0",style=filled]
	 task_44 [fontsize=5, height=1,width=1, fixedsize=true,shape=trapezium,color="#FF0000",label="basicmerge\nID=44\ninst=83175\nnesting=1\nchildren_pot_tasks=0",style=filled]
	 task_45 [fontsize=5, height=1,width=1, fixedsize=true,shape=trapezium,color="#FF0000",label="basicmerge\nID=45\ninst=81981\nnesting=1\nchildren_pot_tasks=0",style=filled]
	 task_46 [fontsize=5, height=1,width=1, fixedsize=true,shape=trapezium,color="#FF0000",label="basicmerge\nID=46\ninst=83186\nnesting=1\nchildren_pot_tasks=0",style=filled]
	 task_47 [fontsize=5, height=1,width=1, fixedsize=true,shape=trapezium,color="#FF0000",label="basicmerge\nID=47\ninst=83310\nnesting=1\nchildren_pot_tasks=0",style=filled]
	 task_48 [fontsize=5, height=1,width=1, fixedsize=true,shape=trapezium,color="#FF0000",label="basicmerge\nID=48\ninst=83301\nnesting=1\nchildren_pot_tasks=0",style=filled]
	 task_49 [fontsize=5, height=1,width=1, fixedsize=true,shape=trapezium,color="#FF0000",label="basicmerge\nID=49\ninst=81981\nnesting=1\nchildren_pot_tasks=0",style=filled]
	 task_50 [fontsize=5, height=1,width=1, fixedsize=true,shape=trapezium,color="#FF0000",label="basicmerge\nID=50\ninst=82938\nnesting=1\nchildren_pot_tasks=0",style=filled]
	 task_51 [fontsize=5, height=1,width=1, fixedsize=true,shape=trapezium,color="#FF0000",label="basicmerge\nID=51\ninst=83446\nnesting=1\nchildren_pot_tasks=0",style=filled]
	 task_52 [fontsize=5, height=1,width=1, fixedsize=true,shape=trapezium,color="#FF0000",label="basicmerge\nID=52\ninst=83186\nnesting=1\nchildren_pot_tasks=0",style=filled]
	 task_53 [fontsize=5, height=1,width=1, fixedsize=true,shape=trapezium,color="#FF0000",label="basicmerge\nID=53\ninst=83310\nnesting=1\nchildren_pot_tasks=0",style=filled]
	 task_54 [fontsize=5, height=1,width=1, fixedsize=true,shape=trapezium,color="#FF0000",label="basicmerge\nID=54\ninst=83320\nnesting=1\nchildren_pot_tasks=0",style=filled]
	 task_55 [fontsize=5, height=1,width=1, fixedsize=true,shape=trapezium,color="#FF0000",label="basicmerge\nID=55\ninst=83436\nnesting=1\nchildren_pot_tasks=0",style=filled]
	 task_56 [fontsize=5, height=1,width=1, fixedsize=true,shape=trapezium,color="#FF0000",label="basicmerge\nID=56\ninst=83175\nnesting=1\nchildren_pot_tasks=0",style=filled]
	 task_57 [fontsize=5, height=1,width=1, fixedsize=true,shape=trapezium,color="#FF0000",label="basicmerge\nID=57\ninst=81981\nnesting=1\nchildren_pot_tasks=0",style=filled]
	 task_58 [fontsize=5, height=1,width=1, fixedsize=true,shape=trapezium,color="#FF0000",label="basicmerge\nID=58\ninst=82948\nnesting=1\nchildren_pot_tasks=0",style=filled]
	 task_59 [fontsize=5, height=1,width=1, fixedsize=true,shape=trapezium,color="#FF0000",label="basicmerge\nID=59\ninst=83436\nnesting=1\nchildren_pot_tasks=0",style=filled]
	 task_60 [fontsize=5, height=1,width=1, fixedsize=true,shape=trapezium,color="#FF0000",label="basicmerge\nID=60\ninst=83072\nnesting=1\nchildren_pot_tasks=0",style=filled]
	 task_61 [fontsize=5, height=1,width=1, fixedsize=true,shape=trapezium,color="#FF0000",label="basicmerge\nID=61\ninst=83560\nnesting=1\nchildren_pot_tasks=0",style=filled]
	 task_62 [fontsize=5, height=1,width=1, fixedsize=true,shape=trapezium,color="#FF0000",label="basicmerge\nID=62\ninst=83320\nnesting=1\nchildren_pot_tasks=0",style=filled]
	 task_63 [fontsize=5, height=1,width=1, fixedsize=true,shape=trapezium,color="#FF0000",label="basicmerge\nID=63\ninst=83446\nnesting=1\nchildren_pot_tasks=0",style=filled]
	 task_64 [fontsize=5, height=1,width=1, fixedsize=true,shape=trapezium,color="#FF0000",label="basicmerge\nID=64\ninst=83264\nnesting=1\nchildren_pot_tasks=0",style=filled]
	 task_65 [fontsize=5, height=1,width=1, fixedsize=true,shape=trapezium,color="#FF0000",label="basicmerge\nID=65\ninst=81981\nnesting=1\nchildren_pot_tasks=0",style=filled]
	 task_66 [fontsize=5, height=1,width=1, fixedsize=true,shape=trapezium,color="#FF0000",label="basicmerge\nID=66\ninst=83186\nnesting=1\nchildren_pot_tasks=0",style=filled]
	 task_67 [fontsize=5, height=1,width=1, fixedsize=true,shape=trapezium,color="#FF0000",label="basicmerge\nID=67\ninst=83446\nnesting=1\nchildren_pot_tasks=0",style=filled]
	 task_68 [fontsize=5, height=1,width=1, fixedsize=true,shape=trapezium,color="#FF0000",label="basicmerge\nID=68\ninst=83436\nnesting=1\nchildren_pot_tasks=0",style=filled]
	 task_69 [fontsize=5, height=1,width=1, fixedsize=true,shape=trapezium,color="#FF0000",label="basicmerge\nID=69\ninst=83320\nnesting=1\nchildren_pot_tasks=0",style=filled]
	 task_70 [fontsize=5, height=1,width=1, fixedsize=true,shape=trapezium,color="#FF0000",label="basicmerge\nID=70\ninst=83444\nnesting=1\nchildren_pot_tasks=0",style=filled]
	 task_71 [fontsize=5, height=1,width=1, fixedsize=true,shape=trapezium,color="#FF0000",label="basicmerge\nID=71\ninst=83560\nnesting=1\nchildren_pot_tasks=0",style=filled]
	 task_72 [fontsize=5, height=1,width=1, fixedsize=true,shape=trapezium,color="#FF0000",label="basicmerge\nID=72\ninst=83560\nnesting=1\nchildren_pot_tasks=0",style=filled]
	 task_73 [fontsize=5, height=1,width=1, fixedsize=true,shape=trapezium,color="#FF0000",label="basicmerge\nID=73\ninst=83310\nnesting=1\nchildren_pot_tasks=0",style=filled]
	 task_74 [fontsize=5, height=1,width=1, fixedsize=true,shape=trapezium,color="#FF0000",label="basicmerge\nID=74\ninst=83444\nnesting=1\nchildren_pot_tasks=0",style=filled]
	 task_75 [fontsize=5, height=1,width=1, fixedsize=true,shape=trapezium,color="#FF0000",label="basicmerge\nID=75\ninst=83434\nnesting=1\nchildren_pot_tasks=0",style=filled]
	 task_76 [fontsize=5, height=1,width=1, fixedsize=true,shape=trapezium,color="#FF0000",label="basicmerge\nID=76\ninst=83434\nnesting=1\nchildren_pot_tasks=0",style=filled]
	 task_77 [fontsize=5, height=1,width=1, fixedsize=true,shape=trapezium,color="#FF0000",label="basicmerge\nID=77\ninst=83434\nnesting=1\nchildren_pot_tasks=0",style=filled]
	 task_78 [fontsize=5, height=1,width=1, fixedsize=true,shape=trapezium,color="#FF0000",label="basicmerge\nID=78\ninst=83310\nnesting=1\nchildren_pot_tasks=0",style=filled]
	 task_79 [fontsize=5, height=1,width=1, fixedsize=true,shape=trapezium,color="#FF0000",label="basicmerge\nID=79\ninst=83186\nnesting=1\nchildren_pot_tasks=0",style=filled]
	 task_80 [fontsize=5, height=1,width=1, fixedsize=true,shape=trapezium,color="#FF0000",label="basicmerge\nID=80\ninst=82927\nnesting=1\nchildren_pot_tasks=0",style=filled]
}
	 task_0__0  ->  task_1 [arrowsize=2.6457513110645907, penwidth=7,style=dotted color=yellow]
	 task_0__0  ->  task_2 [arrowsize=2.6457513110645907, penwidth=7,style=dotted color=yellow]
	 task_0__0  ->  task_3 [arrowsize=2.6457513110645907, penwidth=7,style=dotted color=yellow]
	 task_0__0  ->  task_4 [arrowsize=2.6457513110645907, penwidth=7,style=dotted color=yellow]
	 task_0__0  ->  task_13 [arrowsize=2.6457513110645907, penwidth=7,style=dotted color=yellow]
	 task_0__0  ->  task_14 [arrowsize=2.6457513110645907, penwidth=7,style=dotted color=yellow]
	 task_0__0  ->  task_15 [arrowsize=2.6457513110645907, penwidth=7,style=dotted color=yellow]
	 task_0__0  ->  task_16 [arrowsize=2.6457513110645907, penwidth=7,style=dotted color=yellow]
	 task_0__0  ->  task_25 [arrowsize=2.6457513110645907, penwidth=7,style=dotted color=yellow]
	 task_0__0  ->  task_26 [arrowsize=2.6457513110645907, penwidth=7,style=dotted color=yellow]
	 task_0__0  ->  task_27 [arrowsize=2.6457513110645907, penwidth=7,style=dotted color=yellow]
	 task_0__0  ->  task_28 [arrowsize=2.6457513110645907, penwidth=7,style=dotted color=yellow]
	 task_0__0  ->  task_37 [arrowsize=2.6457513110645907, penwidth=7,style=dotted color=yellow]
	 task_0__0  ->  task_38 [arrowsize=2.6457513110645907, penwidth=7,style=dotted color=yellow]
	 task_0__0  ->  task_39 [arrowsize=2.6457513110645907, penwidth=7,style=dotted color=yellow]
	 task_0__0  ->  task_40 [arrowsize=2.6457513110645907, penwidth=7,style=dotted color=yellow]
	 task_1  ->  task_5 [arrowsize=2.6457513110645907, penwidth=7,style=solid color=blue]
	 task_1  ->  task_6 [arrowsize=2.6457513110645907, penwidth=7,style=solid color=blue]
	 task_2  ->  task_5 [arrowsize=2.6457513110645907, penwidth=7,style=solid color=blue]
	 task_2  ->  task_6 [arrowsize=2.6457513110645907, penwidth=7,style=solid color=blue]
	 task_3  ->  task_7 [arrowsize=2.6457513110645907, penwidth=7,style=solid color=blue]
	 task_3  ->  task_8 [arrowsize=2.6457513110645907, penwidth=7,style=solid color=blue]
	 task_4  ->  task_7 [arrowsize=2.6457513110645907, penwidth=7,style=solid color=blue]
	 task_4  ->  task_8 [arrowsize=2.6457513110645907, penwidth=7,style=solid color=blue]
	 task_5  ->  task_9 [arrowsize=2.6457513110645907, penwidth=7,style=solid color=blue]
	 task_5  ->  task_10 [arrowsize=2.6457513110645907, penwidth=7,style=solid color=blue]
	 task_6  ->  task_10 [arrowsize=2.6457513110645907, penwidth=7,style=solid color=blue]
	 task_6  ->  task_11 [arrowsize=2.6457513110645907, penwidth=7,style=solid color=blue]
	 task_6  ->  task_12 [arrowsize=2.6457513110645907, penwidth=7,style=solid color=blue]
	 task_7  ->  task_9 [arrowsize=2.6457513110645907, penwidth=7,style=solid color=blue]
	 task_7  ->  task_10 [arrowsize=2.6457513110645907, penwidth=7,style=solid color=blue]
	 task_7  ->  task_11 [arrowsize=2.6457513110645907, penwidth=7,style=solid color=blue]
	 task_8  ->  task_11 [arrowsize=2.6457513110645907, penwidth=7,style=solid color=blue]
	 task_8  ->  task_12 [arrowsize=2.6457513110645907, penwidth=7,style=solid color=blue]
	 task_9  ->  task_49 [arrowsize=2.6457513110645907, penwidth=7,style=solid color=blue]
	 task_9  ->  task_50 [arrowsize=2.6457513110645907, penwidth=7,style=solid color=blue]
	 task_10  ->  task_50 [arrowsize=2.6457513110645907, penwidth=7,style=solid color=blue]
	 task_10  ->  task_51 [arrowsize=2.6457513110645907, penwidth=7,style=solid color=blue]
	 task_10  ->  task_52 [arrowsize=2.6457513110645907, penwidth=7,style=solid color=blue]
	 task_11  ->  task_52 [arrowsize=2.6457513110645907, penwidth=7,style=solid color=blue]
	 task_11  ->  task_53 [arrowsize=2.6457513110645907, penwidth=7,style=solid color=blue]
	 task_11  ->  task_54 [arrowsize=2.6457513110645907, penwidth=7,style=solid color=blue]
	 task_12  ->  task_53 [arrowsize=2.6457513110645907, penwidth=7,style=solid color=blue]
	 task_12  ->  task_54 [arrowsize=2.6457513110645907, penwidth=7,style=solid color=blue]
	 task_12  ->  task_55 [arrowsize=2.6457513110645907, penwidth=7,style=solid color=blue]
	 task_12  ->  task_56 [arrowsize=2.6457513110645907, penwidth=7,style=solid color=blue]
	 task_13  ->  task_17 [arrowsize=2.6457513110645907, penwidth=7,style=solid color=blue]
	 task_13  ->  task_18 [arrowsize=2.6457513110645907, penwidth=7,style=solid color=blue]
	 task_14  ->  task_17 [arrowsize=2.6457513110645907, penwidth=7,style=solid color=blue]
	 task_14  ->  task_18 [arrowsize=2.6457513110645907, penwidth=7,style=solid color=blue]
	 task_15  ->  task_19 [arrowsize=2.6457513110645907, penwidth=7,style=solid color=blue]
	 task_15  ->  task_20 [arrowsize=2.6457513110645907, penwidth=7,style=solid color=blue]
	 task_16  ->  task_19 [arrowsize=2.6457513110645907, penwidth=7,style=solid color=blue]
	 task_16  ->  task_20 [arrowsize=2.6457513110645907, penwidth=7,style=solid color=blue]
	 task_17  ->  task_21 [arrowsize=2.6457513110645907, penwidth=7,style=solid color=blue]
	 task_17  ->  task_22 [arrowsize=2.6457513110645907, penwidth=7,style=solid color=blue]
	 task_17  ->  task_23 [arrowsize=2.6457513110645907, penwidth=7,style=solid color=blue]
	 task_18  ->  task_23 [arrowsize=2.6457513110645907, penwidth=7,style=solid color=blue]
	 task_18  ->  task_24 [arrowsize=2.6457513110645907, penwidth=7,style=solid color=blue]
	 task_19  ->  task_21 [arrowsize=2.6457513110645907, penwidth=7,style=solid color=blue]
	 task_19  ->  task_22 [arrowsize=2.6457513110645907, penwidth=7,style=solid color=blue]
	 task_20  ->  task_22 [arrowsize=2.6457513110645907, penwidth=7,style=solid color=blue]
	 task_20  ->  task_23 [arrowsize=2.6457513110645907, penwidth=7,style=solid color=blue]
	 task_20  ->  task_24 [arrowsize=2.6457513110645907, penwidth=7,style=solid color=blue]
	 task_21  ->  task_49 [arrowsize=2.6457513110645907, penwidth=7,style=solid color=blue]
	 task_21  ->  task_50 [arrowsize=2.6457513110645907, penwidth=7,style=solid color=blue]
	 task_21  ->  task_51 [arrowsize=2.6457513110645907, penwidth=7,style=solid color=blue]
	 task_21  ->  task_52 [arrowsize=2.6457513110645907, penwidth=7,style=solid color=blue]
	 task_22  ->  task_51 [arrowsize=2.6457513110645907, penwidth=7,style=solid color=blue]
	 task_22  ->  task_52 [arrowsize=2.6457513110645907, penwidth=7,style=solid color=blue]
	 task_22  ->  task_53 [arrowsize=2.6457513110645907, penwidth=7,style=solid color=blue]
	 task_22  ->  task_54 [arrowsize=2.6457513110645907, penwidth=7,style=solid color=blue]
	 task_23  ->  task_53 [arrowsize=2.6457513110645907, penwidth=7,style=solid color=blue]
	 task_23  ->  task_54 [arrowsize=2.6457513110645907, penwidth=7,style=solid color=blue]
	 task_23  ->  task_55 [arrowsize=2.6457513110645907, penwidth=7,style=solid color=blue]
	 task_24  ->  task_55 [arrowsize=2.6457513110645907, penwidth=7,style=solid color=blue]
	 task_24  ->  task_56 [arrowsize=2.6457513110645907, penwidth=7,style=solid color=blue]
	 task_25  ->  task_29 [arrowsize=2.6457513110645907, penwidth=7,style=solid color=blue]
	 task_25  ->  task_30 [arrowsize=2.6457513110645907, penwidth=7,style=solid color=blue]
	 task_26  ->  task_29 [arrowsize=2.6457513110645907, penwidth=7,style=solid color=blue]
	 task_26  ->  task_30 [arrowsize=2.6457513110645907, penwidth=7,style=solid color=blue]
	 task_27  ->  task_31 [arrowsize=2.6457513110645907, penwidth=7,style=solid color=blue]
	 task_27  ->  task_32 [arrowsize=2.6457513110645907, penwidth=7,style=solid color=blue]
	 task_28  ->  task_31 [arrowsize=2.6457513110645907, penwidth=7,style=solid color=blue]
	 task_28  ->  task_32 [arrowsize=2.6457513110645907, penwidth=7,style=solid color=blue]
	 task_29  ->  task_33 [arrowsize=2.6457513110645907, penwidth=7,style=solid color=blue]
	 task_29  ->  task_34 [arrowsize=2.6457513110645907, penwidth=7,style=solid color=blue]
	 task_30  ->  task_34 [arrowsize=2.6457513110645907, penwidth=7,style=solid color=blue]
	 task_30  ->  task_35 [arrowsize=2.6457513110645907, penwidth=7,style=solid color=blue]
	 task_30  ->  task_36 [arrowsize=2.6457513110645907, penwidth=7,style=solid color=blue]
	 task_31  ->  task_33 [arrowsize=2.6457513110645907, penwidth=7,style=solid color=blue]
	 task_31  ->  task_34 [arrowsize=2.6457513110645907, penwidth=7,style=solid color=blue]
	 task_31  ->  task_35 [arrowsize=2.6457513110645907, penwidth=7,style=solid color=blue]
	 task_32  ->  task_35 [arrowsize=2.6457513110645907, penwidth=7,style=solid color=blue]
	 task_32  ->  task_36 [arrowsize=2.6457513110645907, penwidth=7,style=solid color=blue]
	 task_33  ->  task_57 [arrowsize=2.6457513110645907, penwidth=7,style=solid color=blue]
	 task_33  ->  task_58 [arrowsize=2.6457513110645907, penwidth=7,style=solid color=blue]
	 task_33  ->  task_59 [arrowsize=2.6457513110645907, penwidth=7,style=solid color=blue]
	 task_33  ->  task_60 [arrowsize=2.6457513110645907, penwidth=7,style=solid color=blue]
	 task_34  ->  task_59 [arrowsize=2.6457513110645907, penwidth=7,style=solid color=blue]
	 task_34  ->  task_60 [arrowsize=2.6457513110645907, penwidth=7,style=solid color=blue]
	 task_34  ->  task_61 [arrowsize=2.6457513110645907, penwidth=7,style=solid color=blue]
	 task_34  ->  task_62 [arrowsize=2.6457513110645907, penwidth=7,style=solid color=blue]
	 task_35  ->  task_61 [arrowsize=2.6457513110645907, penwidth=7,style=solid color=blue]
	 task_35  ->  task_62 [arrowsize=2.6457513110645907, penwidth=7,style=solid color=blue]
	 task_36  ->  task_62 [arrowsize=2.6457513110645907, penwidth=7,style=solid color=blue]
	 task_36  ->  task_63 [arrowsize=2.6457513110645907, penwidth=7,style=solid color=blue]
	 task_36  ->  task_64 [arrowsize=2.6457513110645907, penwidth=7,style=solid color=blue]
	 task_37  ->  task_41 [arrowsize=2.6457513110645907, penwidth=7,style=solid color=blue]
	 task_37  ->  task_42 [arrowsize=2.6457513110645907, penwidth=7,style=solid color=blue]
	 task_38  ->  task_41 [arrowsize=2.6457513110645907, penwidth=7,style=solid color=blue]
	 task_38  ->  task_42 [arrowsize=2.6457513110645907, penwidth=7,style=solid color=blue]
	 task_39  ->  task_43 [arrowsize=2.6457513110645907, penwidth=7,style=solid color=blue]
	 task_39  ->  task_44 [arrowsize=2.6457513110645907, penwidth=7,style=solid color=blue]
	 task_40  ->  task_43 [arrowsize=2.6457513110645907, penwidth=7,style=solid color=blue]
	 task_40  ->  task_44 [arrowsize=2.6457513110645907, penwidth=7,style=solid color=blue]
	 task_41  ->  task_45 [arrowsize=2.6457513110645907, penwidth=7,style=solid color=blue]
	 task_41  ->  task_46 [arrowsize=2.6457513110645907, penwidth=7,style=solid color=blue]
	 task_41  ->  task_47 [arrowsize=2.6457513110645907, penwidth=7,style=solid color=blue]
	 task_42  ->  task_47 [arrowsize=2.6457513110645907, penwidth=7,style=solid color=blue]
	 task_42  ->  task_48 [arrowsize=2.6457513110645907, penwidth=7,style=solid color=blue]
	 task_43  ->  task_45 [arrowsize=2.6457513110645907, penwidth=7,style=solid color=blue]
	 task_43  ->  task_46 [arrowsize=2.6457513110645907, penwidth=7,style=solid color=blue]
	 task_44  ->  task_46 [arrowsize=2.6457513110645907, penwidth=7,style=solid color=blue]
	 task_44  ->  task_47 [arrowsize=2.6457513110645907, penwidth=7,style=solid color=blue]
	 task_44  ->  task_48 [arrowsize=2.6457513110645907, penwidth=7,style=solid color=blue]
	 task_45  ->  task_57 [arrowsize=2.6457513110645907, penwidth=7,style=solid color=blue]
	 task_45  ->  task_58 [arrowsize=2.6457513110645907, penwidth=7,style=solid color=blue]
	 task_46  ->  task_58 [arrowsize=2.6457513110645907, penwidth=7,style=solid color=blue]
	 task_46  ->  task_59 [arrowsize=2.6457513110645907, penwidth=7,style=solid color=blue]
	 task_46  ->  task_60 [arrowsize=2.6457513110645907, penwidth=7,style=solid color=blue]
	 task_47  ->  task_60 [arrowsize=2.6457513110645907, penwidth=7,style=solid color=blue]
	 task_47  ->  task_61 [arrowsize=2.6457513110645907, penwidth=7,style=solid color=blue]
	 task_47  ->  task_62 [arrowsize=2.6457513110645907, penwidth=7,style=solid color=blue]
	 task_47  ->  task_63 [arrowsize=2.6457513110645907, penwidth=7,style=solid color=blue]
	 task_48  ->  task_61 [arrowsize=2.6457513110645907, penwidth=7,style=solid color=blue]
	 task_48  ->  task_62 [arrowsize=2.6457513110645907, penwidth=7,style=solid color=blue]
	 task_48  ->  task_63 [arrowsize=2.6457513110645907, penwidth=7,style=solid color=blue]
	 task_48  ->  task_64 [arrowsize=2.6457513110645907, penwidth=7,style=solid color=blue]
	 task_49  ->  task_65 [arrowsize=2.6457513110645907, penwidth=7,style=solid color=blue]
	 task_49  ->  task_66 [arrowsize=2.6457513110645907, penwidth=7,style=solid color=blue]
	 task_49  ->  task_67 [arrowsize=2.6457513110645907, penwidth=7,style=solid color=blue]
	 task_49  ->  task_68 [arrowsize=2.6457513110645907, penwidth=7,style=solid color=blue]
	 task_50  ->  task_67 [arrowsize=2.6457513110645907, penwidth=7,style=solid color=blue]
	 task_50  ->  task_68 [arrowsize=2.6457513110645907, penwidth=7,style=solid color=blue]
	 task_50  ->  task_69 [arrowsize=2.6457513110645907, penwidth=7,style=solid color=blue]
	 task_50  ->  task_70 [arrowsize=2.6457513110645907, penwidth=7,style=solid color=blue]
	 task_51  ->  task_69 [arrowsize=2.6457513110645907, penwidth=7,style=solid color=blue]
	 task_51  ->  task_70 [arrowsize=2.6457513110645907, penwidth=7,style=solid color=blue]
	 task_52  ->  task_70 [arrowsize=2.6457513110645907, penwidth=7,style=solid color=blue]
	 task_52  ->  task_71 [arrowsize=2.6457513110645907, penwidth=7,style=solid color=blue]
	 task_52  ->  task_72 [arrowsize=2.6457513110645907, penwidth=7,style=solid color=blue]
	 task_53  ->  task_71 [arrowsize=2.6457513110645907, penwidth=7,style=solid color=blue]
	 task_53  ->  task_72 [arrowsize=2.6457513110645907, penwidth=7,style=solid color=blue]
	 task_53  ->  task_73 [arrowsize=2.6457513110645907, penwidth=7,style=solid color=blue]
	 task_53  ->  task_74 [arrowsize=2.6457513110645907, penwidth=7,style=solid color=blue]
	 task_54  ->  task_72 [arrowsize=2.6457513110645907, penwidth=7,style=solid color=blue]
	 task_54  ->  task_73 [arrowsize=2.6457513110645907, penwidth=7,style=solid color=blue]
	 task_54  ->  task_74 [arrowsize=2.6457513110645907, penwidth=7,style=solid color=blue]
	 task_54  ->  task_75 [arrowsize=2.6457513110645907, penwidth=7,style=solid color=blue]
	 task_54  ->  task_76 [arrowsize=2.6457513110645907, penwidth=7,style=solid color=blue]
	 task_55  ->  task_73 [arrowsize=2.6457513110645907, penwidth=7,style=solid color=blue]
	 task_55  ->  task_74 [arrowsize=2.6457513110645907, penwidth=7,style=solid color=blue]
	 task_55  ->  task_75 [arrowsize=2.6457513110645907, penwidth=7,style=solid color=blue]
	 task_55  ->  task_76 [arrowsize=2.6457513110645907, penwidth=7,style=solid color=blue]
	 task_55  ->  task_77 [arrowsize=2.6457513110645907, penwidth=7,style=solid color=blue]
	 task_55  ->  task_78 [arrowsize=2.6457513110645907, penwidth=7,style=solid color=blue]
	 task_56  ->  task_77 [arrowsize=2.6457513110645907, penwidth=7,style=solid color=blue]
	 task_56  ->  task_78 [arrowsize=2.6457513110645907, penwidth=7,style=solid color=blue]
	 task_56  ->  task_79 [arrowsize=2.6457513110645907, penwidth=7,style=solid color=blue]
	 task_56  ->  task_80 [arrowsize=2.6457513110645907, penwidth=7,style=solid color=blue]
	 task_57  ->  task_65 [arrowsize=2.6457513110645907, penwidth=7,style=solid color=blue]
	 task_57  ->  task_66 [arrowsize=2.6457513110645907, penwidth=7,style=solid color=blue]
	 task_58  ->  task_66 [arrowsize=2.6457513110645907, penwidth=7,style=solid color=blue]
	 task_58  ->  task_67 [arrowsize=2.6457513110645907, penwidth=7,style=solid color=blue]
	 task_58  ->  task_68 [arrowsize=2.6457513110645907, penwidth=7,style=solid color=blue]
	 task_58  ->  task_71 [arrowsize=2.6457513110645907, penwidth=7,style=solid color=blue]
	 task_58  ->  task_72 [arrowsize=2.6457513110645907, penwidth=7,style=solid color=blue]
	 task_59  ->  task_68 [arrowsize=2.6457513110645907, penwidth=7,style=solid color=blue]
	 task_59  ->  task_69 [arrowsize=2.6457513110645907, penwidth=7,style=solid color=blue]
	 task_59  ->  task_70 [arrowsize=2.6457513110645907, penwidth=7,style=solid color=blue]
	 task_59  ->  task_71 [arrowsize=2.6457513110645907, penwidth=7,style=solid color=blue]
	 task_59  ->  task_72 [arrowsize=2.6457513110645907, penwidth=7,style=solid color=blue]
	 task_59  ->  task_73 [arrowsize=2.6457513110645907, penwidth=7,style=solid color=blue]
	 task_59  ->  task_74 [arrowsize=2.6457513110645907, penwidth=7,style=solid color=blue]
	 task_60  ->  task_69 [arrowsize=2.6457513110645907, penwidth=7,style=solid color=blue]
	 task_60  ->  task_70 [arrowsize=2.6457513110645907, penwidth=7,style=solid color=blue]
	 task_60  ->  task_71 [arrowsize=2.6457513110645907, penwidth=7,style=solid color=blue]
	 task_60  ->  task_72 [arrowsize=2.6457513110645907, penwidth=7,style=solid color=blue]
	 task_60  ->  task_73 [arrowsize=2.6457513110645907, penwidth=7,style=solid color=blue]
	 task_60  ->  task_74 [arrowsize=2.6457513110645907, penwidth=7,style=solid color=blue]
	 task_60  ->  task_75 [arrowsize=2.6457513110645907, penwidth=7,style=solid color=blue]
	 task_61  ->  task_73 [arrowsize=2.6457513110645907, penwidth=7,style=solid color=blue]
	 task_61  ->  task_74 [arrowsize=2.6457513110645907, penwidth=7,style=solid color=blue]
	 task_61  ->  task_75 [arrowsize=2.6457513110645907, penwidth=7,style=solid color=blue]
	 task_61  ->  task_76 [arrowsize=2.6457513110645907, penwidth=7,style=solid color=blue]
	 task_62  ->  task_75 [arrowsize=2.6457513110645907, penwidth=7,style=solid color=blue]
	 task_62  ->  task_76 [arrowsize=2.6457513110645907, penwidth=7,style=solid color=blue]
	 task_62  ->  task_77 [arrowsize=2.6457513110645907, penwidth=7,style=solid color=blue]
	 task_62  ->  task_78 [arrowsize=2.6457513110645907, penwidth=7,style=solid color=blue]
	 task_63  ->  task_77 [arrowsize=2.6457513110645907, penwidth=7,style=solid color=blue]
	 task_63  ->  task_78 [arrowsize=2.6457513110645907, penwidth=7,style=solid color=blue]
	 task_63  ->  task_79 [arrowsize=2.6457513110645907, penwidth=7,style=solid color=blue]
	 task_64  ->  task_79 [arrowsize=2.6457513110645907, penwidth=7,style=solid color=blue]
	 task_64  ->  task_80 [arrowsize=2.6457513110645907, penwidth=7,style=solid color=blue]
	 task_65  ->  task_0__1 [arrowsize=2.6457513110645907, penwidth=7,style=dashed color=green]
	 task_66  ->  task_0__1 [arrowsize=2.6457513110645907, penwidth=7,style=dashed color=green]
	 task_67  ->  task_0__1 [arrowsize=2.6457513110645907, penwidth=7,style=dashed color=green]
	 task_68  ->  task_0__1 [arrowsize=2.6457513110645907, penwidth=7,style=dashed color=green]
	 task_69  ->  task_0__1 [arrowsize=2.6457513110645907, penwidth=7,style=dashed color=green]
	 task_70  ->  task_0__1 [arrowsize=2.6457513110645907, penwidth=7,style=dashed color=green]
	 task_71  ->  task_0__1 [arrowsize=2.6457513110645907, penwidth=7,style=dashed color=green]
	 task_72  ->  task_0__1 [arrowsize=2.6457513110645907, penwidth=7,style=dashed color=green]
	 task_73  ->  task_0__1 [arrowsize=2.6457513110645907, penwidth=7,style=dashed color=green]
	 task_74  ->  task_0__1 [arrowsize=2.6457513110645907, penwidth=7,style=dashed color=green]
	 task_75  ->  task_0__1 [arrowsize=2.6457513110645907, penwidth=7,style=dashed color=green]
	 task_76  ->  task_0__1 [arrowsize=2.6457513110645907, penwidth=7,style=dashed color=green]
	 task_77  ->  task_0__1 [arrowsize=2.6457513110645907, penwidth=7,style=dashed color=green]
	 task_78  ->  task_0__1 [arrowsize=2.6457513110645907, penwidth=7,style=dashed color=green]
	 task_79  ->  task_0__1 [arrowsize=2.6457513110645907, penwidth=7,style=dashed color=green]
	 task_80  ->  task_0__1 [arrowsize=2.6457513110645907, penwidth=7,style=dashed color=green]
}
