<<<0:global:MIN_MERGE_SIZE:multisort-tareador.c:12>>>
<<<1:global:MIN_SORT_SIZE:multisort-tareador.c:11>>>
<<<2:global:N:multisort-tareador.c:10>>>
<<<3:stack:argv[0]>>>
<<<4:stack:argv[1]>>>
<<<5:stack:argv[2]>>>
<<<6:stack:argv[3]>>>
<<<7:stack:argv[4]>>>
<<<8:stack:argv[5]>>>
<<<9:stack:argv[6]>>>
<<<10:stack:unknown_name>>>
<<<11:stack:argc>>>
<<<12:stack:argv>>>
<<<13:stack:i>>>
<<<14:stack:data>>>
<<<15:stack:tmp>>>
<<<16:heap:uncast(*(data))::main:/scratch/nas/1/par2107/lab4/multisort-tareador.c:115>>>
<<<17:heap:uncast(*(tmp))::main:/scratch/nas/1/par2107/lab4/multisort-tareador.c:116>>>
<<<18:stack:n>>>
<<<19:stack:left>>>
<<<20:stack:right>>>
<<<21:stack:result>>>
<<<22:stack:start>>>
<<<23:stack:length>>>
