%!PS-Adobe-3.0
%%Pages: (atend)
%%Creator: jgraph
%%EndComments

%%BeginProlog
%%EndProlog
%%BeginSetup
%%EndSetup

%%Page: 1 1
%%BeginPageSetup
%%EndPageSetup

210.000000 334.500000 translate
1 setlinecap 1 setlinejoin
0.700 setlinewidth
0.00 setgray

/Jrnd { exch cvi exch cvi dup 3 1 roll idiv mul } def
/JDEdict 8 dict def
JDEdict /mtrx matrix put
/JDE {
  JDEdict begin
  /yrad exch def
  /xrad exch def
  /savematrix mtrx currentmatrix def
  xrad yrad scale
  0 0 1 0 360 arc
  savematrix setmatrix
  end
} def
/JSTR {
  gsave 1 eq { gsave 1 setgray fill grestore } if
    exch neg exch neg translate 
    clip                        
    rotate                      
    4 dict begin
      pathbbox  /&top exch def
                /&right exch def
                /&bottom exch def
                &right sub /&width exch def
      newpath
      currentlinewidth mul round dup               
      &bottom exch Jrnd exch &top             
      4 -1 roll currentlinewidth mul setlinewidth  
      { &right exch moveto &width 0 rlineto stroke } for    
    end
  grestore
  newpath
} bind def
 gsave /Times-Roman findfont 9.000000 scalefont setfont
0.000000 0.000000 translate
0.700000 setlinewidth  gsave newpath 0.000000 0.000000 moveto 216.000000 0.000000 lineto stroke
newpath 10.285714 0.000000 moveto 10.285714 -2.000000 lineto stroke
newpath 24.000000 0.000000 moveto 24.000000 -2.000000 lineto stroke
newpath 37.714287 0.000000 moveto 37.714287 -2.000000 lineto stroke
newpath 51.428574 0.000000 moveto 51.428574 -2.000000 lineto stroke
newpath 65.142860 0.000000 moveto 65.142860 -5.000000 lineto stroke
newpath 78.857147 0.000000 moveto 78.857147 -2.000000 lineto stroke
newpath 92.571426 0.000000 moveto 92.571426 -2.000000 lineto stroke
newpath 106.285713 0.000000 moveto 106.285713 -2.000000 lineto stroke
newpath 120.000000 0.000000 moveto 120.000000 -2.000000 lineto stroke
newpath 133.714294 0.000000 moveto 133.714294 -5.000000 lineto stroke
newpath 147.428574 0.000000 moveto 147.428574 -2.000000 lineto stroke
newpath 161.142853 0.000000 moveto 161.142853 -2.000000 lineto stroke
newpath 174.857147 0.000000 moveto 174.857147 -2.000000 lineto stroke
newpath 188.571426 0.000000 moveto 188.571426 -2.000000 lineto stroke
newpath 202.285721 0.000000 moveto 202.285721 -5.000000 lineto stroke
newpath 216.000000 0.000000 moveto 216.000000 -2.000000 lineto stroke
gsave 10.285714 -8.000000 translate 90.000000 rotate
0 -2.700000 translate ( 1) dup stringwidth pop neg 0 moveto
show
grestore
gsave 24.000000 -8.000000 translate 90.000000 rotate
0 -2.700000 translate ( 2) dup stringwidth pop neg 0 moveto
show
grestore
gsave 37.714287 -8.000000 translate 90.000000 rotate
0 -2.700000 translate ( 4) dup stringwidth pop neg 0 moveto
show
grestore
gsave 51.428574 -8.000000 translate 90.000000 rotate
0 -2.700000 translate ( 8) dup stringwidth pop neg 0 moveto
show
grestore
gsave 65.142860 -8.000000 translate 90.000000 rotate
0 -2.700000 translate ( 16) dup stringwidth pop neg 0 moveto
show
grestore
gsave 78.857147 -8.000000 translate 90.000000 rotate
0 -2.700000 translate ( 32) dup stringwidth pop neg 0 moveto
show
grestore
gsave 92.571426 -8.000000 translate 90.000000 rotate
0 -2.700000 translate ( 64) dup stringwidth pop neg 0 moveto
show
grestore
gsave 106.285713 -8.000000 translate 90.000000 rotate
0 -2.700000 translate ( 128) dup stringwidth pop neg 0 moveto
show
grestore
gsave 120.000000 -8.000000 translate 90.000000 rotate
0 -2.700000 translate ( 256) dup stringwidth pop neg 0 moveto
show
grestore
gsave 133.714294 -8.000000 translate 90.000000 rotate
0 -2.700000 translate ( 512) dup stringwidth pop neg 0 moveto
show
grestore
gsave 147.428574 -8.000000 translate 90.000000 rotate
0 -2.700000 translate ( 1024) dup stringwidth pop neg 0 moveto
show
grestore
gsave 161.142853 -8.000000 translate 90.000000 rotate
0 -2.700000 translate ( 2048) dup stringwidth pop neg 0 moveto
show
grestore
gsave 174.857147 -8.000000 translate 90.000000 rotate
0 -2.700000 translate ( 4096) dup stringwidth pop neg 0 moveto
show
grestore
gsave 188.571426 -8.000000 translate 90.000000 rotate
0 -2.700000 translate ( 8192) dup stringwidth pop neg 0 moveto
show
grestore
gsave 202.285721 -8.000000 translate 90.000000 rotate
0 -2.700000 translate ( 16384) dup stringwidth pop neg 0 moveto
show
grestore
gsave 216.000000 -8.000000 translate 90.000000 rotate
0 -2.700000 translate ( 32768) dup stringwidth pop neg 0 moveto
show
grestore
/Times-Bold findfont 10.000000 scalefont setfont
gsave 108.000000 -41.919998 translate 0.000000 rotate
0 -6.000000 translate (Number of tasks in taskloop) dup stringwidth pop 2 div neg 0 moveto
show
grestore
 grestore 
0.700000 setlinewidth  gsave newpath 0.000000 0.000000 moveto 0.000000 216.000000 lineto stroke
newpath 0.000000 0.000000 moveto -5.000000 0.000000 lineto stroke
newpath 0.000000 7.521643 moveto -2.000000 7.521643 lineto stroke
newpath 0.000000 15.043286 moveto -2.000000 15.043286 lineto stroke
newpath 0.000000 22.564930 moveto -2.000000 22.564930 lineto stroke
newpath 0.000000 30.086573 moveto -2.000000 30.086573 lineto stroke
newpath 0.000000 37.608215 moveto -2.000000 37.608215 lineto stroke
newpath 0.000000 45.129860 moveto -2.000000 45.129860 lineto stroke
newpath 0.000000 52.651505 moveto -2.000000 52.651505 lineto stroke
newpath 0.000000 60.173149 moveto -2.000000 60.173149 lineto stroke
newpath 0.000000 67.694794 moveto -2.000000 67.694794 lineto stroke
newpath 0.000000 75.216431 moveto -5.000000 75.216431 lineto stroke
newpath 0.000000 82.738075 moveto -2.000000 82.738075 lineto stroke
newpath 0.000000 90.259720 moveto -2.000000 90.259720 lineto stroke
newpath 0.000000 97.781364 moveto -2.000000 97.781364 lineto stroke
newpath 0.000000 105.303009 moveto -2.000000 105.303009 lineto stroke
newpath 0.000000 112.824654 moveto -2.000000 112.824654 lineto stroke
newpath 0.000000 120.346298 moveto -2.000000 120.346298 lineto stroke
newpath 0.000000 127.867943 moveto -2.000000 127.867943 lineto stroke
newpath 0.000000 135.389587 moveto -2.000000 135.389587 lineto stroke
newpath 0.000000 142.911240 moveto -2.000000 142.911240 lineto stroke
newpath 0.000000 150.432861 moveto -5.000000 150.432861 lineto stroke
newpath 0.000000 157.954498 moveto -2.000000 157.954498 lineto stroke
newpath 0.000000 165.476135 moveto -2.000000 165.476135 lineto stroke
newpath 0.000000 172.997772 moveto -2.000000 172.997772 lineto stroke
newpath 0.000000 180.519409 moveto -2.000000 180.519409 lineto stroke
newpath 0.000000 188.041046 moveto -2.000000 188.041046 lineto stroke
newpath 0.000000 195.562683 moveto -2.000000 195.562683 lineto stroke
newpath 0.000000 203.084320 moveto -2.000000 203.084320 lineto stroke
newpath 0.000000 210.605942 moveto -2.000000 210.605942 lineto stroke
/Times-Roman findfont 9.000000 scalefont setfont
gsave -8.000000 0.000000 translate 0.000000 rotate
0 -2.700000 translate (0) dup stringwidth pop neg 0 moveto
show
grestore
gsave -8.000000 75.216431 translate 0.000000 rotate
0 -2.700000 translate (1) dup stringwidth pop neg 0 moveto
show
grestore
gsave -8.000000 150.432861 translate 0.000000 rotate
0 -2.700000 translate (2) dup stringwidth pop neg 0 moveto
show
grestore
/Times-Bold findfont 10.000000 scalefont setfont
gsave -20.320000 108.000000 translate 90.000000 rotate
0 0.000000 translate (Execution time ) dup stringwidth pop 2 div neg 0 moveto
show
grestore
 grestore 
/Times-Roman findfont 12.000000 scalefont setfont
gsave 108.000000 -57.919998 translate 0.000000 rotate
0 -7.200000 translate (par2107) dup stringwidth pop 2 div neg 0 moveto
show 0 -14.400000 translate
(Average elapsed execution time ) dup stringwidth pop 2 div neg 0 moveto
show 0 -14.400000 translate
(Sat Oct 22 05:31:59 PM CEST 2022) dup stringwidth pop 2 div neg 0 moveto
show
grestore
 gsave 
 gsave  gsave  10.285714 216.000000 translate 0.000000 rotate
 newpath 3.428571 0.000000 moveto  -3.428571 0.000000 lineto
  -3.428571 -216.000000 lineto
  3.428571 -216.000000 lineto
closepath gsave 0.500000 setgray  fill grestore
stroke
 grestore  gsave  24.000000 158.041901 translate 0.000000 rotate
 newpath 3.428571 0.000000 moveto  -3.428571 0.000000 lineto
  -3.428571 -158.041901 lineto
  3.428571 -158.041901 lineto
closepath gsave 0.500000 setgray  fill grestore
stroke
 grestore  gsave  37.714287 141.156723 translate 0.000000 rotate
 newpath 3.428571 0.000000 moveto  -3.428571 0.000000 lineto
  -3.428571 -141.156723 lineto
  3.428571 -141.156723 lineto
closepath gsave 0.500000 setgray  fill grestore
stroke
 grestore  gsave  51.428574 100.003700 translate 0.000000 rotate
 newpath 3.428571 0.000000 moveto  -3.428571 0.000000 lineto
  -3.428571 -100.003700 lineto
  3.428571 -100.003700 lineto
closepath gsave 0.500000 setgray  fill grestore
stroke
 grestore  gsave  65.142860 58.730572 translate 0.000000 rotate
 newpath 3.428571 0.000000 moveto  -3.428571 0.000000 lineto
  -3.428571 -58.730572 lineto
  3.428571 -58.730572 lineto
closepath gsave 0.500000 setgray  fill grestore
stroke
 grestore  gsave  78.857147 35.110352 translate 0.000000 rotate
 newpath 3.428571 0.000000 moveto  -3.428571 0.000000 lineto
  -3.428571 -35.110352 lineto
  3.428571 -35.110352 lineto
closepath gsave 0.500000 setgray  fill grestore
stroke
 grestore  gsave  92.571426 27.868214 translate 0.000000 rotate
 newpath 3.428571 0.000000 moveto  -3.428571 0.000000 lineto
  -3.428571 -27.868214 lineto
  3.428571 -27.868214 lineto
closepath gsave 0.500000 setgray  fill grestore
stroke
 grestore  gsave  106.285713 32.737427 translate 0.000000 rotate
 newpath 3.428571 0.000000 moveto  -3.428571 0.000000 lineto
  -3.428571 -32.737427 lineto
  3.428571 -32.737427 lineto
closepath gsave 0.500000 setgray  fill grestore
stroke
 grestore  gsave  120.000000 61.493645 translate 0.000000 rotate
 newpath 3.428571 0.000000 moveto  -3.428571 0.000000 lineto
  -3.428571 -61.493645 lineto
  3.428571 -61.493645 lineto
closepath gsave 0.500000 setgray  fill grestore
stroke
 grestore  gsave  133.714294 53.779446 translate 0.000000 rotate
 newpath 3.428571 0.000000 moveto  -3.428571 0.000000 lineto
  -3.428571 -53.779446 lineto
  3.428571 -53.779446 lineto
closepath gsave 0.500000 setgray  fill grestore
stroke
 grestore  gsave  147.428574 34.067024 translate 0.000000 rotate
 newpath 3.428571 0.000000 moveto  -3.428571 0.000000 lineto
  -3.428571 -34.067024 lineto
  3.428571 -34.067024 lineto
closepath gsave 0.500000 setgray  fill grestore
stroke
 grestore  gsave  161.142853 33.904182 translate 0.000000 rotate
 newpath 3.428571 0.000000 moveto  -3.428571 0.000000 lineto
  -3.428571 -33.904182 lineto
  3.428571 -33.904182 lineto
closepath gsave 0.500000 setgray  fill grestore
stroke
 grestore  gsave  174.857147 33.652283 translate 0.000000 rotate
 newpath 3.428571 0.000000 moveto  -3.428571 0.000000 lineto
  -3.428571 -33.652283 lineto
  3.428571 -33.652283 lineto
closepath gsave 0.500000 setgray  fill grestore
stroke
 grestore  gsave  188.571426 33.974659 translate 0.000000 rotate
 newpath 3.428571 0.000000 moveto  -3.428571 0.000000 lineto
  -3.428571 -33.974659 lineto
  3.428571 -33.974659 lineto
closepath gsave 0.500000 setgray  fill grestore
stroke
 grestore  gsave  202.285721 34.228138 translate 0.000000 rotate
 newpath 3.428571 0.000000 moveto  -3.428571 0.000000 lineto
  -3.428571 -34.228138 lineto
  3.428571 -34.228138 lineto
closepath gsave 0.500000 setgray  fill grestore
stroke
 grestore  gsave  216.000000 34.001137 translate 0.000000 rotate
 newpath 3.428571 0.000000 moveto  -3.428571 0.000000 lineto
  -3.428571 -34.001137 lineto
  3.428571 -34.001137 lineto
closepath gsave 0.500000 setgray  fill grestore
stroke
 grestore  grestore 
 grestore 
-0.000000 -0.000000 translate
 grestore showpage
%%PageTrailer

%%Trailer
%%Pages: 1
%%EOF
