%!PS-Adobe-3.0
%%Pages: (atend)
%%Creator: jgraph
%%EndComments

%%BeginProlog
%%EndProlog
%%BeginSetup
%%EndSetup

%%Page: 1 1
%%BeginPageSetup
%%EndPageSetup

198.000000 327.500000 translate
1 setlinecap 1 setlinejoin
0.700 setlinewidth
0.00 setgray

/Jrnd { exch cvi exch cvi dup 3 1 roll idiv mul } def
/JDEdict 8 dict def
JDEdict /mtrx matrix put
/JDE {
  JDEdict begin
  /yrad exch def
  /xrad exch def
  /savematrix mtrx currentmatrix def
  xrad yrad scale
  0 0 1 0 360 arc
  savematrix setmatrix
  end
} def
/JSTR {
  gsave 1 eq { gsave 1 setgray fill grestore } if
    exch neg exch neg translate 
    clip                        
    rotate                      
    4 dict begin
      pathbbox  /&top exch def
                /&right exch def
                /&bottom exch def
                &right sub /&width exch def
      newpath
      currentlinewidth mul round dup               
      &bottom exch Jrnd exch &top             
      4 -1 roll currentlinewidth mul setlinewidth  
      { &right exch moveto &width 0 rlineto stroke } for    
    end
  grestore
  newpath
} bind def
 gsave /Times-Roman findfont 9.000000 scalefont setfont
0.000000 0.000000 translate
0.700000 setlinewidth  gsave newpath 0.000000 0.000000 moveto 216.000000 0.000000 lineto stroke
newpath 13.787233 0.000000 moveto 13.787233 -2.000000 lineto stroke
newpath 32.170212 0.000000 moveto 32.170212 -5.000000 lineto stroke
newpath 50.553192 0.000000 moveto 50.553192 -2.000000 lineto stroke
newpath 68.936172 0.000000 moveto 68.936172 -5.000000 lineto stroke
newpath 87.319145 0.000000 moveto 87.319145 -2.000000 lineto stroke
newpath 105.702126 0.000000 moveto 105.702126 -5.000000 lineto stroke
newpath 124.085106 0.000000 moveto 124.085106 -2.000000 lineto stroke
newpath 142.468079 0.000000 moveto 142.468079 -5.000000 lineto stroke
newpath 160.851059 0.000000 moveto 160.851059 -2.000000 lineto stroke
newpath 179.234039 0.000000 moveto 179.234039 -5.000000 lineto stroke
newpath 197.617020 0.000000 moveto 197.617020 -2.000000 lineto stroke
newpath 216.000000 0.000000 moveto 216.000000 -5.000000 lineto stroke
gsave 13.787233 -8.000000 translate 90.000000 rotate
0 -2.700000 translate ( 1) dup stringwidth pop neg 0 moveto
show
grestore
gsave 32.170212 -8.000000 translate 90.000000 rotate
0 -2.700000 translate ( 2) dup stringwidth pop neg 0 moveto
show
grestore
gsave 50.553192 -8.000000 translate 90.000000 rotate
0 -2.700000 translate ( 3) dup stringwidth pop neg 0 moveto
show
grestore
gsave 68.936172 -8.000000 translate 90.000000 rotate
0 -2.700000 translate ( 4) dup stringwidth pop neg 0 moveto
show
grestore
gsave 87.319145 -8.000000 translate 90.000000 rotate
0 -2.700000 translate ( 5) dup stringwidth pop neg 0 moveto
show
grestore
gsave 105.702126 -8.000000 translate 90.000000 rotate
0 -2.700000 translate ( 6) dup stringwidth pop neg 0 moveto
show
grestore
gsave 124.085106 -8.000000 translate 90.000000 rotate
0 -2.700000 translate ( 7) dup stringwidth pop neg 0 moveto
show
grestore
gsave 142.468079 -8.000000 translate 90.000000 rotate
0 -2.700000 translate ( 8) dup stringwidth pop neg 0 moveto
show
grestore
gsave 160.851059 -8.000000 translate 90.000000 rotate
0 -2.700000 translate ( 9) dup stringwidth pop neg 0 moveto
show
grestore
gsave 179.234039 -8.000000 translate 90.000000 rotate
0 -2.700000 translate ( 10) dup stringwidth pop neg 0 moveto
show
grestore
gsave 197.617020 -8.000000 translate 90.000000 rotate
0 -2.700000 translate ( 11) dup stringwidth pop neg 0 moveto
show
grestore
gsave 216.000000 -8.000000 translate 90.000000 rotate
0 -2.700000 translate ( 12) dup stringwidth pop neg 0 moveto
show
grestore
/Times-Bold findfont 10.000000 scalefont setfont
gsave 108.000000 -28.959999 translate 0.000000 rotate
0 -6.000000 translate (Value for user parameter) dup stringwidth pop 2 div neg 0 moveto
show
grestore
 grestore 
0.700000 setlinewidth  gsave newpath 0.000000 0.000000 moveto 0.000000 216.000000 lineto stroke
newpath 0.000000 0.000000 moveto -5.000000 0.000000 lineto stroke
newpath 0.000000 26.799006 moveto -2.000000 26.799006 lineto stroke
newpath 0.000000 53.598011 moveto -5.000000 53.598011 lineto stroke
newpath 0.000000 80.397018 moveto -2.000000 80.397018 lineto stroke
newpath 0.000000 107.196022 moveto -5.000000 107.196022 lineto stroke
newpath 0.000000 133.995026 moveto -2.000000 133.995026 lineto stroke
newpath 0.000000 160.794037 moveto -5.000000 160.794037 lineto stroke
newpath 0.000000 187.593033 moveto -2.000000 187.593033 lineto stroke
newpath 0.000000 214.392044 moveto -5.000000 214.392044 lineto stroke
/Times-Roman findfont 9.000000 scalefont setfont
gsave -8.000000 0.000000 translate 0.000000 rotate
0 -2.700000 translate (0) dup stringwidth pop neg 0 moveto
show
grestore
gsave -8.000000 53.598011 translate 0.000000 rotate
0 -2.700000 translate (2) dup stringwidth pop neg 0 moveto
show
grestore
gsave -8.000000 107.196022 translate 0.000000 rotate
0 -2.700000 translate (4) dup stringwidth pop neg 0 moveto
show
grestore
gsave -8.000000 160.794037 translate 0.000000 rotate
0 -2.700000 translate (6) dup stringwidth pop neg 0 moveto
show
grestore
gsave -8.000000 214.392044 translate 0.000000 rotate
0 -2.700000 translate (8) dup stringwidth pop neg 0 moveto
show
grestore
/Times-Bold findfont 10.000000 scalefont setfont
gsave -20.320000 108.000000 translate 90.000000 rotate
0 0.000000 translate (Execution time) dup stringwidth pop 2 div neg 0 moveto
show
grestore
 grestore 
/Times-Roman findfont 12.000000 scalefont setfont
gsave 108.000000 -44.959999 translate 0.000000 rotate
0 -7.200000 translate (par2107) dup stringwidth pop 2 div neg 0 moveto
show 0 -14.400000 translate
(Average elapsed execution time \(heat difussion\)) dup stringwidth pop 2 div neg 0 moveto
show 0 -14.400000 translate
(Sun Dec 25 07:31:20 PM CET 2022) dup stringwidth pop 2 div neg 0 moveto
show
grestore
 gsave 
 gsave  gsave  32.170212 124.588585 translate 0.000000 rotate
 newpath 4.595745 0.000000 moveto  -4.595745 0.000000 lineto
  -4.595745 -124.588585 lineto
  4.595745 -124.588585 lineto
closepath gsave 0.500000 setgray  fill grestore
stroke
 grestore  gsave  50.553192 91.786591 translate 0.000000 rotate
 newpath 4.595745 0.000000 moveto  -4.595745 0.000000 lineto
  -4.595745 -91.786591 lineto
  4.595745 -91.786591 lineto
closepath gsave 0.500000 setgray  fill grestore
stroke
 grestore  gsave  13.787233 216.000000 translate 0.000000 rotate
 newpath 4.595745 0.000000 moveto  -4.595745 0.000000 lineto
  -4.595745 -216.000000 lineto
  4.595745 -216.000000 lineto
closepath gsave 0.500000 setgray  fill grestore
stroke
 grestore  gsave  68.936172 70.052605 translate 0.000000 rotate
 newpath 4.595745 0.000000 moveto  -4.595745 0.000000 lineto
  -4.595745 -70.052605 lineto
  4.595745 -70.052605 lineto
closepath gsave 0.500000 setgray  fill grestore
stroke
 grestore  gsave  87.319145 59.788578 translate 0.000000 rotate
 newpath 4.595745 0.000000 moveto  -4.595745 0.000000 lineto
  -4.595745 -59.788578 lineto
  4.595745 -59.788578 lineto
closepath gsave 0.500000 setgray  fill grestore
stroke
 grestore  gsave  105.702126 51.856075 translate 0.000000 rotate
 newpath 4.595745 0.000000 moveto  -4.595745 0.000000 lineto
  -4.595745 -51.856075 lineto
  4.595745 -51.856075 lineto
closepath gsave 0.500000 setgray  fill grestore
stroke
 grestore  gsave  32.170212 126.276909 translate 0.000000 rotate
 newpath 4.595745 0.000000 moveto  -4.595745 0.000000 lineto
  -4.595745 -126.276909 lineto
  4.595745 -126.276909 lineto
closepath gsave 0.500000 setgray  fill grestore
stroke
 grestore  gsave  124.085106 42.905205 translate 0.000000 rotate
 newpath 4.595745 0.000000 moveto  -4.595745 0.000000 lineto
  -4.595745 -42.905205 lineto
  4.595745 -42.905205 lineto
closepath gsave 0.500000 setgray  fill grestore
stroke
 grestore  gsave  142.468079 38.912155 translate 0.000000 rotate
 newpath 4.595745 0.000000 moveto  -4.595745 0.000000 lineto
  -4.595745 -38.912155 lineto
  4.595745 -38.912155 lineto
closepath gsave 0.500000 setgray  fill grestore
stroke
 grestore  gsave  50.553192 91.331009 translate 0.000000 rotate
 newpath 4.595745 0.000000 moveto  -4.595745 0.000000 lineto
  -4.595745 -91.331009 lineto
  4.595745 -91.331009 lineto
closepath gsave 0.500000 setgray  fill grestore
stroke
 grestore  gsave  160.851059 36.044662 translate 0.000000 rotate
 newpath 4.595745 0.000000 moveto  -4.595745 0.000000 lineto
  -4.595745 -36.044662 lineto
  4.595745 -36.044662 lineto
closepath gsave 0.500000 setgray  fill grestore
stroke
 grestore  gsave  179.234039 33.847145 translate 0.000000 rotate
 newpath 4.595745 0.000000 moveto  -4.595745 0.000000 lineto
  -4.595745 -33.847145 lineto
  4.595745 -33.847145 lineto
closepath gsave 0.500000 setgray  fill grestore
stroke
 grestore  gsave  68.936172 73.000488 translate 0.000000 rotate
 newpath 4.595745 0.000000 moveto  -4.595745 0.000000 lineto
  -4.595745 -73.000488 lineto
  4.595745 -73.000488 lineto
closepath gsave 0.500000 setgray  fill grestore
stroke
 grestore  gsave  197.617020 31.783621 translate 0.000000 rotate
 newpath 4.595745 0.000000 moveto  -4.595745 0.000000 lineto
  -4.595745 -31.783621 lineto
  4.595745 -31.783621 lineto
closepath gsave 0.500000 setgray  fill grestore
stroke
 grestore  gsave  216.000000 30.363274 translate 0.000000 rotate
 newpath 4.595745 0.000000 moveto  -4.595745 0.000000 lineto
  -4.595745 -30.363274 lineto
  4.595745 -30.363274 lineto
closepath gsave 0.500000 setgray  fill grestore
stroke
 grestore  grestore 
 grestore 
-0.000000 -0.000000 translate
 grestore showpage
%%PageTrailer

%%Trailer
%%Pages: 1
%%EOF
