Overview of whole program execution metrics:
========================================================================================
   Number of processors |          1 |          4 |          8 |         12 |         16
========================================================================================
Elapsed time (sec)      |       1.27 |       0.40 |       0.25 |       0.23 |       0.27
Speedup                 |       1.00 |       3.13 |       5.05 |       5.55 |       4.73
Efficiency              |       1.00 |       0.78 |       0.63 |       0.46 |       0.30
========================================================================================

Overview of the Efficiency metrics in parallel fraction:
=======================================================================================================
                  Number of processors |          1 |          4 |          8 |         12 |         16
=======================================================================================================
Parallel fraction                      |     99.94% | 
------------------------------------------------------
Global efficiency                      |     99.85% |     78.22% |     63.17% |     46.26% |     29.55%
-- Parallelization strategy efficiency |     99.85% |     95.16% |     92.17% |     73.05% |     52.89%
   -- Load balancing                   |    100.00% |     97.58% |     96.23% |     95.69% |     95.59%
   -- In execution efficiency          |     99.85% |     97.51% |     95.77% |     76.34% |     55.33%
-- Scalability for computation tasks   |    100.00% |     82.20% |     68.54% |     63.32% |     55.88%
   -- IPC scalability                  |    100.00% |     84.21% |     74.67% |     71.22% |     62.82%
   -- Instruction scalability          |    100.00% |     99.80% |     99.55% |     99.29% |     99.03%
   -- Frequency scalability            |    100.00% |     97.80% |     92.21% |     89.55% |     89.83%
=======================================================================================================

Statistics about explicit tasks in parallel fraction
==========================================================================================================================================
                            Number of processors |               1 |               4 |               8 |              12 |              16
==========================================================================================================================================
Number of explicit tasks executed (total)        |          2630.0 |         10520.0 |         21040.0 |         31560.0 |         42080.0
LB (number of explicit tasks executed)           |             1.0 |            0.96 |            0.96 |            0.88 |            0.88
LB (time executing explicit tasks)               |             1.0 |            0.98 |            0.97 |            0.97 |            0.97
Time per explicit task (average)                 |          480.98 |          146.28 |            87.7 |           63.29 |           53.78
Overhead per explicit task (synch %)             |            0.02 |            4.74 |             7.7 |           32.94 |           82.87
Overhead per explicit task (sched %)             |            0.13 |            0.32 |            0.76 |            3.91 |            6.18
Number of taskwait/taskgroup (total)             |           263.0 |           263.0 |           263.0 |           263.0 |           263.0
==========================================================================================================================================

