\relax 
\@writefile{lot}{\contentsline {table}{\numberline {1}{\ignorespaces  Analysis done on Tue Sep 13 05:09:02 PM CEST 2022, par2107}}{1}{}\protected@file@percent }
\@writefile{lot}{\contentsline {table}{\numberline {2}{\ignorespaces  Analysis done on Tue Sep 13 05:09:02 PM CEST 2022, par2107}}{2}{}\protected@file@percent }
\@writefile{lot}{\contentsline {table}{\numberline {3}{\ignorespaces  Analysis done on Tue Sep 13 05:09:02 PM CEST 2022, par2107}}{2}{}\protected@file@percent }
\gdef \@abspage@last{2}
